{
    "materials": [{
        "colorDiffuse": [0.64,0.64,0.64],
        "DbgColor": 15658734,
        "opacity": 1,
        "specularCoef": 50,
        "mapDiffuseAnisotropy": 1,
        "transparent": false,
        "colorSpecular": [0.5,0.5,0.5],
        "colorEmissive": [0,0,0],
        "blending": "NormalBlending",
        "colorAmbient": [0.64,0.64,0.64],
        "mapDiffuseWrap": ["RepeatWrapping","RepeatWrapping"],
        "depthTest": true,
        "mapDiffuseRepeat": [1,1],
        "depthWrite": true,
        "visible": true,
        "DbgIndex": 0,
        "shading": "phong",
        "mapDiffuse": "divers2T2.png",
        "DbgName": "Material",
        "wireframe": false
    }],
    "metadata": {
        "generator": "io_three",
        "normals": 462,
        "materials": 1,
        "version": 3,
        "type": "Geometry",
        "uvs": 1,
        "faces": 889,
        "vertices": 840
    },
    "vertices": [4.4871,0.409968,3.17073,4.4871,0.397323,3.17073,6,0,6,6,-0,-6,-6,0,6,-6,-0,-6,3.50597,0.469298,2.88531,3.50597,-0.024676,2.88531,3.49791,0.469298,2.9168,3.49791,-0.024676,2.9168,3.49519,0.469298,2.94956,3.49519,-0.024676,2.94956,3.51905,-0.024676,2.85628,3.51905,0.469298,2.85628,3.53666,-0.024676,2.83084,3.53666,0.469298,2.83084,3.55811,-0.024676,2.80996,3.55811,0.469298,2.80996,3.58259,-0.024676,2.79445,3.58259,0.469298,2.79445,3.60915,-0.024676,2.78489,3.60915,0.469298,2.78489,3.63677,-0.024676,2.78166,3.63677,0.469298,2.78166,3.66439,-0.024676,2.78489,3.66439,0.469298,2.78489,3.69095,-0.024676,2.79445,3.69095,0.469298,2.79445,3.71543,-0.024676,2.80996,3.71543,0.469298,2.80996,3.73688,-0.024676,2.83084,3.73688,0.469298,2.83084,3.75449,-0.024676,2.85628,3.75449,0.469298,2.85628,3.76757,-0.024676,2.88531,3.76757,0.469298,2.88531,3.77563,-0.024676,2.9168,3.77563,0.469298,2.9168,3.77835,-0.024676,2.94956,3.77835,0.469298,2.94956,3.77563,-0.024676,2.98231,3.77563,0.469298,2.98231,3.76757,-0.024676,3.01381,3.76757,0.469298,3.01381,3.75449,-0.024676,3.04283,3.75449,0.469298,3.04283,3.73688,-0.024676,3.06827,3.73688,0.469298,3.06827,3.71543,-0.024676,3.08915,3.71543,0.469298,3.08915,3.69095,-0.024676,3.10467,3.69095,0.469298,3.10467,3.66439,-0.024676,3.11422,3.66439,0.469298,3.11422,3.63677,-0.024676,3.11745,3.63677,0.469298,3.11745,3.60915,-0.024676,3.11422,3.60915,0.469298,3.11422,3.58259,-0.024676,3.10467,3.58259,0.469298,3.10467,3.55811,-0.024676,3.08915,3.55811,0.469298,3.08915,3.53666,-0.024676,3.06827,3.53666,0.469298,3.06827,3.51905,-0.024676,3.04283,3.51905,0.469298,3.04283,3.50597,-0.024676,3.01381,3.50597,0.469298,3.01381,3.49791,-0.024676,2.98231,3.49791,0.469298,2.98231,3.51409,5.8781,2.92062,3.51169,5.8781,2.94956,3.52121,5.8781,2.89279,3.53277,5.8781,2.86715,3.54833,5.8781,2.84467,3.56728,5.8781,2.82623,3.5889,5.8781,2.81252,3.61237,5.8781,2.80408,3.63677,5.8781,2.80123,3.66117,5.8781,2.80408,3.68464,5.8781,2.81252,3.70626,5.8781,2.82623,3.72521,5.8781,2.84467,3.74077,5.8781,2.86715,3.75233,5.8781,2.89279,3.75944,5.8781,2.92062,3.76185,5.8781,2.94956,3.75944,5.8781,2.97849,3.75233,5.8781,3.00632,3.74077,5.8781,3.03196,3.72521,5.8781,3.05444,3.70626,5.8781,3.07288,3.68464,5.8781,3.08659,3.66117,5.8781,3.09503,3.63677,5.8781,3.09788,3.61237,5.8781,3.09503,3.5889,5.8781,3.08659,3.56728,5.8781,3.07288,3.54833,5.8781,3.05444,3.53277,5.8781,3.03196,3.52121,5.8781,3.00632,3.51409,5.8781,2.97849,3.50746,10.0705,2.941,3.5051,10.0705,2.96942,3.51445,10.0705,2.91367,3.5258,10.0705,2.88848,3.54108,10.0705,2.8664,3.5597,10.0705,2.84829,3.58094,10.0705,2.83482,3.60398,10.0705,2.82653,3.62795,10.0705,2.82373,3.65192,10.0705,2.82653,3.67496,10.0705,2.83482,3.6962,10.0705,2.84829,3.71482,10.0705,2.8664,3.7301,10.0705,2.88848,3.74145,10.0705,2.91367,3.74844,10.0705,2.941,3.7508,10.0705,2.96942,3.74844,10.0705,2.99784,3.74145,10.0705,3.02517,3.7301,10.0705,3.05036,3.71482,10.0705,3.07244,3.6962,10.0705,3.09055,3.67496,10.0705,3.10402,3.65192,10.0705,3.11231,3.62795,10.0705,3.11511,3.60398,10.0705,3.11231,3.58094,10.0705,3.10402,3.5597,10.0705,3.09055,3.54108,10.0705,3.07244,3.5258,10.0705,3.05036,3.51445,10.0705,3.02517,3.50746,10.0705,2.99784,3.51884,10.354,2.94686,3.5167,10.3419,2.96942,3.52517,10.3656,2.92516,3.53545,10.3763,2.90516,3.54929,10.3856,2.88763,3.56615,10.3933,2.87325,3.58538,10.3991,2.86256,3.60625,10.4026,2.85598,3.62795,10.4038,2.85376,3.64965,10.4026,2.85598,3.67052,10.3991,2.86256,3.68975,10.3933,2.87325,3.70661,10.3856,2.88763,3.72045,10.3763,2.90516,3.73073,10.3656,2.92516,3.73706,10.354,2.94686,3.7392,10.3419,2.96942,3.73706,10.3298,2.99199,3.73073,10.3182,3.01368,3.72045,10.3075,3.03368,3.70661,10.2981,3.05121,3.68975,10.2904,3.06559,3.67052,10.2847,3.07628,3.64965,10.2812,3.08286,3.62795,10.28,3.08508,3.60625,10.2812,3.08286,3.58538,10.2847,3.07628,3.56615,10.2904,3.06559,3.54929,10.2981,3.05121,3.53545,10.3075,3.03368,3.52517,10.3182,3.01368,3.51884,10.3298,2.99199,3.51884,10.4899,3.0256,3.5167,10.4702,3.04159,3.52517,10.5088,3.01023,3.53545,10.5262,2.99606,3.54929,10.5415,2.98364,3.56615,10.5541,2.97345,3.58538,10.5634,2.96588,3.60625,10.5691,2.96122,3.62795,10.571,2.95964,3.64965,10.5691,2.96122,3.67052,10.5634,2.96588,3.68975,10.5541,2.97345,3.70661,10.5415,2.98364,3.72045,10.5262,2.99606,3.73073,10.5088,3.01023,3.73706,10.4899,3.0256,3.7392,10.4702,3.04159,3.73706,10.4505,3.05757,3.73073,10.4316,3.07295,3.72045,10.4142,3.08711,3.70661,10.3989,3.09953,3.68975,10.3864,3.10972,3.67052,10.377,3.11729,3.64965,10.3713,3.12196,3.62795,10.3694,3.12353,3.60625,10.3713,3.12196,3.58538,10.377,3.11729,3.56615,10.3864,3.10972,3.54929,10.3989,3.09953,3.53545,10.4142,3.08711,3.52517,10.4316,3.07295,3.51884,10.4505,3.05757,3.56422,10.683,3.29716,3.56297,10.6683,3.29781,3.56792,10.697,3.29653,3.57392,10.71,3.29596,3.582,10.7214,3.29546,3.59185,10.7307,3.29504,3.60308,10.7377,3.29473,3.61527,10.742,3.29454,3.62795,10.7434,3.29448,3.64063,10.742,3.29454,3.65282,10.7377,3.29473,3.66405,10.7307,3.29504,3.6739,10.7214,3.29546,3.68198,10.71,3.29596,3.68798,10.697,3.29653,3.69168,10.683,3.29716,3.69293,10.6683,3.29781,3.69168,10.6537,3.29846,3.68798,10.6396,3.29908,3.68198,10.6266,3.29966,3.6739,10.6152,3.30016,3.66405,10.6059,3.30057,3.65282,10.5989,3.30088,3.64063,10.5947,3.30107,3.62795,10.5932,3.30114,3.61527,10.5947,3.30107,3.60308,10.5989,3.30088,3.59185,10.6059,3.30057,3.582,10.6152,3.30016,3.57392,10.6266,3.29966,3.56792,10.6396,3.29908,3.56422,10.6537,3.29846,3.52679,10.7117,3.8126,3.52481,10.703,3.81325,3.53266,10.7201,3.81197,3.54219,10.7278,3.8114,3.55502,10.7345,3.81089,3.57065,10.7401,3.81048,3.58848,10.7442,3.81017,3.60783,10.7467,3.80998,3.62795,10.7476,3.80992,3.64807,10.7467,3.80998,3.66742,10.7442,3.81017,3.68525,10.7401,3.81048,3.70088,10.7345,3.81089,3.71371,10.7278,3.8114,3.72324,10.7201,3.81197,3.72911,10.7117,3.8126,3.73109,10.703,3.81325,3.72911,10.6943,3.8139,3.75834,10.6235,3.45314,3.7453,10.5953,3.45439,3.72774,10.5706,3.45548,3.70636,10.5503,3.45638,3.68196,10.5352,3.45705,3.65548,10.5259,3.45746,3.62795,10.5228,3.4576,3.60042,10.5259,3.45746,3.57394,10.5352,3.45705,3.54954,10.5503,3.45638,3.52816,10.5706,3.45548,3.5106,10.5953,3.45439,3.49756,10.6235,3.45314,3.52679,10.6943,3.8139,3.52679,10.7117,3.8126,3.52481,10.703,3.81325,3.53266,10.7201,3.81197,3.54219,10.7278,3.8114,3.55502,10.7345,3.81089,3.57065,10.7401,3.81048,3.58848,10.7442,3.81017,3.60783,10.7467,3.80998,3.62795,10.7476,3.80992,3.64807,10.7467,3.80998,3.66742,10.7442,3.81017,3.68525,10.7401,3.81048,3.70088,10.7345,3.81089,3.71371,10.7278,3.8114,3.72324,10.7201,3.81197,3.72911,10.7117,3.8126,3.73109,10.703,3.81325,3.72911,10.6943,3.8139,3.75834,10.6235,3.45314,3.7453,10.5953,3.45439,3.72774,10.5706,3.45548,3.70636,10.5503,3.45638,3.68196,10.5352,3.45705,3.65548,10.5259,3.45746,3.62795,10.5228,3.4576,3.60042,10.5259,3.45746,3.57394,10.5352,3.45705,3.54954,10.5503,3.45638,3.52816,10.5706,3.45548,3.5106,10.5953,3.45439,3.49756,10.6235,3.45314,3.52679,10.6943,3.8139,3.31694,10.7335,3.69508,3.31084,10.7067,3.69708,3.33498,10.7592,3.69316,3.36429,10.7829,3.69139,3.40372,10.8036,3.68984,3.45178,10.8207,3.68857,3.5066,10.8334,3.68762,3.56609,10.8412,3.68704,3.62795,10.8438,3.68685,3.68981,10.8412,3.68704,3.7493,10.8334,3.68762,3.80412,10.8207,3.68857,3.85218,10.8036,3.68984,3.89161,10.7829,3.69139,3.92092,10.7592,3.69316,3.93896,10.7335,3.69508,3.94506,10.7067,3.69708,3.93896,10.68,3.69907,3.92092,10.6543,3.70099,3.89161,10.6306,3.70276,3.85218,10.6098,3.70431,3.80412,10.5928,3.70558,3.7493,10.5801,3.70653,3.68981,10.5723,3.70711,3.62795,10.5697,3.70731,3.56609,10.5723,3.70711,3.5066,10.5801,3.70653,3.45178,10.5928,3.70558,3.40372,10.6098,3.70431,3.36429,10.6306,3.70276,3.33498,10.6543,3.70099,3.31694,10.68,3.69907,3.38771,10.7439,4.3569,3.383,10.7233,4.35844,3.40165,10.7638,4.35542,3.42428,10.7821,4.35405,3.45475,10.7981,4.35286,3.49187,10.8113,4.35187,3.53421,10.8211,4.35114,3.58016,10.8271,4.35069,3.62795,10.8292,4.35054,3.67574,10.8271,4.35069,3.72169,10.8211,4.35114,3.76403,10.8113,4.35187,3.80115,10.7981,4.35286,3.83162,10.7821,4.35405,3.85425,10.7638,4.35542,3.86819,10.7439,4.3569,3.8729,10.7233,4.35844,3.86819,10.7026,4.35998,3.85425,10.6828,4.36147,3.83162,10.6645,4.36283,3.80115,10.6484,4.36403,3.76403,10.6352,4.36501,3.72169,10.6255,4.36575,3.67574,10.6194,4.3662,3.62795,10.6174,4.36635,3.58016,10.6194,4.3662,3.53421,10.6255,4.36575,3.49187,10.6352,4.36501,3.45475,10.6484,4.36403,3.42428,10.6645,4.36283,3.40165,10.6828,4.36147,3.38771,10.7026,4.35998,3.38771,10.7439,4.3569,3.383,10.7233,4.35844,3.40165,10.7638,4.35542,3.42428,10.7821,4.35405,3.45475,10.7981,4.35286,3.49187,10.8113,4.35187,3.53421,10.8211,4.35114,3.58016,10.8271,4.35069,3.62795,10.8292,4.35054,3.67574,10.8271,4.35069,3.72169,10.8211,4.35114,3.76403,10.8113,4.35187,3.80115,10.7981,4.35286,3.83162,10.7821,4.35405,3.85425,10.7638,4.35542,3.86819,10.7439,4.3569,3.8729,10.7233,4.35844,3.86819,10.7026,4.35998,3.85425,10.6828,4.36147,3.83162,10.6645,4.36283,3.80115,10.6484,4.36403,3.76403,10.6352,4.36501,3.72169,10.6255,4.36575,3.67574,10.6194,4.3662,3.62795,10.6174,4.36635,3.58016,10.6194,4.3662,3.53421,10.6255,4.36575,3.49187,10.6352,4.36501,3.45475,10.6484,4.36403,3.42428,10.6645,4.36283,3.40165,10.6828,4.36147,3.38771,10.7026,4.35998,3.42195,10.7475,4.61831,3.41791,10.7298,4.61963,3.4339,10.7646,4.61703,3.45331,10.7803,4.61586,3.47943,10.794,4.61484,3.51126,10.8053,4.61399,3.54757,10.8137,4.61337,3.58697,10.8189,4.61298,3.62795,10.8206,4.61285,3.66893,10.8189,4.61298,3.70833,10.8137,4.61337,3.74464,10.8053,4.61399,3.77647,10.794,4.61484,3.80259,10.7803,4.61586,3.822,10.7646,4.61703,3.83396,10.7475,4.61831,3.83799,10.7298,4.61963,3.83396,10.7121,4.62095,3.822,10.6951,4.62222,3.80259,10.6794,4.62339,3.77647,10.6656,4.62442,3.74464,10.6543,4.62526,3.70833,10.6459,4.62589,3.66893,10.6408,4.62627,3.62795,10.639,4.6264,3.58697,10.6408,4.62627,3.54757,10.6459,4.62589,3.51126,10.6543,4.62526,3.47943,10.6656,4.62442,3.45331,10.6794,4.62339,3.4339,10.6951,4.62222,3.42195,10.7121,4.62095,-2.10539,0.409968,3.17073,-2.10539,0.397323,3.17073,-3.08652,0.469298,2.88531,-3.08652,-0.024676,2.88531,-3.09457,0.469298,2.9168,-3.09457,-0.024676,2.9168,-3.09729,0.469298,2.94956,-3.09729,-0.024676,2.94956,-3.07343,-0.024676,2.85628,-3.07343,0.469298,2.85628,-3.05583,-0.024676,2.83084,-3.05583,0.469298,2.83084,-3.03437,-0.024676,2.80996,-3.03437,0.469298,2.80996,-3.0099,-0.024676,2.79444,-3.0099,0.469298,2.79444,-2.98334,-0.024676,2.78489,-2.98334,0.469298,2.78489,-2.95572,-0.024676,2.78166,-2.95572,0.469298,2.78166,-2.9281,-0.024676,2.78489,-2.9281,0.469298,2.78489,-2.90154,-0.024676,2.79444,-2.90154,0.469298,2.79444,-2.87706,-0.024676,2.80996,-2.87706,0.469298,2.80996,-2.85561,-0.024676,2.83084,-2.85561,0.469298,2.83084,-2.838,-0.024676,2.85628,-2.838,0.469298,2.85628,-2.82491,-0.024676,2.88531,-2.82491,0.469298,2.88531,-2.81686,-0.024676,2.9168,-2.81686,0.469298,2.9168,-2.81414,-0.024676,2.94956,-2.81414,0.469298,2.94956,-2.81686,-0.024676,2.98231,-2.81686,0.469298,2.98231,-2.82491,-0.024676,3.01381,-2.82491,0.469298,3.01381,-2.838,-0.024676,3.04283,-2.838,0.469298,3.04283,-2.85561,-0.024676,3.06827,-2.85561,0.469298,3.06827,-2.87706,-0.024676,3.08915,-2.87706,0.469298,3.08915,-2.90154,-0.024676,3.10467,-2.90154,0.469298,3.10467,-2.9281,-0.024676,3.11422,-2.9281,0.469298,3.11422,-2.95572,-0.024676,3.11745,-2.95572,0.469298,3.11745,-2.98334,-0.024676,3.11422,-2.98334,0.469298,3.11422,-3.0099,-0.024676,3.10467,-3.0099,0.469298,3.10467,-3.03437,-0.024676,3.08915,-3.03437,0.469298,3.08915,-3.05583,-0.024676,3.06827,-3.05583,0.469298,3.06827,-3.07343,-0.024676,3.04283,-3.07343,0.469298,3.04283,-3.08652,-0.024676,3.0138,-3.08652,0.469298,3.0138,-3.09457,-0.024676,2.98231,-3.09457,0.469298,2.98231,-3.07839,5.8781,2.92062,-3.0808,5.8781,2.94956,-3.07127,5.8781,2.89279,-3.05972,5.8781,2.86715,-3.04416,5.8781,2.84467,-3.02521,5.8781,2.82623,-3.00358,5.8781,2.81252,-2.98012,5.8781,2.80408,-2.95572,5.8781,2.80123,-2.93131,5.8781,2.80408,-2.90785,5.8781,2.81252,-2.88623,5.8781,2.82623,-2.86727,5.8781,2.84467,-2.85172,5.8781,2.86715,-2.84016,5.8781,2.89279,-2.83304,5.8781,2.92062,-2.83064,5.8781,2.94956,-2.83304,5.8781,2.97849,-2.84016,5.8781,3.00632,-2.85172,5.8781,3.03196,-2.86727,5.8781,3.05444,-2.88623,5.8781,3.07288,-2.90785,5.8781,3.08659,-2.93131,5.8781,3.09503,-2.95572,5.8781,3.09788,-2.98012,5.8781,3.09503,-3.00358,5.8781,3.08659,-3.02521,5.8781,3.07288,-3.04416,5.8781,3.05444,-3.05972,5.8781,3.03196,-3.07127,5.8781,3.00632,-3.07839,5.8781,2.97849,-3.08503,10.0705,2.941,-3.08739,10.0705,2.96942,-3.07804,10.0705,2.91367,-3.06668,10.0705,2.88848,-3.0514,10.0705,2.8664,-3.03279,10.0705,2.84829,-3.01155,10.0705,2.83482,-2.9885,10.0705,2.82653,-2.96454,10.0705,2.82373,-2.94057,10.0705,2.82653,-2.91752,10.0705,2.83482,-2.89628,10.0705,2.84829,-2.87766,10.0705,2.8664,-2.86239,10.0705,2.88848,-2.85103,10.0705,2.91367,-2.84404,10.0705,2.941,-2.84168,10.0705,2.96942,-2.84404,10.0705,2.99784,-2.85103,10.0705,3.02517,-2.86239,10.0705,3.05036,-2.87767,10.0705,3.07244,-2.89628,10.0705,3.09055,-2.91752,10.0705,3.10402,-2.94057,10.0705,3.11231,-2.96454,10.0705,3.11511,-2.9885,10.0705,3.11231,-3.01155,10.0705,3.10402,-3.03279,10.0705,3.09055,-3.0514,10.0705,3.07244,-3.06668,10.0705,3.05036,-3.07804,10.0705,3.02517,-3.08503,10.0705,2.99784,-3.07364,10.354,2.94685,-3.07578,10.3419,2.96942,-3.06731,10.3656,2.92516,-3.05703,10.3763,2.90516,-3.0432,10.3856,2.88763,-3.02634,10.3933,2.87325,-3.00711,10.3991,2.86256,-2.98624,10.4026,2.85598,-2.96454,10.4038,2.85376,-2.94283,10.4026,2.85598,-2.92196,10.3991,2.86256,-2.90273,10.3933,2.87325,-2.88587,10.3856,2.88763,-2.87204,10.3763,2.90516,-2.86176,10.3656,2.92516,-2.85543,10.354,2.94685,-2.85329,10.3419,2.96942,-2.85543,10.3298,2.99198,-2.86176,10.3182,3.01368,-2.87204,10.3075,3.03368,-2.88587,10.2981,3.05121,-2.90273,10.2904,3.06559,-2.92196,10.2847,3.07628,-2.94283,10.2812,3.08286,-2.96454,10.28,3.08508,-2.98624,10.2812,3.08286,-3.00711,10.2847,3.07628,-3.02634,10.2904,3.06559,-3.0432,10.2981,3.05121,-3.05703,10.3075,3.03368,-3.06731,10.3182,3.01368,-3.07364,10.3298,2.99198,-3.07364,10.4899,3.0256,-3.07578,10.4702,3.04159,-3.06731,10.5088,3.01023,-3.05703,10.5262,2.99606,-3.0432,10.5415,2.98364,-3.02634,10.5541,2.97345,-3.00711,10.5634,2.96588,-2.98624,10.5691,2.96121,-2.96454,10.571,2.95964,-2.94283,10.5691,2.96121,-2.92196,10.5634,2.96588,-2.90273,10.5541,2.97345,-2.88587,10.5415,2.98364,-2.87204,10.5262,2.99606,-2.86176,10.5088,3.01023,-2.85543,10.4899,3.0256,-2.85329,10.4702,3.04159,-2.85543,10.4505,3.05757,-2.86176,10.4316,3.07295,-2.87204,10.4142,3.08711,-2.88587,10.3989,3.09953,-2.90273,10.3864,3.10972,-2.92196,10.377,3.11729,-2.94283,10.3713,3.12196,-2.96454,10.3694,3.12353,-2.98624,10.3713,3.12196,-3.00711,10.377,3.11729,-3.02634,10.3864,3.10972,-3.0432,10.3989,3.09953,-3.05703,10.4142,3.08711,-3.06731,10.4316,3.07295,-3.07364,10.4505,3.05757,-3.02827,10.683,3.29716,-3.02951,10.6683,3.29781,-3.02457,10.697,3.29653,-3.01856,10.71,3.29596,-3.01048,10.7214,3.29546,-3.00064,10.7307,3.29504,-2.9894,10.7377,3.29473,-2.97721,10.742,3.29454,-2.96454,10.7434,3.29448,-2.95186,10.742,3.29454,-2.93967,10.7377,3.29473,-2.92843,10.7307,3.29504,-2.91859,10.7214,3.29546,-2.91051,10.71,3.29596,-2.9045,10.697,3.29653,-2.9008,10.683,3.29716,-2.89955,10.6683,3.29781,-2.9008,10.6537,3.29846,-2.9045,10.6396,3.29908,-2.91051,10.6266,3.29966,-2.91859,10.6152,3.30016,-2.92843,10.6059,3.30057,-2.93967,10.5989,3.30088,-2.95186,10.5947,3.30107,-2.96454,10.5932,3.30113,-2.97721,10.5947,3.30107,-2.9894,10.5989,3.30088,-3.00064,10.6059,3.30057,-3.01048,10.6152,3.30016,-3.01856,10.6266,3.29966,-3.02457,10.6396,3.29908,-3.02827,10.6537,3.29846,-3.06569,10.7117,3.8126,-3.06768,10.703,3.81325,-3.05982,10.7201,3.81197,-3.05029,10.7278,3.8114,-3.03747,10.7345,3.81089,-3.02184,10.7401,3.81048,-3.00401,10.7442,3.81017,-2.98466,10.7467,3.80998,-2.96454,10.7476,3.80992,-2.94441,10.7467,3.80998,-2.92507,10.7442,3.81017,-2.90724,10.7401,3.81048,-2.89161,10.7345,3.81089,-2.87878,10.7278,3.8114,-2.86925,10.7201,3.81197,-2.86338,10.7117,3.8126,-2.8614,10.703,3.81325,-2.86338,10.6943,3.8139,-2.83415,10.6235,3.45314,-2.84719,10.5953,3.45439,-2.86474,10.5706,3.45548,-2.88613,10.5503,3.45638,-2.91053,10.5352,3.45705,-2.937,10.5259,3.45746,-2.96454,10.5228,3.4576,-2.99207,10.5259,3.45746,-3.01854,10.5352,3.45705,-3.04294,10.5503,3.45638,-3.06433,10.5706,3.45548,-3.08188,10.5953,3.45439,-3.09492,10.6235,3.45314,-3.06569,10.6943,3.8139,-3.06569,10.7117,3.8126,-3.06768,10.703,3.81325,-3.05982,10.7201,3.81197,-3.05029,10.7278,3.8114,-3.03747,10.7345,3.81089,-3.02184,10.7401,3.81048,-3.00401,10.7442,3.81017,-2.98466,10.7467,3.80998,-2.96454,10.7476,3.80992,-2.94441,10.7467,3.80998,-2.92507,10.7442,3.81017,-2.90724,10.7401,3.81048,-2.89161,10.7345,3.81089,-2.87878,10.7278,3.8114,-2.86925,10.7201,3.81197,-2.86338,10.7117,3.8126,-2.8614,10.703,3.81325,-2.86338,10.6943,3.8139,-2.83415,10.6235,3.45314,-2.84719,10.5953,3.45439,-2.86474,10.5706,3.45548,-2.88613,10.5503,3.45638,-2.91053,10.5352,3.45705,-2.937,10.5259,3.45746,-2.96454,10.5228,3.4576,-2.99207,10.5259,3.45746,-3.01854,10.5352,3.45705,-3.04294,10.5503,3.45638,-3.06433,10.5706,3.45548,-3.08188,10.5953,3.45439,-3.09492,10.6235,3.45314,-3.06569,10.6943,3.8139,-3.27555,10.7335,3.69508,-3.28164,10.7067,3.69707,-3.2575,10.7592,3.69316,-3.2282,10.7829,3.69139,-3.18876,10.8036,3.68984,-3.14071,10.8207,3.68857,-3.08589,10.8334,3.68762,-3.0264,10.8412,3.68704,-2.96454,10.8438,3.68685,-2.90267,10.8412,3.68704,-2.84318,10.8334,3.68762,-2.78836,10.8207,3.68857,-2.74031,10.8036,3.68984,-2.70087,10.7829,3.69139,-2.67157,10.7592,3.69316,-2.65352,10.7335,3.69508,-2.64743,10.7067,3.69707,-2.65352,10.68,3.69907,-2.67157,10.6543,3.70099,-2.70087,10.6306,3.70276,-2.74031,10.6098,3.70431,-2.78836,10.5928,3.70558,-2.84318,10.5801,3.70653,-2.90267,10.5723,3.70711,-2.96454,10.5697,3.70731,-3.0264,10.5723,3.70711,-3.08589,10.5801,3.70653,-3.14071,10.5928,3.70558,-3.18876,10.6098,3.70431,-3.2282,10.6306,3.70276,-3.2575,10.6543,3.70099,-3.27555,10.68,3.69907,-3.20478,10.7439,4.3569,-3.20948,10.7233,4.35844,-3.19084,10.7638,4.35542,-3.1682,10.7821,4.35405,-3.13774,10.7981,4.35286,-3.10062,10.8113,4.35187,-3.05827,10.8211,4.35114,-3.01232,10.8271,4.35069,-2.96454,10.8292,4.35054,-2.91675,10.8271,4.35069,-2.8708,10.8211,4.35114,-2.82845,10.8113,4.35187,-2.79133,10.7981,4.35286,-2.76087,10.7821,4.35405,-2.73823,10.7638,4.35542,-2.72429,10.7439,4.3569,-2.71959,10.7233,4.35844,-2.72429,10.7026,4.35998,-2.73823,10.6828,4.36147,-2.76087,10.6645,4.36283,-2.79133,10.6484,4.36403,-2.82845,10.6352,4.36501,-2.8708,10.6255,4.36575,-2.91675,10.6194,4.3662,-2.96454,10.6174,4.36634,-3.01232,10.6194,4.3662,-3.05827,10.6255,4.36575,-3.10062,10.6352,4.36501,-3.13774,10.6484,4.36403,-3.1682,10.6645,4.36283,-3.19084,10.6828,4.36147,-3.20478,10.7026,4.35998,-3.20478,10.7439,4.3569,-3.20948,10.7233,4.35844,-3.19084,10.7638,4.35542,-3.1682,10.7821,4.35405,-3.13774,10.7981,4.35286,-3.10062,10.8113,4.35187,-3.05827,10.8211,4.35114,-3.01232,10.8271,4.35069,-2.96454,10.8292,4.35054,-2.91675,10.8271,4.35069,-2.8708,10.8211,4.35114,-2.82845,10.8113,4.35187,-2.79133,10.7981,4.35286,-2.76087,10.7821,4.35405,-2.73823,10.7638,4.35542,-2.72429,10.7439,4.3569,-2.71959,10.7233,4.35844,-2.72429,10.7026,4.35998,-2.73823,10.6828,4.36147,-2.76087,10.6645,4.36283,-2.79133,10.6484,4.36403,-2.82845,10.6352,4.36501,-2.8708,10.6255,4.36575,-2.91675,10.6194,4.3662,-2.96454,10.6174,4.36634,-3.01232,10.6194,4.3662,-3.05827,10.6255,4.36575,-3.10062,10.6352,4.36501,-3.13774,10.6484,4.36403,-3.1682,10.6645,4.36283,-3.19084,10.6828,4.36147,-3.20478,10.7026,4.35998,-3.17054,10.7475,4.6183,-3.17458,10.7298,4.61963,-3.15859,10.7646,4.61703,-3.13918,10.7803,4.61586,-3.11306,10.794,4.61484,-3.08123,10.8053,4.61399,-3.04491,10.8137,4.61336,-3.00551,10.8189,4.61298,-2.96454,10.8206,4.61285,-2.92356,10.8189,4.61298,-2.88415,10.8137,4.61336,-2.84784,10.8053,4.61399,-2.81601,10.794,4.61484,-2.78989,10.7803,4.61586,-2.77048,10.7646,4.61703,-2.75853,10.7475,4.61831,-2.75449,10.7298,4.61963,-2.75853,10.7121,4.62095,-2.77048,10.6951,4.62222,-2.78989,10.6794,4.62339,-2.81601,10.6656,4.62442,-2.84784,10.6543,4.62526,-2.88415,10.6459,4.62589,-2.92356,10.6408,4.62627,-2.96454,10.639,4.6264,-3.00551,10.6408,4.62627,-3.04491,10.6459,4.62589,-3.08123,10.6543,4.62526,-3.11306,10.6656,4.62442,-3.13918,10.6794,4.62339,-3.15859,10.6951,4.62222,-3.17054,10.7121,4.62095],
    "normals": [0,1,0,-0.724815,-0.688925,0,-0.999969,0.001495,0,-0.986114,0.001526,-0.165868,-0.714957,-0.688742,-0.120243,-0.943754,0.001556,-0.330607,-0.684744,-0.688162,-0.239875,-0.870571,0.001587,-0.492019,-0.632405,-0.687216,-0.357402,-0.763421,0.001648,-0.645894,-0.555467,-0.685965,-0.469955,-0.619678,0.001679,-0.784814,-0.451704,-0.684591,-0.572069,-0.439558,0.00174,-0.89819,-0.320963,-0.683248,-0.655843,-0.228736,0.00177,-0.973479,-0.167211,-0.682241,-0.711692,0,0.001801,-0.999969,0,-0.681875,-0.731437,0.228736,0.00177,-0.973479,0.167211,-0.682241,-0.711692,0.439558,0.00174,-0.89819,0.320963,-0.683248,-0.655843,0.619678,0.001679,-0.784814,0.451704,-0.684561,-0.572069,0.763421,0.001648,-0.645894,0.555467,-0.685965,-0.469955,0.87054,0.001587,-0.492019,0.632405,-0.687216,-0.357433,0.943754,0.001556,-0.330607,0.684744,-0.688162,-0.239845,0.986145,0.001526,-0.165868,0.714957,-0.688742,-0.120243,0.999969,0.001495,0,0.724784,-0.688925,0,0.986145,0.001526,0.165868,0.714957,-0.688742,0.120243,0.943754,0.001556,0.330607,0.684744,-0.688162,0.239875,0.87054,0.001587,0.492019,0.632405,-0.687216,0.357433,0.763421,0.001648,0.645863,0.555467,-0.685965,0.469924,0.619678,0.001679,0.784814,0.451704,-0.684561,0.572069,0.439558,0.00174,0.89819,0.320963,-0.683248,0.655843,0.228706,0.00177,0.973479,0.167211,-0.682241,0.711692,0,0.001801,0.999969,0,-0.681906,0.731437,-0.228736,0.00177,0.973479,-0.167211,-0.682241,0.711692,-0.439558,0.00174,0.89819,-0.320963,-0.683248,0.655843,-0.619678,0.001679,0.784814,-0.451704,-0.684561,0.572069,-0.763421,0.001648,0.645863,-0.555467,-0.685965,0.469924,-0.870571,0.001587,0.492019,-0.632405,-0.687216,0.357402,-0.943754,0.001556,0.330607,-0.684744,-0.688162,0.239845,0.439558,0.004639,-0.89819,0.619678,0.004486,-0.784814,-0.714957,-0.688742,0.120243,-0.986114,0.001526,0.165868,-0.763329,0.002655,-0.645985,-0.870479,0.002106,-0.492141,-0.866176,0.027985,-0.498917,-0.756523,0.03296,-0.653096,0.870632,0.001617,0.491867,0.763543,0.00119,0.645741,-0.763482,-0.000366,0.645802,-0.870602,-0.000183,0.491928,-0.439467,0.003723,-0.898221,-0.228645,0.004151,-0.973479,0.986114,0.003204,-0.16596,0.999969,0.002838,-0.000122,6.1e-05,-0.000244,1,-0.228706,-0.000427,0.973479,-0.943693,0.001617,-0.330729,0.76339,0.004242,-0.645894,0.619831,0.000793,0.784692,-0.943785,3.1e-05,0.330485,6.1e-05,0.004486,-0.999969,0.986145,0.002441,0.165716,-0.439589,-0.000519,0.89819,0.87051,0.003937,-0.49208,0.43968,0.000397,0.898129,-0.986145,0.000366,0.165746,0.228767,0.004639,-0.973449,0.943815,0.002014,0.330454,-0.619739,-0.000488,0.784783,-0.619587,0.003204,-0.784906,0.943724,0.003601,-0.330668,0.228858,3.1e-05,0.973449,-0.999969,0.000732,-0.000122,-0.986114,0.001129,-0.16599,-0.224097,0.045961,-0.973449,-0.431867,0.042726,-0.900906,-0.42848,0.290567,-0.855525,-0.222266,0.315012,-0.922666,-0.937742,0.027253,0.346171,-0.983978,0.022736,0.176702,0.983917,0.024812,0.176702,0.937681,0.029237,0.346202,-0.611377,0.038148,-0.790399,-0.999756,0.020814,0.005188,0.859279,0.035981,0.510178,0.747032,0.044374,0.663289,0.600421,0.053224,0.797876,-6.1e-05,0.047273,-0.998871,0.421888,0.061068,0.904569,0.223945,0.046449,-0.973479,0.217994,0.066378,0.973662,0.431745,0.043641,-0.900906,-6.1e-05,0.068117,0.99765,0.611255,0.03946,-0.790429,-0.218146,0.06592,0.973662,0.756432,0.034577,-0.653127,-0.42201,0.060152,0.904569,0.866115,0.029817,-0.498917,-0.600543,0.051912,0.797876,0.941832,0.025849,-0.335032,-0.98587,0.021332,-0.166051,-0.747124,0.042756,0.663259,0.985809,0.023408,-0.166051,-0.941893,0.023865,-0.335032,-0.859371,0.03415,0.510178,0.999695,0.022919,0.005188,0.42848,0.290567,-0.855525,0.222266,0.315012,-0.922666,0.222114,0.720511,-0.65685,0.428877,0.669179,-0.6068,0.759087,-0.100223,0.643178,0.611652,-0.113987,0.782861,0,0.323649,-0.946165,0.430219,-0.121738,0.894436,0.222358,-0.125156,0.966887,0,-0.126041,0.992004,0.606739,0.253945,-0.753227,-0.222358,-0.125156,0.966887,0.751122,0.209632,-0.625965,-0.430219,-0.121738,0.894436,0.860683,0.161596,-0.482742,-0.611652,-0.113987,0.78283,0.937193,0.11298,-0.329966,-0.999695,0.022004,-0.008942,-0.982971,0.06592,-0.171392,-0.759087,-0.100192,0.643178,0.982971,0.06592,-0.171392,-0.937193,0.11298,-0.329966,-0.8699,-0.07944,0.48674,0.999695,0.022004,-0.008942,-0.860683,0.161596,-0.482742,-0.945158,-0.051668,0.322428,0.987548,-0.017518,0.156163,-0.751122,0.209632,-0.625965,-0.987548,-0.017518,0.156163,0.945158,-0.051668,0.322459,-0.606739,0.253945,-0.753197,0.8699,-0.07944,0.486709,0.865474,0.383984,-0.321635,0.754662,0.49324,-0.4326,0.660817,0.731071,-0.169744,0.790582,0.597217,-0.135044,0.209632,-0.501144,0.839564,0,-0.511216,0.859432,0.608539,0.590777,-0.52971,-0.209632,-0.501144,0.839564,-0.407544,-0.471084,0.782281,-0.583758,-0.421705,0.693808,0.941801,0.26899,-0.201483,-0.997711,0.037568,0.055727,-0.985443,0.15247,-0.075076,-0.731346,-0.354564,0.582568,0.985443,0.15247,-0.075106,-0.941801,0.26899,-0.201483,-0.846767,-0.272103,0.457045,0.997711,0.037568,0.055727,-0.865474,0.383984,-0.321635,-0.929136,-0.177313,0.324351,0.979125,-0.073153,0.18952,-0.754692,0.49324,-0.432569,-0.979125,-0.073153,0.18952,0.929136,-0.177313,0.324381,-0.608539,0.590777,-0.52971,0.846767,-0.272103,0.457045,-0.428877,0.669179,-0.6068,0.731346,-0.354564,0.582568,-0.222114,0.720511,-0.65685,0.583728,-0.421705,0.693808,0,0.738456,-0.674276,0.407544,-0.471084,0.782281,0.998901,0.042512,0.018891,0.9682,0.246529,-0.042299,0.705069,0.188971,0.683462,0.724784,-0.003357,0.688925,-0.481094,-0.853938,0.198187,-0.666707,-0.73043,0.148137,0.89581,0.434523,-0.093081,-0.998901,0.042512,0.018891,-0.9682,0.246498,-0.042299,-0.806055,-0.585253,0.087893,-0.89581,0.434553,-0.093081,-0.902188,-0.430677,0.022462,-0.790582,0.597217,-0.135044,-0.999268,-0.004151,0.037904,0.986419,0.148595,0.069826,-0.660817,0.731071,-0.169744,-0.986419,0.148595,0.069826,0.999268,-0.00412,0.037904,-0.512467,0.835597,-0.19776,0.902188,-0.430677,0.022462,-0.349956,0.910825,-0.218757,0.806024,-0.585284,0.087893,-0.177557,0.956389,-0.23188,0.666677,-0.73043,0.148137,0,0.971648,-0.236366,0.481094,-0.853938,0.198187,0.177557,0.956389,-0.23188,0.253517,-0.939085,0.231941,0.349956,0.910825,-0.218757,0,-0.969756,0.243965,0.512467,0.835597,-0.19776,-0.253517,-0.939085,0.231941,0.709067,-0.428144,0.560228,0.751183,0.342845,0.564013,0.501297,-0.178899,0.846553,0.545213,-0.592212,0.59328,-0.636738,0.359844,0.681936,-0.536973,0.492752,0.684713,-0.709067,-0.428144,0.560198,-0.751213,0.342845,0.564013,0.489578,-0.023072,0.871639,-0.424909,0.586138,0.68981,-0.489578,-0.023041,0.871639,-0.31251,0.647145,0.695334,-0.724784,-0.003357,0.688925,-0.204443,0.684225,0.699973,0.615223,-0.551714,0.563066,-0.100864,0.70394,0.703024,0.494217,-0.660573,0.565111,0,0.710105,0.704062,0.347362,-0.747276,0.566454,0.100864,0.70394,0.703024,0.179632,-0.803674,0.567248,0.204443,0.684225,0.699973,0,-0.823359,0.567492,0.31251,0.647114,0.695334,-0.179632,-0.803674,0.567248,0.424909,0.586138,0.68981,-0.347362,-0.747276,0.566454,0.536943,0.492752,0.684713,-0.494217,-0.660573,0.565111,0.636738,0.359844,0.681936,-0.705069,0.188971,0.683462,-0.615253,-0.551683,0.563097,0.168554,-0.64629,0.744194,0.272805,-0.650685,0.708609,0.35258,-0.935301,0.029603,0.22776,-0.970183,0.082461,0.226569,-0.893948,0.386608,0.14246,-0.902127,0.407208,0.398633,-0.639607,0.657216,0.068789,-0.905637,0.418409,0,-0.906613,0.421949,-0.068789,-0.905637,0.418409,0.080203,-0.639515,0.76455,-0.14243,-0.902127,0.407208,0,-0.636677,0.771111,-0.226569,-0.893948,0.386578,-0.080203,-0.639515,0.76455,-0.328745,-0.875942,0.353008,-0.168554,-0.64629,0.744194,-0.459975,-0.835627,0.30015,-0.272805,-0.650685,0.708609,-0.633259,-0.742363,0.218726,0.99118,-0.127812,0.034455,0.841578,-0.528886,0.1095,-0.398633,-0.639607,0.657216,-0.841548,-0.528916,0.1095,0.633259,-0.742363,0.218726,-0.545213,-0.592212,0.59328,-0.99118,-0.127812,0.034455,0.459975,-0.835627,0.30015,-0.501267,-0.17893,0.846553,-0.303323,0.49733,0.812769,0.328745,-0.875942,0.353008,0.303323,0.49733,0.812769,-0.111515,-0.98706,0.115024,0,-0.992035,0.12595,0,-0.680746,0.732505,-0.058657,-0.677938,0.732719,0,0.35783,-0.933775,0.031465,0.361187,-0.931944,0.111515,-0.98706,0.115024,0.068239,0.370647,-0.926237,0.116184,0.38435,-0.91583,0.183142,0.397259,-0.899228,-0.22776,-0.970183,0.082461,0.279824,0.396619,-0.874264,-0.352611,-0.93527,0.029603,0.41438,0.351177,-0.839595,-0.633625,-0.052919,-0.771813,-0.564135,0.206854,-0.79931,-0.487838,-0.872066,-0.038514,0.564135,0.206885,-0.79931,-0.41438,0.351177,-0.839595,-0.632954,-0.766137,-0.111209,0.633595,-0.052919,-0.771813,-0.279824,0.396588,-0.874264,-0.94879,-0.263955,-0.173437,0.808313,-0.031404,-0.587878,-0.183142,0.397259,-0.899228,-0.808313,-0.031373,-0.587878,0.94879,-0.263924,-0.173467,-0.116153,0.38435,-0.91583,0.632984,-0.766106,-0.111209,-0.068239,0.370647,-0.926237,0.487808,-0.872066,-0.038514,-0.031465,0.361187,-0.931944,-0.270577,-0.619495,0.736869,-0.189642,-0.651204,0.734794,-0.191565,-0.645497,0.739341,-0.273171,-0.611805,0.742302,0.194037,0.669424,0.717063,0.276681,0.636708,0.719718,-0.120609,-0.668905,0.733482,0.376965,0.577685,0.72396,0.496414,0.468856,0.730552,-0.664418,0.000671,0.747337,-0.613666,0.276223,0.739647,0.613636,0.276223,0.739647,-0.496414,0.468856,0.730552,-0.368999,-0.562426,0.739921,0.664418,0.000671,0.747337,-0.376965,0.577685,0.72396,-0.487045,-0.45735,0.744011,0.605914,-0.270882,0.747978,-0.276681,0.636708,0.719718,-0.605914,-0.270882,0.747978,0.487045,-0.45735,0.744011,-0.194037,0.669424,0.717063,0.368999,-0.562395,0.739921,-0.123447,0.687674,0.715415,0.270577,-0.619495,0.736869,-0.06003,0.696982,0.71453,0.189642,-0.651204,0.734794,0,0.69985,0.714255,0.120609,-0.668905,0.733482,0.06003,0.696982,0.71453,0.058657,-0.677938,0.732719,0.123447,0.687674,0.715415,-0.596942,-0.251167,0.761925,-0.487167,-0.44087,0.753838,-0.516068,-0.43614,0.737144,-0.646443,-0.241676,0.723624,0.487197,0.457015,0.744133,0.595416,0.270272,0.756584,-0.595416,0.270241,0.756584,-0.487197,0.457015,0.744133,-0.371654,-0.551256,0.746971,0.644154,0.010743,0.764794,-0.373394,0.56679,0.734336,0.596942,-0.251167,0.761925,-0.27546,0.627796,0.727958,0.487167,-0.44087,0.753838,-0.19367,0.662069,0.72393,-0.644154,0.010743,0.764794,0.371654,-0.551225,0.746971,-0.123386,0.681265,0.721519,0.273141,-0.611805,0.742302,-0.06006,0.691122,0.720206,0.191534,-0.645497,0.739311,0,0.694174,0.719779,0.12183,-0.664266,0.73748,0.06006,0.691122,0.720206,0.059236,-0.673818,0.736473,0.123386,0.681265,0.721519,0,-0.676778,0.736167,0.193701,0.662069,0.72393,-0.059236,-0.673818,0.736473,0.27546,0.627796,0.727958,-0.12183,-0.664266,0.73748,0.373394,0.56679,0.734336,-0.501541,0.52266,0.689383,-0.636494,0.334391,0.694998,-0.705588,0.047731,0.706992,-0.38844,-0.542497,0.744804,-0.283731,-0.5992,0.748619,-0.198401,-0.630421,0.75042,-0.126011,-0.647755,0.751305,-0.061251,-0.656636,0.751701,0,-0.659352,0.751793,0.061251,-0.656636,0.751701,0.126011,-0.647755,0.751305,0.198401,-0.630421,0.75042,0.2837,-0.5992,0.748619,0.38847,-0.542497,0.744804,0.516068,-0.43614,0.737144,0.646443,-0.241676,0.723655,0.705618,0.047731,0.706961,0.636464,0.334391,0.694998,0.501541,0.52266,0.689383,0.374218,0.623157,0.686728,0.271889,0.675863,0.685018,0.18955,0.704489,0.683889,0.120212,0.720328,0.683096,0.058382,0.728416,0.682638,0,0.730857,0.682485,-0.058382,0.728416,0.682638,-0.120212,0.720328,0.683096,-0.18955,0.704489,0.683889,-0.271889,0.675863,0.685018,-0.374218,0.623157,0.686728,0.228736,0.00177,0.973479,0,-0.681875,0.731437,-0.684744,-0.688162,0.239875,0.439558,0.004639,-0.89816,-0.87051,0.002106,-0.492141,-0.866176,0.027985,-0.498886,6.1e-05,-0.000244,0.999969,0.619831,0.000793,0.784722,0.611652,-0.113987,0.78283,-0.606739,0.253945,-0.753227,0.790613,0.597217,-0.135044,0.941801,0.26896,-0.201483,-0.929136,-0.177282,0.324351,0.929136,-0.177282,0.324381,0.89581,0.434553,-0.093081,-0.790613,0.597217,-0.135044,0.709098,-0.428144,0.560198,0.536973,0.492752,0.684713,0.14243,-0.902127,0.407208,0.398633,-0.639637,0.657216,0.841578,-0.528886,0.10947,-0.398663,-0.639607,0.657216,-0.841578,-0.528886,0.1095,0.633229,-0.742363,0.218726,-0.414411,0.351177,-0.839595,-0.808313,-0.031343,-0.587878,-0.270577,-0.619465,0.736869,-0.496445,0.468856,0.730552,0.664388,0.000671,0.747337,0.605914,-0.270882,0.747948,0.487045,-0.45735,0.744041,-0.646443,-0.241646,0.723624,0.595416,0.270241,0.756584,-0.373394,0.56679,0.734367,-0.27546,0.627827,0.727958,0,0.694143,0.71981,-0.2837,-0.59917,0.748619,0.271889,0.675832,0.685018,0.120212,0.720359,0.683096,0.058382,0.728416,0.682607,0,0.730857,0.682516,-0.058382,0.728416,0.682607,-0.120212,0.720359,0.683096,-0.271889,0.675832,0.685018,-0.374218,0.623188,0.686697],
    "uvs": [[0.210437,0.624947,0.210435,0.401653,0.527006,0.401653,0.527009,0.624947,0.855576,0.363313,0.854082,0.376004,0.852559,0.376003,0.854052,0.363312,0.851094,0.376001,0.852587,0.36331,0.849743,0.376,0.851236,0.363309,0.848559,0.375999,0.850053,0.363308,0.847588,0.375998,0.849081,0.363307,0.846866,0.375997,0.848359,0.363306,0.846422,0.375997,0.847915,0.363306,0.846271,0.375997,0.847765,0.363306,0.759406,0.640109,0.757913,0.627418,0.758063,0.627417,0.759557,0.640108,0.758508,0.627417,0.760001,0.640108,0.75923,0.627416,0.760723,0.640107,0.760201,0.627415,0.761694,0.640106,0.761385,0.627414,0.762878,0.640105,0.762735,0.627413,0.764229,0.640104,0.764201,0.627412,0.765694,0.640103,0.765724,0.62741,0.767218,0.640101,0.767248,0.627409,0.768741,0.6401,0.768713,0.627407,0.770207,0.640099,0.770064,0.627406,0.771557,0.640097,0.771247,0.627405,0.77274,0.640096,0.772218,0.627404,0.773712,0.640095,0.77294,0.627403,0.774433,0.640095,0.773385,0.627403,0.774878,0.640094,0.773535,0.627403,0.775028,0.640094,0.863386,0.36332,0.861893,0.376011,0.861743,0.376011,0.863236,0.36332,0.861298,0.376011,0.862791,0.36332,0.860577,0.37601,0.86207,0.363319,0.859605,0.376009,0.861099,0.363318,0.858422,0.376008,0.859915,0.363317,0.857071,0.376007,0.858565,0.363316,0.742999,0.488455,0.743637,0.488454,0.857099,0.363314,0.855606,0.376006,0.16415,0.257779,0.164172,0.257347,0.164214,0.256931,0.164277,0.256548,0.164356,0.256212,0.164449,0.255936,0.164552,0.255732,0.164662,0.255606,0.164774,0.255563,0.164884,0.255606,0.164987,0.255732,0.16508,0.255937,0.16516,0.256212,0.165222,0.256548,0.165265,0.256931,0.165286,0.257347,0.165286,0.257779,0.165265,0.258211,0.165222,0.258627,0.16516,0.25901,0.16508,0.259346,0.164987,0.259622,0.164884,0.259826,0.164774,0.259952,0.164662,0.259995,0.164552,0.259952,0.164449,0.259826,0.164356,0.259621,0.164277,0.259346,0.164214,0.25901,0.164172,0.258627,0.16415,0.258211,0.832854,0.514961,0.833899,0.514962,0.822219,0.622673,0.821192,0.622672,0.753208,0.488445,0.754254,0.488444,0.842612,0.51497,0.841567,0.514969,0.831358,0.51496,0.830965,0.514959,0.748029,0.48845,0.749375,0.488449,0.844633,0.514972,0.844501,0.514972,0.835092,0.514963,0.744495,0.488453,0.755112,0.488443,0.840374,0.514968,0.830832,0.514959,0.750721,0.488447,0.844108,0.514972,0.745541,0.488452,0.75575,0.488443,0.839079,0.514967,0.742474,0.488455,0.742607,0.488455,0.752015,0.488446,0.84347,0.514971,0.831995,0.51496,0.746734,0.488451,0.756142,0.488442,0.837733,0.514966,0.836387,0.514965,0.756275,0.488442,0.819337,0.62267,0.819723,0.62267,0.82002,0.631113,0.819703,0.631203,0.828578,0.622679,0.827307,0.622677,0.738949,0.380737,0.74022,0.380736,0.820349,0.622671,0.825985,0.622676,0.741392,0.380735,0.742419,0.380734,0.743262,0.380733,0.819207,0.62267,0.743888,0.380732,0.730848,0.380745,0.730979,0.380744,0.744273,0.380732,0.731364,0.380744,0.744404,0.380732,0.731991,0.380743,0.832762,0.622682,0.832632,0.622682,0.732834,0.380743,0.832246,0.622682,0.733861,0.380742,0.83162,0.622681,0.735033,0.380741,0.824663,0.622675,0.830777,0.622681,0.736304,0.380739,0.823391,0.622674,0.82975,0.62268,0.737626,0.380738,0.731662,0.372301,0.731345,0.372211,0.735737,0.367928,0.735971,0.368075,0.740743,0.374886,0.741435,0.375083,0.819596,0.631234,0.74195,0.37523,0.731238,0.372181,0.742267,0.37532,0.742374,0.375351,0.732176,0.372448,0.830732,0.628064,0.830625,0.628094,0.732869,0.372645,0.830308,0.628184,0.733713,0.372885,0.829794,0.628331,0.734675,0.373159,0.825164,0.629649,0.824078,0.629958,0.829101,0.628528,0.73572,0.373456,0.823034,0.630255,0.828258,0.628768,0.736806,0.373765,0.822071,0.630529,0.827295,0.629042,0.737892,0.374075,0.821227,0.630769,0.826251,0.62934,0.738937,0.374372,0.820535,0.630967,0.739899,0.374646,0.737488,0.369028,0.736864,0.368636,0.750826,0.364001,0.750884,0.364293,0.743813,0.373003,0.743892,0.373053,0.736352,0.368314,0.832251,0.630362,0.832172,0.630411,0.831937,0.630558,0.831557,0.630798,0.7382,0.369475,0.828134,0.632949,0.827331,0.633454,0.831045,0.631119,0.738972,0.369961,0.826558,0.633939,0.830421,0.631511,0.739775,0.370466,0.825846,0.634386,0.829709,0.631959,0.740579,0.37097,0.825222,0.634778,0.828937,0.632444,0.741351,0.371456,0.82471,0.6351,0.742063,0.371903,0.82433,0.635339,0.742687,0.372295,0.824096,0.635486,0.743199,0.372617,0.824016,0.635536,0.743579,0.372856,0.735658,0.367878,0.751096,0.365365,0.751022,0.364989,0.774914,0.364228,0.774971,0.364451,0.839808,0.636267,0.839772,0.636445,0.75095,0.364627,0.839455,0.638049,0.83938,0.638426,0.839725,0.636685,0.839309,0.638788,0.839667,0.636978,0.839243,0.639121,0.839601,0.637311,0.751171,0.365741,0.839185,0.639414,0.839529,0.637673,0.751243,0.366103,0.839137,0.639653,0.751309,0.366437,0.839102,0.639832,0.751366,0.366729,0.83908,0.639941,0.751414,0.366969,0.839073,0.639979,0.751449,0.367147,0.750714,0.363436,0.750722,0.363473,0.751471,0.367257,0.750744,0.363583,0.751478,0.367294,0.750779,0.363761,0.839836,0.63612,0.839829,0.636157,0.686669,0.363306,0.863219,0.639402,0.863168,0.6396,0.84696,0.636181,0.846817,0.636905,0.775027,0.364674,0.863125,0.639773,0.863386,0.63874,0.758458,0.366509,0.863088,0.639916,0.863329,0.638963,0.758602,0.367234,0.863062,0.640021,0.758727,0.367869,0.863045,0.640087,0.75883,0.36839,0.863039,0.640109,0.758907,0.368777,0.774681,0.363306,0.774687,0.363328,0.758954,0.369015,0.774703,0.363393,0.75897,0.369096,0.77473,0.363499,0.847328,0.634319,0.847312,0.634399,0.774766,0.363641,0.847265,0.634638,0.77481,0.363815,0.847189,0.635025,0.77486,0.364013,0.863273,0.639187,0.847086,0.635546,0.143212,0.190752,0.143212,0.191983,0.106045,0.195431,0.105989,0.194395,0.170827,0.619572,0.170821,0.619681,0.121236,0.617735,0.12124,0.617651,0.18017,0.250125,0.18017,0.250055,0.197325,0.242171,0.197325,0.242386,0.143212,0.189993,0.105954,0.193758,0.180171,0.250333,0.197326,0.243024,0.143213,0.189736,0.105943,0.193542,0.180171,0.250669,0.197326,0.244059,0.278349,0.241915,0.278349,0.242171,0.241079,0.238365,0.241091,0.23815,0.180171,0.251123,0.197327,0.245453,0.278348,0.241156,0.241125,0.237512,0.180171,0.251675,0.197327,0.247151,0.278348,0.239924,0.241181,0.236477,0.180171,0.252305,0.197327,0.249088,0.163014,0.244745,0.163014,0.244034,0.18017,0.244357,0.18017,0.246543,0.278348,0.238265,0.241258,0.235083,0.180171,0.252989,0.197327,0.251191,0.163014,0.245429,0.18017,0.248646,0.278349,0.236245,0.241351,0.233385,0.180171,0.2537,0.197327,0.253377,0.163014,0.246059,0.18017,0.250583,0.278349,0.23394,0.241457,0.231447,0.180171,0.254411,0.197327,0.255563,0.163014,0.246611,0.18017,0.252281,0.224485,0.228186,0.241573,0.229345,0.143213,0.197967,0.089349,0.203721,0.106437,0.202562,0.106321,0.20046,0.163014,0.247065,0.180169,0.253675,0.163014,0.243323,0.18017,0.242171,0.143213,0.195662,0.106215,0.198522,0.163014,0.247402,0.180169,0.25471,0.143212,0.193642,0.106122,0.196824,0.163013,0.247609,0.180168,0.255348,0.163013,0.247679,0.180168,0.255563,0.106995,0.212672,0.107072,0.214065,0.008948,0.213236,0.008889,0.21216,0.170844,0.619249,0.121254,0.617401,0.106901,0.210974,0.008816,0.210848,0.170873,0.618725,0.121276,0.616996,0.106794,0.209036,0.008734,0.209351,0.241814,0.224973,0.241693,0.227159,0.143687,0.225868,0.14378,0.22418,0.170912,0.618018,0.121306,0.616451,0.106678,0.206934,0.008644,0.207728,0.24193,0.222871,0.14387,0.222556,0.170959,0.617158,0.121342,0.615786,0.106557,0.204748,0.008551,0.206039,0.242037,0.220933,0.143952,0.221059,0.171013,0.616176,0.121384,0.615028,0.008458,0.20435,0.242131,0.219236,0.144025,0.219748,0.171071,0.615111,0.121429,0.614205,0.102544,0.600476,0.102603,0.601541,0.052961,0.602447,0.052915,0.601625,0.242208,0.217842,0.144085,0.218671,0.143594,0.227557,0.10249,0.599495,0.052874,0.600866,0.242266,0.216807,0.144129,0.217871,0.102443,0.598634,0.052837,0.600202,0.242301,0.216169,0.144157,0.217379,0.102404,0.597928,0.052807,0.599656,0.242314,0.215954,0.144166,0.217213,0.102376,0.597403,0.052785,0.599251,0.107165,0.215738,0.107178,0.215954,0.00903,0.214695,0.009021,0.214528,0.102358,0.59708,0.052772,0.599002,0.10713,0.215101,0.008993,0.214036,0.102353,0.596971,0.052767,0.598917,0.131267,0.626851,0.131267,0.627674,0.111643,0.627185,0.111643,0.626479,0.235015,0.248145,0.235015,0.249593,0.234982,0.251041,0.234919,0.252434,0.234827,0.253717,0.234709,0.254842,0.234571,0.255765,0.234418,0.256451,0.234255,0.256873,0.234089,0.257016,0.233926,0.256873,0.233772,0.256451,0.233634,0.255765,0.233517,0.254842,0.233424,0.253717,0.233361,0.252434,0.233329,0.251041,0.233329,0.249593,0.233361,0.248145,0.233424,0.246753,0.233517,0.245469,0.233634,0.244345,0.233772,0.243422,0.233926,0.242736,0.234089,0.242313,0.234255,0.242171,0.234418,0.242313,0.234571,0.242736,0.234709,0.243422,0.234827,0.244345,0.234919,0.24547,0.234982,0.246753,0.092016,0.624317,0.092016,0.62514,0.072393,0.625511,0.072393,0.624806,0.163012,0.243629,0.163011,0.244706,0.12428,0.245085,0.12428,0.244162,0.163011,0.250826,0.163011,0.252515,0.124279,0.251782,0.124279,0.250334,0.092017,0.623559,0.072393,0.624156,0.163012,0.24283,0.12428,0.243476,0.092017,0.622894,0.072393,0.623586,0.163013,0.242337,0.124281,0.243054,0.092017,0.622349,0.072393,0.623118,0.163013,0.242171,0.124281,0.242912,0.092017,0.621944,0.072393,0.622771,0.085544,0.259317,0.085545,0.259483,0.046813,0.258742,0.046813,0.2586,0.092017,0.621694,0.072393,0.622557,0.085544,0.258824,0.046812,0.258177,0.092018,0.62161,0.072394,0.622484,0.085543,0.258024,0.046812,0.257491,0.131268,0.630297,0.131268,0.630381,0.111644,0.629506,0.111644,0.629434,0.085543,0.256948,0.046811,0.256568,0.131267,0.630047,0.111643,0.62922,0.085543,0.255636,0.046811,0.255444,0.131267,0.629642,0.111643,0.628872,0.085543,0.25414,0.046811,0.25416,0.163011,0.249138,0.124279,0.248886,0.131267,0.629096,0.111643,0.628405,0.085542,0.252516,0.046811,0.252768,0.163011,0.247514,0.124279,0.247493,0.131267,0.628432,0.111643,0.627835,0.085542,0.250827,0.046811,0.25132,0.163011,0.246018,0.124279,0.24621,0.085542,0.249138,0.046811,0.249872,0.811397,0.363313,0.809903,0.376004,0.80838,0.376003,0.809873,0.363312,0.806914,0.376001,0.808408,0.36331,0.805564,0.376,0.807057,0.363309,0.80438,0.375999,0.805873,0.363308,0.803409,0.375998,0.804902,0.363307,0.802687,0.375997,0.80418,0.363306,0.802243,0.375997,0.803736,0.363306,0.802092,0.375997,0.803585,0.363306,0.715227,0.640109,0.713734,0.627418,0.713884,0.627417,0.715377,0.640108,0.714329,0.627417,0.715822,0.640108,0.71505,0.627416,0.716544,0.640107,0.716022,0.627415,0.717515,0.640106,0.717206,0.627414,0.718699,0.640105,0.718556,0.627413,0.720049,0.640104,0.720021,0.627412,0.721514,0.640103,0.721545,0.62741,0.723038,0.640101,0.723069,0.627409,0.724562,0.6401,0.724534,0.627407,0.726027,0.640099,0.725884,0.627406,0.727377,0.640097,0.727068,0.627405,0.728561,0.640096,0.728039,0.627404,0.729532,0.640095,0.728761,0.627403,0.730254,0.640095,0.729205,0.627403,0.730698,0.640094,0.729355,0.627403,0.730848,0.640094,0.819207,0.36332,0.817714,0.376011,0.817564,0.376011,0.819057,0.36332,0.817119,0.376011,0.818612,0.36332,0.816398,0.37601,0.817891,0.363319,0.815426,0.376009,0.816919,0.363318,0.814243,0.376008,0.815736,0.363317,0.812892,0.376007,0.814386,0.363316,0.69882,0.488455,0.699458,0.488454,0.81292,0.363314,0.811427,0.376006,0.163013,0.257779,0.163035,0.257347,0.163078,0.256931,0.16314,0.256548,0.163219,0.256212,0.163312,0.255936,0.163416,0.255732,0.163525,0.255606,0.163637,0.255563,0.163747,0.255606,0.163851,0.255732,0.163944,0.255937,0.164023,0.256212,0.164085,0.256548,0.164128,0.256931,0.16415,0.257347,0.16415,0.257779,0.164128,0.258211,0.164085,0.258627,0.164023,0.25901,0.163944,0.259346,0.163851,0.259622,0.163747,0.259826,0.163637,0.259952,0.163525,0.259995,0.163416,0.259952,0.163312,0.259826,0.163219,0.259621,0.16314,0.259346,0.163078,0.25901,0.163035,0.258627,0.163013,0.258211,0.788675,0.514961,0.78972,0.514962,0.77804,0.622673,0.777013,0.622672,0.709029,0.488445,0.710075,0.488444,0.798433,0.51497,0.797388,0.514969,0.787179,0.51496,0.786786,0.514959,0.703849,0.48845,0.705195,0.488449,0.800454,0.514972,0.800322,0.514972,0.790913,0.514963,0.700316,0.488453,0.710933,0.488443,0.796195,0.514968,0.786653,0.514959,0.706542,0.488447,0.799929,0.514972,0.701362,0.488452,0.71157,0.488443,0.7949,0.514967,0.698295,0.488455,0.698427,0.488455,0.707836,0.488446,0.799291,0.514971,0.787816,0.51496,0.702555,0.488451,0.711963,0.488442,0.793554,0.514966,0.792208,0.514965,0.712095,0.488442,0.775158,0.62267,0.775544,0.62267,0.775841,0.631113,0.775524,0.631203,0.784399,0.622679,0.783128,0.622677,0.694769,0.380737,0.696041,0.380736,0.77617,0.622671,0.781806,0.622676,0.697212,0.380735,0.698239,0.380734,0.699082,0.380733,0.775028,0.62267,0.699708,0.380732,0.686669,0.380744,0.686799,0.380744,0.700094,0.380732,0.687185,0.380744,0.700224,0.380732,0.687811,0.380743,0.788583,0.622683,0.788453,0.622682,0.688654,0.380743,0.788067,0.622682,0.689681,0.380742,0.787441,0.622681,0.690853,0.380741,0.780483,0.622675,0.786598,0.622681,0.692125,0.380739,0.779212,0.622674,0.785571,0.62268,0.693447,0.380738,0.687482,0.372301,0.687165,0.372211,0.691558,0.367928,0.691792,0.368075,0.696564,0.374886,0.697256,0.375083,0.775417,0.631234,0.69777,0.37523,0.687058,0.372181,0.698087,0.37532,0.698194,0.375351,0.687997,0.372448,0.786553,0.628064,0.786446,0.628094,0.688689,0.372645,0.786129,0.628184,0.689533,0.372885,0.785615,0.628331,0.690496,0.373159,0.780985,0.629649,0.779899,0.629958,0.784922,0.628528,0.69154,0.373456,0.778855,0.630255,0.784079,0.628768,0.692626,0.373766,0.777892,0.630529,0.783116,0.629042,0.693713,0.374075,0.777048,0.630769,0.782072,0.62934,0.694757,0.374372,0.776356,0.630967,0.69572,0.374646,0.693309,0.369028,0.692685,0.368636,0.706647,0.364001,0.706705,0.364293,0.699634,0.373003,0.699713,0.373053,0.692173,0.368314,0.788072,0.630362,0.787993,0.630411,0.787758,0.630559,0.787378,0.630798,0.69402,0.369475,0.783955,0.632949,0.783152,0.633454,0.786866,0.631119,0.694793,0.369961,0.782379,0.633939,0.786242,0.631511,0.695596,0.370466,0.781667,0.634386,0.78553,0.631959,0.696399,0.37097,0.781043,0.634778,0.784758,0.632444,0.697171,0.371456,0.780531,0.6351,0.697883,0.371903,0.780151,0.635339,0.698507,0.372295,0.779917,0.635486,0.699019,0.372617,0.779837,0.635536,0.699399,0.372856,0.691478,0.367878,0.706917,0.365365,0.706843,0.364989,0.730735,0.364228,0.730791,0.364451,0.795628,0.636267,0.795593,0.636445,0.706771,0.364627,0.795276,0.638049,0.795201,0.638426,0.795546,0.636685,0.79513,0.638788,0.795488,0.636978,0.795064,0.639121,0.795422,0.637311,0.706991,0.365741,0.795006,0.639414,0.79535,0.637673,0.707063,0.366103,0.794958,0.639653,0.707129,0.366437,0.794923,0.639832,0.707187,0.366729,0.794901,0.639941,0.707234,0.366969,0.794894,0.639979,0.70727,0.367147,0.706535,0.363436,0.706542,0.363473,0.707291,0.367257,0.706564,0.363583,0.707299,0.367294,0.706599,0.363761,0.795657,0.63612,0.79565,0.636157,0.819039,0.639402,0.818989,0.6396,0.802781,0.636181,0.802638,0.636905,0.730848,0.364674,0.818945,0.639773,0.819207,0.63874,0.714279,0.366509,0.818909,0.639916,0.81915,0.638963,0.714422,0.367234,0.818883,0.640021,0.714548,0.367869,0.818866,0.640087,0.714651,0.36839,0.81886,0.640109,0.714727,0.368777,0.730502,0.363306,0.730507,0.363328,0.714775,0.369015,0.730524,0.363393,0.71479,0.369096,0.730551,0.363499,0.803149,0.634319,0.803133,0.634399,0.730587,0.363641,0.803086,0.634638,0.730631,0.363815,0.80301,0.635025,0.730681,0.364013,0.819094,0.639187,0.802907,0.635546,0.143212,0.216969,0.143212,0.218201,0.106045,0.221648,0.105989,0.220613,0.170827,0.606289,0.170821,0.606398,0.121236,0.604452,0.12124,0.604368,0.214485,0.250125,0.214485,0.250055,0.231639,0.242171,0.23164,0.242386,0.143212,0.21621,0.105954,0.219975,0.214485,0.250332,0.231641,0.243024,0.143213,0.215954,0.105943,0.21976,0.214485,0.250669,0.231641,0.244059,0.278349,0.215697,0.278349,0.215954,0.241079,0.212148,0.241091,0.211932,0.214486,0.251123,0.231642,0.245453,0.278348,0.214938,0.241125,0.211295,0.214486,0.251675,0.231642,0.247151,0.278348,0.213706,0.241181,0.210259,0.214486,0.252305,0.231642,0.249088,0.197328,0.244745,0.197328,0.244034,0.214485,0.244357,0.214485,0.246543,0.278348,0.212048,0.241258,0.208866,0.214486,0.252989,0.231642,0.251191,0.197328,0.245429,0.214485,0.248646,0.278349,0.210028,0.241351,0.207167,0.214486,0.2537,0.231642,0.253377,0.197328,0.246059,0.214484,0.250583,0.278349,0.207723,0.241457,0.20523,0.214486,0.254411,0.231642,0.255563,0.197328,0.246611,0.214484,0.252281,0.224485,0.201969,0.241573,0.203128,0.143213,0.224184,0.089349,0.229939,0.106437,0.228779,0.106321,0.226677,0.197328,0.247065,0.214484,0.253675,0.197328,0.243323,0.214485,0.242171,0.143213,0.221879,0.106215,0.22474,0.197328,0.247401,0.214483,0.25471,0.143212,0.219859,0.106122,0.223042,0.197328,0.247609,0.214483,0.255348,0.197327,0.247679,0.214482,0.255563,0.106995,0.238889,0.107072,0.240283,0.008948,0.239453,0.008889,0.238377,0.170844,0.605966,0.121254,0.604118,0.106901,0.237191,0.008816,0.237065,0.170873,0.605441,0.121276,0.603713,0.106794,0.235254,0.008734,0.235569,0.241814,0.198756,0.241693,0.200942,0.143687,0.199651,0.14378,0.197962,0.170912,0.604735,0.121306,0.603167,0.106678,0.233151,0.008644,0.233945,0.24193,0.196654,0.14387,0.196339,0.170959,0.603875,0.121342,0.602503,0.106557,0.230966,0.008551,0.232256,0.242037,0.194716,0.143952,0.194842,0.171013,0.602893,0.121384,0.601745,0.008458,0.230568,0.242131,0.193018,0.144025,0.19353,0.171071,0.601828,0.121429,0.600922,0.008369,0.228944,0.242208,0.191625,0.144084,0.192454,0.143594,0.20134,0.10249,0.612778,0.102544,0.61376,0.052915,0.614908,0.052874,0.61415,0.242266,0.190589,0.144129,0.191654,0.102443,0.611918,0.052837,0.613485,0.242301,0.189952,0.144157,0.191162,0.102405,0.611212,0.052807,0.61294,0.242314,0.189736,0.144166,0.190995,0.102376,0.610687,0.052785,0.612535,0.107165,0.241956,0.107178,0.242171,0.00903,0.240912,0.009021,0.240746,0.102358,0.610364,0.052772,0.612285,0.10713,0.241318,0.008993,0.240253,0.102353,0.610255,0.052767,0.612201,0.124277,0.252515,0.124277,0.254139,0.085545,0.253174,0.085545,0.251782,0.233296,0.248145,0.233328,0.249593,0.233328,0.251041,0.233296,0.252434,0.233232,0.253717,0.23314,0.254842,0.233023,0.255765,0.232885,0.256451,0.232731,0.256873,0.232568,0.257016,0.232402,0.256873,0.232239,0.256451,0.232086,0.255765,0.231948,0.254842,0.23183,0.253717,0.231738,0.252434,0.231674,0.251041,0.231642,0.249593,0.231642,0.248145,0.231674,0.246753,0.231738,0.24547,0.23183,0.244345,0.231948,0.243422,0.232086,0.242736,0.232239,0.242314,0.232402,0.242171,0.232568,0.242313,0.232731,0.242736,0.232885,0.243422,0.233023,0.244345,0.23314,0.24547,0.233232,0.246753,0.046808,0.247515,0.046808,0.249138,0.008077,0.249872,0.008077,0.248479,0.124278,0.243629,0.124277,0.244706,0.085546,0.245085,0.085546,0.244162,0.124276,0.250827,0.085545,0.250334,0.072391,0.623559,0.072391,0.624317,0.052767,0.624806,0.052768,0.624156,0.124278,0.24283,0.085546,0.243477,0.072392,0.622894,0.052768,0.623586,0.124279,0.242337,0.085547,0.243054,0.072392,0.622349,0.052768,0.623118,0.124279,0.242171,0.085547,0.242912,0.072392,0.621944,0.052768,0.622771,0.04681,0.259317,0.046811,0.259483,0.008079,0.258742,0.008078,0.2586,0.072392,0.621694,0.052768,0.622557,0.04681,0.258824,0.008078,0.258177,0.072393,0.62161,0.052768,0.622484,0.046809,0.258024,0.008078,0.257491,0.111643,0.630297,0.111643,0.630381,0.092019,0.629506,0.092018,0.629434,0.046809,0.256948,0.008077,0.256568,0.111642,0.630047,0.092018,0.62922,0.046809,0.255636,0.008077,0.255444,0.111642,0.629642,0.092018,0.628872,0.046808,0.25414,0.008077,0.25416,0.124276,0.249138,0.085545,0.248886,0.111642,0.629096,0.092018,0.628405,0.046808,0.252516,0.008077,0.252768,0.124277,0.247514,0.085545,0.247493,0.111642,0.628432,0.092018,0.627835,0.046808,0.250827,0.008077,0.25132,0.124277,0.246018,0.085545,0.24621,0.111642,0.627674,0.092018,0.627185]],
    "faces": [43,2,3,5,4,0,0,1,2,3,0,0,0,0,43,11,10,8,9,0,4,5,6,7,1,2,3,4,43,9,8,6,7,0,7,6,8,9,4,3,5,6,43,7,6,13,12,0,9,8,10,11,6,5,7,8,43,12,13,15,14,0,11,10,12,13,8,7,9,10,43,14,15,17,16,0,13,12,14,15,10,9,11,12,43,16,17,19,18,0,15,14,16,17,12,11,13,14,43,18,19,21,20,0,17,16,18,19,14,13,15,16,43,20,21,23,22,0,19,18,20,21,16,15,17,18,43,22,23,25,24,0,22,23,24,25,18,17,19,20,43,24,25,27,26,0,25,24,26,27,20,19,21,22,43,26,27,29,28,0,27,26,28,29,22,21,23,24,43,28,29,31,30,0,29,28,30,31,24,23,25,26,43,30,31,33,32,0,31,30,32,33,26,25,27,28,43,32,33,35,34,0,33,32,34,35,28,27,29,30,43,34,35,37,36,0,35,34,36,37,30,29,31,32,43,36,37,39,38,0,37,36,38,39,32,31,33,34,43,38,39,41,40,0,39,38,40,41,34,33,35,36,43,40,41,43,42,0,41,40,42,43,36,35,37,38,43,42,43,45,44,0,43,42,44,45,38,37,39,40,43,44,45,47,46,0,45,44,46,47,40,39,41,42,43,46,47,49,48,0,47,46,48,49,42,41,43,44,43,48,49,51,50,0,49,48,50,51,44,43,45,46,43,50,51,53,52,0,51,50,52,53,46,45,47,48,43,52,53,55,54,0,53,52,54,55,48,47,49,50,43,54,55,57,56,0,56,57,58,59,50,49,51,52,43,56,57,59,58,0,59,58,60,61,52,51,53,54,43,58,59,61,60,0,61,60,62,63,54,53,55,56,43,60,61,63,62,0,63,62,64,65,56,55,57,58,43,62,63,65,64,0,65,64,66,67,58,57,59,60,43,64,65,67,66,0,67,66,68,69,60,59,61,62,43,29,27,80,81,0,28,26,70,71,23,21,63,64,43,68,69,10,11,0,72,73,5,4,65,66,2,1,43,66,67,69,68,0,69,68,73,72,62,61,66,65,42,68,11,9,0,105,74,75,65,1,4,42,9,7,12,0,75,76,77,4,6,8,42,12,14,16,0,77,78,79,8,10,12,42,16,18,20,0,79,80,81,12,14,16,42,20,22,24,0,81,82,83,16,18,20,42,24,26,28,0,83,84,85,20,22,24,42,28,30,32,0,85,86,87,24,26,28,42,32,34,36,0,87,88,89,28,30,32,42,36,38,40,0,89,90,91,32,34,36,42,40,42,44,0,91,92,93,36,38,40,42,44,46,48,0,93,94,95,40,42,44,42,48,50,52,0,95,96,97,44,46,48,42,52,54,56,0,97,98,99,48,50,52,42,56,58,60,0,99,100,101,52,54,56,42,60,62,64,0,101,102,103,56,58,60,42,64,66,68,0,103,104,105,60,62,65,42,68,9,12,0,105,75,77,65,4,8,42,12,16,20,0,77,79,81,8,12,16,42,20,24,28,0,81,83,85,16,20,24,42,28,32,36,0,85,87,89,24,28,32,42,36,40,44,0,89,91,93,32,36,40,42,44,48,52,0,93,95,97,40,44,48,42,52,56,60,0,97,99,101,48,52,56,42,60,64,68,0,101,103,105,56,60,65,42,68,12,20,0,105,77,81,65,8,16,42,20,28,36,0,81,85,89,16,24,32,42,36,44,52,0,89,93,97,32,40,48,42,52,60,68,0,97,101,105,48,56,65,42,68,20,36,0,105,81,89,65,16,32,42,36,52,68,0,89,97,105,32,48,65,43,74,73,105,106,0,106,107,108,109,67,68,69,70,43,47,45,89,90,0,46,44,110,111,41,39,71,72,43,65,63,98,99,0,66,64,112,113,59,57,73,74,43,21,19,76,77,0,18,16,114,115,15,13,75,76,43,39,37,85,86,0,38,36,116,117,33,31,77,78,43,57,55,94,95,0,58,57,118,119,51,49,79,80,43,13,6,72,73,0,10,8,120,107,7,5,81,68,43,31,29,81,82,0,30,28,71,121,25,23,64,82,43,49,47,90,91,0,48,46,111,122,43,41,72,83,43,67,65,99,100,0,68,66,113,123,61,59,74,84,43,23,21,77,78,0,20,18,115,124,17,15,76,85,43,41,39,86,87,0,40,38,117,125,35,33,78,86,43,59,57,95,96,0,60,58,119,126,53,51,80,87,43,15,13,73,74,0,12,10,107,106,9,7,68,67,43,33,31,82,83,0,32,30,121,127,27,25,82,88,43,51,49,91,92,0,50,48,122,128,45,43,83,89,43,69,67,100,101,0,73,68,123,129,66,61,84,90,43,25,23,78,79,0,24,23,130,131,19,17,85,91,43,43,41,87,88,0,42,40,125,132,37,35,86,92,43,61,59,96,97,0,62,60,126,133,55,53,87,93,43,17,15,74,75,0,14,12,106,134,11,9,67,94,43,35,33,83,84,0,34,32,127,135,29,27,88,95,43,53,51,92,93,0,52,50,128,136,47,45,89,96,43,10,69,101,71,0,5,73,129,137,2,66,90,97,43,8,10,71,70,0,6,5,137,138,3,2,97,98,43,27,25,79,80,0,26,24,131,70,21,19,91,63,43,45,43,88,89,0,44,42,132,110,39,37,92,71,43,63,61,97,98,0,64,62,133,112,57,55,93,73,43,19,17,75,76,0,16,14,134,114,13,11,94,75,43,37,35,84,85,0,36,34,135,116,31,29,95,77,43,55,53,93,94,0,54,52,136,139,49,47,96,79,43,6,8,70,72,0,8,6,138,120,5,3,98,81,43,109,108,140,141,0,140,141,142,143,99,100,101,102,43,101,100,132,133,0,129,123,144,145,90,84,103,104,43,88,87,119,120,0,132,125,146,147,92,86,105,106,43,75,74,106,107,0,134,106,109,148,94,67,70,107,43,71,101,133,103,0,137,129,145,149,97,90,104,108,43,89,88,120,121,0,110,132,147,150,71,92,106,109,43,76,75,107,108,0,114,134,148,141,75,94,107,100,43,90,89,121,122,0,111,110,150,151,72,71,109,110,43,77,76,108,109,0,115,114,141,140,76,75,100,99,43,91,90,122,123,0,122,111,151,152,83,72,110,111,43,78,77,109,110,0,124,115,140,153,85,76,99,112,43,92,91,123,124,0,128,122,152,154,89,83,111,113,43,79,78,110,111,0,131,130,155,156,91,85,112,114,43,93,92,124,125,0,136,128,154,157,96,89,113,115,43,80,79,111,112,0,70,131,156,158,63,91,114,116,43,94,93,125,126,0,139,136,157,159,79,96,115,117,43,81,80,112,113,0,71,70,158,160,64,63,116,118,43,95,94,126,127,0,119,118,161,162,80,79,117,119,43,82,81,113,114,0,121,71,160,163,82,64,118,120,43,96,95,127,128,0,126,119,162,164,87,80,119,121,43,83,82,114,115,0,127,121,163,165,88,82,120,122,43,97,96,128,129,0,133,126,164,166,93,87,121,123,43,84,83,115,116,0,135,127,165,167,95,88,122,124,43,70,71,103,102,0,138,137,149,168,98,97,108,125,43,98,97,129,130,0,112,133,166,169,73,93,123,126,43,85,84,116,117,0,116,135,167,170,77,95,124,127,43,72,70,102,104,0,120,138,168,171,81,98,125,128,43,99,98,130,131,0,113,112,169,172,74,73,126,129,43,86,85,117,118,0,117,116,170,173,78,77,127,130,43,73,72,104,105,0,107,120,171,108,68,81,128,69,43,100,99,131,132,0,123,113,172,144,84,74,129,103,43,87,86,118,119,0,125,117,173,146,86,78,130,105,43,144,143,175,176,0,174,175,176,177,131,132,133,134,43,123,122,154,155,0,152,151,178,179,111,110,135,136,43,110,109,141,142,0,153,140,143,180,112,99,102,137,43,124,123,155,156,0,154,152,179,181,113,111,136,138,43,111,110,142,143,0,156,155,182,175,114,112,137,132,43,125,124,156,157,0,157,154,181,183,115,113,138,139,43,112,111,143,144,0,158,156,175,174,116,114,132,131,43,126,125,157,158,0,159,157,183,184,117,115,139,140,43,113,112,144,145,0,160,158,174,185,118,116,131,141,43,127,126,158,159,0,162,161,186,187,119,117,140,142,43,114,113,145,146,0,163,160,185,188,120,118,141,143,43,128,127,159,160,0,164,162,187,189,121,119,142,144,43,115,114,146,147,0,165,163,188,190,122,120,143,145,43,129,128,160,161,0,166,164,189,191,123,121,144,146,43,116,115,147,148,0,167,165,190,192,124,122,145,147,43,102,103,135,134,0,168,149,193,194,125,108,148,149,43,130,129,161,162,0,169,166,191,195,126,123,146,150,43,117,116,148,149,0,170,167,192,196,127,124,147,151,43,104,102,134,136,0,171,168,194,197,128,125,149,152,43,131,130,162,163,0,172,169,195,198,129,126,150,153,43,118,117,149,150,0,173,170,196,199,130,127,151,154,43,105,104,136,137,0,108,171,197,200,69,128,152,155,43,132,131,163,164,0,144,172,198,201,103,129,153,156,43,119,118,150,151,0,146,173,199,202,105,130,154,157,43,106,105,137,138,0,109,108,200,203,70,69,155,158,43,133,132,164,165,0,145,144,201,204,104,103,156,159,43,120,119,151,152,0,147,146,202,205,106,105,157,160,43,107,106,138,139,0,148,109,203,206,107,70,158,161,43,103,133,165,135,0,149,145,204,193,108,104,159,148,43,121,120,152,153,0,150,147,205,207,109,106,160,162,43,108,107,139,140,0,141,148,206,142,100,107,161,101,43,122,121,153,154,0,151,150,207,178,110,109,162,135,43,179,178,210,211,0,208,209,210,211,163,164,165,166,43,158,157,189,190,0,184,183,212,213,140,139,167,168,43,145,144,176,177,0,185,174,177,214,141,131,134,169,43,159,158,190,191,0,187,186,215,216,142,140,168,170,43,146,145,177,178,0,188,185,214,209,143,141,169,164,43,160,159,191,192,0,189,187,216,217,144,142,170,171,43,147,146,178,179,0,190,188,209,208,145,143,164,163,43,161,160,192,193,0,191,189,217,218,146,144,171,172,43,148,147,179,180,0,192,190,208,219,147,145,163,173,43,134,135,167,166,0,194,193,220,221,149,148,174,175,43,162,161,193,194,0,195,191,218,222,150,146,172,176,43,149,148,180,181,0,196,192,219,223,151,147,173,177,43,136,134,166,168,0,197,194,221,224,152,149,175,178,43,163,162,194,195,0,198,195,222,225,153,150,176,179,43,150,149,181,182,0,199,196,223,226,154,151,177,180,43,137,136,168,169,0,200,197,224,227,155,152,178,181,43,164,163,195,196,0,201,198,225,228,156,153,179,182,43,151,150,182,183,0,202,199,226,229,157,154,180,183,43,138,137,169,170,0,203,200,227,230,158,155,181,184,43,165,164,196,197,0,204,201,228,231,159,156,182,185,43,152,151,183,184,0,205,202,229,232,160,157,183,186,43,139,138,170,171,0,206,203,230,233,161,158,184,187,43,135,165,197,167,0,193,204,231,220,148,159,185,174,43,153,152,184,185,0,207,205,232,234,162,160,186,188,43,140,139,171,172,0,142,206,233,235,101,161,187,189,43,154,153,185,186,0,178,207,234,236,135,162,188,190,43,141,140,172,173,0,143,142,235,237,102,101,189,191,43,155,154,186,187,0,179,178,236,238,136,135,190,192,43,142,141,173,174,0,180,143,237,239,137,102,191,193,43,156,155,187,188,0,181,179,238,240,138,136,192,194,43,143,142,174,175,0,175,182,241,176,132,137,193,133,43,157,156,188,189,0,183,181,240,212,139,138,194,167,43,214,213,245,246,0,242,243,244,245,195,196,197,198,43,193,192,224,225,0,218,217,246,247,172,171,199,200,43,180,179,211,212,0,219,208,211,248,173,163,166,201,43,166,167,199,198,0,221,220,249,250,175,174,202,203,43,194,193,225,226,0,222,218,247,251,176,172,200,204,43,181,180,212,213,0,223,219,248,243,177,173,201,196,43,168,166,198,200,0,224,221,250,252,178,175,203,205,43,195,194,226,227,0,225,222,251,253,179,176,204,206,43,182,181,213,214,0,226,223,243,242,180,177,196,195,43,169,168,200,201,0,227,224,252,254,181,178,205,207,43,196,195,227,228,0,228,225,253,255,182,179,206,208,43,183,182,214,215,0,229,226,242,256,183,180,195,209,43,170,169,201,202,0,230,227,254,257,184,181,207,210,43,197,196,228,229,0,231,228,255,258,185,182,208,211,43,184,183,215,216,0,232,229,256,259,186,183,209,212,43,171,170,202,203,0,233,230,257,260,187,184,210,213,43,167,197,229,199,0,220,231,258,249,174,185,211,202,43,185,184,216,217,0,234,232,259,261,188,186,212,214,43,172,171,203,204,0,235,233,260,262,189,187,213,215,43,186,185,217,218,0,236,234,261,263,190,188,214,216,43,173,172,204,205,0,237,235,262,264,191,189,215,217,43,187,186,218,219,0,238,236,263,265,192,190,216,218,43,174,173,205,206,0,239,237,264,266,193,191,217,219,43,188,187,219,220,0,240,238,265,267,194,192,218,220,43,175,174,206,207,0,176,241,268,269,133,193,219,221,43,189,188,220,221,0,212,240,267,270,167,194,220,222,43,176,175,207,208,0,177,176,269,271,134,133,221,223,43,190,189,221,222,0,213,212,270,272,168,167,222,224,43,177,176,208,209,0,214,177,271,273,169,134,223,225,43,191,190,222,223,0,216,215,274,275,170,168,224,226,43,178,177,209,210,0,209,214,273,210,164,169,225,165,43,192,191,223,224,0,217,216,275,246,171,170,226,199,43,249,248,280,281,0,276,276,276,276,227,228,229,230,43,201,200,232,233,0,254,252,277,278,207,205,231,232,43,228,227,259,260,0,255,253,279,280,208,206,233,234,43,215,214,246,247,0,256,242,245,281,209,195,198,235,43,202,201,233,234,0,257,254,278,282,210,207,232,236,43,229,228,260,261,0,258,255,280,283,211,208,234,237,43,216,215,247,248,0,259,256,281,284,212,209,235,228,43,203,202,234,235,0,260,257,282,285,213,210,236,238,43,199,229,261,231,0,249,258,283,286,202,211,237,239,43,217,216,248,249,0,261,259,284,287,214,212,228,227,43,204,203,235,236,0,262,260,285,288,215,213,238,240,43,218,217,249,250,0,263,261,287,289,216,214,227,241,43,205,204,236,237,0,264,262,288,290,217,215,240,242,43,219,218,250,251,0,265,263,289,291,218,216,241,243,43,206,205,237,238,0,266,264,290,292,219,217,242,244,43,220,219,251,252,0,267,265,291,293,220,218,243,245,43,207,206,238,239,0,269,268,294,295,221,219,244,246,43,221,220,252,253,0,270,267,293,296,222,220,245,247,43,208,207,239,240,0,271,269,295,297,223,221,246,248,43,222,221,253,254,0,272,270,296,298,224,222,247,249,43,209,208,240,241,0,273,271,297,299,225,223,248,250,43,223,222,254,255,0,275,274,300,301,226,224,249,251,43,210,209,241,242,0,210,273,299,302,165,225,250,252,43,224,223,255,256,0,246,275,301,303,199,226,251,253,43,211,210,242,243,0,211,210,302,304,166,165,252,254,43,225,224,256,257,0,247,246,303,305,200,199,253,255,43,212,211,243,244,0,248,211,304,306,201,166,254,256,43,198,199,231,230,0,250,249,286,307,203,202,239,257,43,226,225,257,258,0,251,247,305,308,204,200,255,258,43,213,212,244,245,0,243,248,306,244,196,201,256,197,43,200,198,230,232,0,252,250,307,277,205,203,257,231,43,227,226,258,259,0,253,251,308,279,206,204,258,233,43,284,283,315,316,0,309,310,311,312,259,260,261,262,43,236,235,267,268,0,276,276,276,276,240,238,263,264,43,250,249,281,282,0,276,276,276,276,241,227,230,265,43,237,236,268,269,0,276,276,276,276,242,240,264,266,43,251,250,282,283,0,276,276,276,276,243,241,265,260,43,238,237,269,270,0,276,276,276,276,244,242,266,267,43,252,251,283,284,0,276,276,276,276,245,243,260,259,43,239,238,270,271,0,276,276,276,276,246,244,267,268,43,253,252,284,285,0,276,276,276,276,247,245,259,269,43,240,239,271,272,0,276,276,276,276,248,246,268,270,43,254,253,285,286,0,276,276,276,276,249,247,269,271,43,241,240,272,273,0,276,276,276,276,250,248,270,272,43,255,254,286,287,0,276,276,276,276,251,249,271,273,43,242,241,273,274,0,276,276,276,276,252,250,272,274,43,256,255,287,288,0,276,276,276,276,253,251,273,275,43,243,242,274,275,0,276,276,276,276,254,252,274,276,43,257,256,288,289,0,276,276,276,276,255,253,275,277,43,244,243,275,276,0,276,276,276,276,256,254,276,278,43,230,231,263,262,0,276,276,276,276,257,239,279,280,43,258,257,289,290,0,276,276,276,276,258,255,277,281,43,245,244,276,277,0,276,276,276,276,197,256,278,282,43,232,230,262,264,0,276,276,276,276,231,257,280,283,43,259,258,290,291,0,276,276,276,276,233,258,281,284,43,246,245,277,278,0,276,276,276,276,198,197,282,285,43,233,232,264,265,0,276,276,276,276,232,231,283,286,43,260,259,291,292,0,276,276,276,276,234,233,284,287,43,247,246,278,279,0,276,276,276,276,235,198,285,288,43,234,233,265,266,0,276,276,276,276,236,232,286,289,43,261,260,292,293,0,276,276,276,276,237,234,287,290,43,248,247,279,280,0,276,276,276,276,228,235,288,229,43,235,234,266,267,0,276,276,276,276,238,236,289,263,43,231,261,293,263,0,276,276,276,276,239,237,290,279,43,319,318,350,351,0,313,314,315,316,291,292,293,294,43,271,270,302,303,0,317,318,319,320,268,267,295,296,43,285,284,316,317,0,321,309,312,322,269,259,262,297,43,272,271,303,304,0,323,317,320,324,270,268,296,298,43,286,285,317,318,0,325,321,322,326,271,269,297,292,43,273,272,304,305,0,327,323,324,328,272,270,298,299,43,287,286,318,319,0,329,330,331,332,273,271,292,291,43,274,273,305,306,0,333,327,328,334,274,272,299,300,43,288,287,319,320,0,335,329,332,336,275,273,291,301,43,275,274,306,307,0,337,333,334,338,276,274,300,302,43,289,288,320,321,0,339,335,336,340,277,275,301,303,43,276,275,307,308,0,341,337,338,342,278,276,302,304,43,262,263,295,294,0,343,344,345,346,280,279,305,306,43,290,289,321,322,0,347,339,340,348,281,277,303,307,43,277,276,308,309,0,349,341,342,350,282,278,304,308,43,264,262,294,296,0,351,343,346,352,283,280,306,309,43,291,290,322,323,0,353,347,348,354,284,281,307,310,43,278,277,309,310,0,355,349,350,356,285,282,308,311,43,265,264,296,297,0,357,351,352,358,286,283,309,312,43,292,291,323,324,0,359,353,354,360,287,284,310,313,43,279,278,310,311,0,361,355,356,362,288,285,311,314,43,266,265,297,298,0,363,357,358,364,289,286,312,315,43,293,292,324,325,0,365,359,360,366,290,287,313,316,43,280,279,311,312,0,367,368,369,370,229,288,314,317,43,267,266,298,299,0,371,363,364,372,263,289,315,318,43,263,293,325,295,0,344,373,374,345,279,290,316,305,43,281,280,312,313,0,375,367,370,376,230,229,317,319,43,268,267,299,300,0,377,371,372,378,264,263,318,320,43,282,281,313,314,0,379,375,376,380,265,230,319,321,43,269,268,300,301,0,381,377,378,382,266,264,320,322,43,283,282,314,315,0,310,379,380,311,260,265,321,261,43,270,269,301,302,0,383,381,382,384,267,266,322,295,43,354,353,385,386,0,276,276,276,276,323,324,325,326,43,306,305,337,338,0,385,386,387,388,300,299,327,328,43,320,319,351,352,0,389,313,316,390,301,291,294,329,43,307,306,338,339,0,391,385,388,392,302,300,328,330,43,321,320,352,353,0,393,389,390,394,303,301,329,324,43,308,307,339,340,0,395,391,392,396,304,302,330,331,43,294,295,327,326,0,397,398,399,400,306,305,332,333,43,322,321,353,354,0,401,393,394,402,307,303,324,323,43,309,308,340,341,0,403,395,396,404,308,304,331,334,43,296,294,326,328,0,405,397,400,406,309,306,333,335,43,323,322,354,355,0,407,401,402,408,310,307,323,336,43,310,309,341,342,0,409,403,404,410,311,308,334,337,43,297,296,328,329,0,411,405,406,412,312,309,335,338,43,324,323,355,356,0,413,407,408,414,313,310,336,339,43,311,310,342,343,0,369,409,410,415,314,311,337,340,43,298,297,329,330,0,416,411,412,417,315,312,338,341,43,325,324,356,357,0,418,413,414,419,316,313,339,342,43,312,311,343,344,0,420,421,422,423,317,314,340,343,43,299,298,330,331,0,424,416,417,425,318,315,341,344,43,295,325,357,327,0,398,366,426,399,305,316,342,332,43,313,312,344,345,0,427,420,423,428,319,317,343,345,43,300,299,331,332,0,429,424,425,430,320,318,344,346,43,314,313,345,346,0,431,427,428,432,321,319,345,347,43,301,300,332,333,0,433,429,430,434,322,320,346,348,43,315,314,346,347,0,435,431,432,436,261,321,347,349,43,302,301,333,334,0,437,433,434,438,295,322,348,350,43,316,315,347,348,0,439,435,436,440,262,261,349,351,43,303,302,334,335,0,441,442,443,444,296,295,350,352,43,317,316,348,349,0,445,439,440,446,297,262,351,353,43,304,303,335,336,0,447,441,444,448,298,296,352,354,43,318,317,349,350,0,449,445,446,450,292,297,353,293,43,305,304,336,337,0,386,447,448,387,299,298,354,327,43,389,388,420,421,0,451,452,453,454,355,356,357,358,43,341,340,372,373,0,276,276,276,276,334,331,359,360,43,328,326,358,360,0,276,276,276,276,335,333,361,362,43,355,354,386,387,0,276,276,276,276,336,323,326,363,43,342,341,373,374,0,276,276,276,276,337,334,360,364,43,329,328,360,361,0,276,276,276,276,338,335,362,365,43,356,355,387,388,0,276,276,276,276,339,336,363,356,43,343,342,374,375,0,276,276,276,276,340,337,364,366,43,330,329,361,362,0,276,276,276,276,341,338,365,367,43,357,356,388,389,0,276,276,276,276,342,339,356,355,43,344,343,375,376,0,276,276,276,276,343,340,366,368,43,331,330,362,363,0,276,276,276,276,344,341,367,369,43,327,357,389,359,0,276,276,276,276,332,342,355,370,43,345,344,376,377,0,276,276,276,276,345,343,368,371,43,332,331,363,364,0,276,276,276,276,346,344,369,372,43,346,345,377,378,0,276,276,276,276,347,345,371,373,43,333,332,364,365,0,276,276,276,276,348,346,372,374,43,347,346,378,379,0,276,276,276,276,349,347,373,375,43,334,333,365,366,0,276,276,276,276,350,348,374,376,43,348,347,379,380,0,276,276,276,276,351,349,375,377,43,335,334,366,367,0,276,276,276,276,352,350,376,378,43,349,348,380,381,0,276,276,276,276,353,351,377,379,43,336,335,367,368,0,276,276,276,276,354,352,378,380,43,350,349,381,382,0,276,276,276,276,293,353,379,381,43,337,336,368,369,0,276,276,276,276,327,354,380,382,43,351,350,382,383,0,276,276,276,276,294,293,381,383,43,338,337,369,370,0,276,276,276,276,328,327,382,384,43,352,351,383,384,0,276,276,276,276,329,294,383,385,43,339,338,370,371,0,276,276,276,276,330,328,384,386,43,353,352,384,385,0,276,276,276,276,324,329,385,325,43,340,339,371,372,0,276,276,276,276,331,330,386,359,43,326,327,359,358,0,276,276,276,276,333,332,370,361,42,392,390,391,0,486,455,456,387,388,389,42,391,421,420,0,456,457,458,389,358,357,42,420,419,418,0,458,459,460,357,390,391,42,418,417,416,0,460,461,462,391,392,393,42,416,415,414,0,462,463,464,393,394,395,42,414,413,412,0,464,465,466,395,396,397,42,412,411,410,0,466,467,468,397,398,399,42,410,409,408,0,468,469,470,399,400,401,42,408,407,406,0,470,471,472,401,402,403,42,406,405,404,0,472,473,474,403,404,405,42,404,403,402,0,474,475,476,405,406,407,42,402,401,400,0,476,477,478,407,408,409,42,400,399,398,0,478,479,480,409,410,411,42,398,397,396,0,480,481,482,411,412,413,42,396,395,394,0,482,483,484,413,414,415,42,394,393,392,0,484,485,486,415,416,387,42,392,391,420,0,486,456,458,387,389,357,42,420,418,416,0,458,460,462,357,391,393,42,416,414,412,0,462,464,466,393,395,397,42,412,410,408,0,466,468,470,397,399,401,42,408,406,404,0,470,472,474,401,403,405,42,404,402,400,0,474,476,478,405,407,409,42,400,398,396,0,478,480,482,409,411,413,42,396,394,392,0,482,484,486,413,415,387,42,392,420,416,0,486,458,462,387,357,393,42,416,412,408,0,462,466,470,393,397,401,42,408,404,400,0,470,474,478,401,405,409,42,400,396,392,0,478,482,486,409,413,387,42,392,416,408,0,486,462,470,387,393,401,42,408,400,392,0,470,478,486,401,409,387,43,376,375,407,408,0,487,488,489,490,368,366,402,401,43,363,362,394,395,0,491,492,493,494,369,367,415,414,43,359,389,421,391,0,495,496,497,498,370,355,358,389,43,377,376,408,409,0,499,487,490,500,371,368,401,400,43,364,363,395,396,0,501,491,494,502,372,369,414,413,43,378,377,409,410,0,503,499,500,504,373,371,400,399,43,365,364,396,397,0,505,501,502,506,374,372,413,412,43,379,378,410,411,0,507,503,504,508,375,373,399,398,43,366,365,397,398,0,509,505,506,510,376,374,412,411,43,380,379,411,412,0,511,507,508,512,377,375,398,397,43,367,366,398,399,0,513,514,515,516,378,376,411,410,43,381,380,412,413,0,517,511,512,518,379,377,397,396,43,368,367,399,400,0,519,513,516,520,380,378,410,409,43,382,381,413,414,0,521,517,518,522,381,379,396,395,43,369,368,400,401,0,523,519,520,524,382,380,409,408,43,383,382,414,415,0,525,526,527,528,383,381,395,394,43,370,369,401,402,0,529,523,524,530,384,382,408,407,43,384,383,415,416,0,531,525,528,532,385,383,394,393,43,371,370,402,403,0,533,529,530,534,386,384,407,406,43,385,384,416,417,0,535,531,532,536,325,385,393,392,43,372,371,403,404,0,537,533,534,538,359,386,406,405,43,358,359,391,390,0,539,495,498,540,361,370,389,388,43,386,385,417,418,0,541,535,536,542,326,325,392,391,43,373,372,404,405,0,543,537,538,544,360,359,405,404,43,360,358,390,392,0,545,539,540,546,362,361,388,387,43,387,386,418,419,0,547,541,542,548,363,326,391,390,43,374,373,405,406,0,549,543,544,550,364,360,404,403,43,361,360,392,393,0,551,545,546,552,365,362,387,416,43,388,387,419,420,0,452,547,548,453,356,363,390,357,43,375,374,406,407,0,553,549,550,554,366,364,403,402,43,362,361,393,394,0,492,551,552,493,367,365,416,415,43,429,428,426,427,0,555,556,557,558,1,2,3,4,43,427,426,424,425,0,558,557,559,560,4,3,5,6,43,425,424,431,430,0,560,559,561,562,6,5,7,8,43,430,431,433,432,0,562,561,563,564,8,7,9,10,43,432,433,435,434,0,564,563,565,566,10,9,11,12,43,434,435,437,436,0,566,565,567,568,12,11,13,14,43,436,437,439,438,0,568,567,569,570,14,13,15,16,43,438,439,441,440,0,570,569,571,572,16,15,17,18,43,440,441,443,442,0,573,574,575,576,18,17,19,20,43,442,443,445,444,0,576,575,577,578,20,19,21,22,43,444,445,447,446,0,578,577,579,580,22,21,23,24,43,446,447,449,448,0,580,579,581,582,24,23,25,26,43,448,449,451,450,0,582,581,583,584,26,25,27,28,43,450,451,453,452,0,584,583,585,586,28,27,29,30,43,452,453,455,454,0,586,585,587,588,30,29,31,32,43,454,455,457,456,0,588,587,589,590,32,31,33,34,43,456,457,459,458,0,590,589,591,592,34,33,35,36,43,458,459,461,460,0,592,591,593,594,36,35,37,38,43,460,461,463,462,0,594,593,595,596,38,37,39,40,43,462,463,465,464,0,596,595,597,598,40,39,41,42,43,464,465,467,466,0,598,597,599,600,42,41,43,44,43,466,467,469,468,0,600,599,601,602,44,43,45,46,43,468,469,471,470,0,602,601,603,604,46,45,417,48,43,470,471,473,472,0,604,603,605,606,48,417,49,418,43,472,473,475,474,0,607,608,609,610,418,49,51,52,43,474,475,477,476,0,610,609,611,612,52,51,53,54,43,476,477,479,478,0,612,611,613,614,54,53,55,56,43,478,479,481,480,0,614,613,615,616,56,55,57,58,43,480,481,483,482,0,616,615,617,618,58,57,59,60,43,482,483,485,484,0,618,617,619,620,60,59,61,419,43,447,445,498,499,0,579,577,621,622,23,21,420,64,43,486,487,428,429,0,623,624,556,555,65,66,2,1,43,484,485,487,486,0,620,619,624,623,419,61,66,65,42,486,429,427,0,656,625,626,65,1,4,42,427,425,430,0,626,627,628,4,6,8,42,430,432,434,0,628,629,630,8,10,12,42,434,436,438,0,630,631,632,12,14,16,42,438,440,442,0,632,633,634,16,18,20,42,442,444,446,0,634,635,636,20,22,24,42,446,448,450,0,636,637,638,24,26,28,42,450,452,454,0,638,639,640,28,30,32,42,454,456,458,0,640,641,642,32,34,36,42,458,460,462,0,642,643,644,36,38,40,42,462,464,466,0,644,645,646,40,42,44,42,466,468,470,0,646,647,648,44,46,48,42,470,472,474,0,648,649,650,48,418,52,42,474,476,478,0,650,651,652,52,54,56,42,478,480,482,0,652,653,654,56,58,60,42,482,484,486,0,654,655,656,60,419,65,42,486,427,430,0,656,626,628,65,4,8,42,430,434,438,0,628,630,632,8,12,16,42,438,442,446,0,632,634,636,16,20,24,42,446,450,454,0,636,638,640,24,28,32,42,454,458,462,0,640,642,644,32,36,40,42,462,466,470,0,644,646,648,40,44,48,42,470,474,478,0,648,650,652,48,52,56,42,478,482,486,0,652,654,656,56,60,65,42,486,430,438,0,656,628,632,65,8,16,42,438,446,454,0,632,636,640,16,24,32,42,454,462,470,0,640,644,648,32,40,48,42,470,478,486,0,648,652,656,48,56,65,42,486,438,454,0,656,632,640,65,16,32,42,454,470,486,0,640,648,656,32,48,65,43,492,491,523,524,0,657,658,659,660,67,421,422,70,43,465,463,507,508,0,597,595,661,662,41,39,71,72,43,483,481,516,517,0,617,615,663,664,59,57,73,74,43,439,437,494,495,0,569,567,665,666,15,13,75,76,43,457,455,503,504,0,589,587,667,668,33,31,77,78,43,475,473,512,513,0,609,608,669,670,51,49,423,80,43,431,424,490,491,0,561,559,671,658,7,5,81,421,43,449,447,499,500,0,581,579,622,672,25,23,64,82,43,467,465,508,509,0,599,597,662,673,43,41,72,424,43,485,483,517,518,0,619,617,664,674,61,59,74,84,43,441,439,495,496,0,571,569,666,675,17,15,76,85,43,459,457,504,505,0,591,589,668,676,35,33,78,86,43,477,475,513,514,0,611,609,670,677,53,51,80,87,43,433,431,491,492,0,563,561,658,657,9,7,421,67,43,451,449,500,501,0,583,581,672,678,27,25,82,88,43,469,467,509,510,0,601,599,673,679,45,43,424,89,43,487,485,518,519,0,624,619,674,680,66,61,84,90,43,443,441,496,497,0,575,574,681,682,19,17,85,91,43,461,459,505,506,0,593,591,676,683,37,35,86,92,43,479,477,514,515,0,613,611,677,684,55,53,87,93,43,435,433,492,493,0,565,563,657,685,11,9,67,94,43,453,451,501,502,0,585,583,678,686,29,27,88,95,43,471,469,510,511,0,603,601,679,687,417,45,89,96,43,428,487,519,489,0,556,624,680,688,2,66,90,97,43,426,428,489,488,0,557,556,688,689,3,2,97,98,43,445,443,497,498,0,577,575,682,621,21,19,91,420,43,463,461,506,507,0,595,593,683,661,39,37,92,71,43,481,479,515,516,0,615,613,684,663,57,55,93,73,43,437,435,493,494,0,567,565,685,665,13,11,94,75,43,455,453,502,503,0,587,585,686,667,31,29,95,77,43,473,471,511,512,0,605,603,687,690,49,417,96,423,43,424,426,488,490,0,559,557,689,671,5,3,98,81,43,527,526,558,559,0,691,692,693,694,99,100,101,102,43,519,518,550,551,0,680,674,695,696,90,84,103,104,43,506,505,537,538,0,683,676,697,698,92,86,105,106,43,493,492,524,525,0,685,657,660,699,94,67,70,107,43,489,519,551,521,0,688,680,696,700,97,90,104,108,43,507,506,538,539,0,661,683,698,701,71,92,106,109,43,494,493,525,526,0,665,685,699,692,75,94,107,100,43,508,507,539,540,0,662,661,701,702,72,71,109,110,43,495,494,526,527,0,666,665,692,691,76,75,100,99,43,509,508,540,541,0,673,662,702,703,424,72,110,111,43,496,495,527,528,0,675,666,691,704,85,76,99,112,43,510,509,541,542,0,679,673,703,705,89,424,111,113,43,497,496,528,529,0,682,681,706,707,91,85,112,114,43,511,510,542,543,0,687,679,705,708,96,89,113,115,43,498,497,529,530,0,621,682,707,709,420,91,114,116,43,512,511,543,544,0,690,687,708,710,423,96,115,117,43,499,498,530,531,0,622,621,709,711,64,420,116,118,43,513,512,544,545,0,670,669,712,713,80,423,117,119,43,500,499,531,532,0,672,622,711,714,82,64,118,120,43,514,513,545,546,0,677,670,713,715,87,80,119,121,43,501,500,532,533,0,678,672,714,716,88,82,120,122,43,515,514,546,547,0,684,677,715,717,93,87,121,123,43,502,501,533,534,0,686,678,716,718,95,88,122,124,43,488,489,521,520,0,689,688,700,719,98,97,108,125,43,516,515,547,548,0,663,684,717,720,73,93,123,126,43,503,502,534,535,0,667,686,718,721,77,95,124,127,43,490,488,520,522,0,671,689,719,722,81,98,125,128,43,517,516,548,549,0,664,663,720,723,74,73,126,129,43,504,503,535,536,0,668,667,721,724,78,77,127,130,43,491,490,522,523,0,658,671,722,659,421,81,128,422,43,518,517,549,550,0,674,664,723,695,84,74,129,103,43,505,504,536,537,0,676,668,724,697,86,78,130,105,43,562,561,593,594,0,725,726,727,728,131,132,133,134,43,541,540,572,573,0,703,702,729,730,111,110,135,425,43,528,527,559,560,0,704,691,694,731,112,99,102,137,43,542,541,573,574,0,705,703,730,732,113,111,425,138,43,529,528,560,561,0,707,706,733,726,114,112,137,132,43,543,542,574,575,0,708,705,732,734,115,113,138,139,43,530,529,561,562,0,709,707,726,725,116,114,132,131,43,544,543,575,576,0,710,708,734,735,117,115,139,140,43,531,530,562,563,0,711,709,725,736,118,116,131,141,43,545,544,576,577,0,713,712,737,738,119,117,140,142,43,532,531,563,564,0,714,711,736,739,120,118,141,143,43,546,545,577,578,0,715,713,738,740,121,119,142,144,43,533,532,564,565,0,716,714,739,741,122,120,143,145,43,547,546,578,579,0,717,715,740,742,123,121,144,146,43,534,533,565,566,0,718,716,741,743,124,122,145,147,43,520,521,553,552,0,719,700,744,745,125,108,148,149,43,548,547,579,580,0,720,717,742,746,126,123,146,150,43,535,534,566,567,0,721,718,743,747,127,124,147,151,43,522,520,552,554,0,722,719,745,748,128,125,149,152,43,549,548,580,581,0,723,720,746,749,129,126,150,153,43,536,535,567,568,0,724,721,747,750,130,127,151,154,43,523,522,554,555,0,659,722,748,751,422,128,152,155,43,550,549,581,582,0,695,723,749,752,103,129,153,156,43,537,536,568,569,0,697,724,750,753,105,130,154,157,43,524,523,555,556,0,660,659,751,754,70,422,155,158,43,551,550,582,583,0,696,695,752,755,104,103,156,159,43,538,537,569,570,0,698,697,753,756,106,105,157,160,43,525,524,556,557,0,699,660,754,757,107,70,158,426,43,521,551,583,553,0,700,696,755,744,108,104,159,148,43,539,538,570,571,0,701,698,756,758,109,106,160,162,43,526,525,557,558,0,692,699,757,693,100,107,426,101,43,540,539,571,572,0,702,701,758,729,110,109,162,135,43,597,596,628,629,0,759,760,761,762,163,164,165,427,43,576,575,607,608,0,735,734,763,764,140,139,167,168,43,563,562,594,595,0,736,725,728,765,141,131,134,169,43,577,576,608,609,0,738,737,766,767,142,140,168,170,43,564,563,595,596,0,739,736,765,760,143,141,169,164,43,578,577,609,610,0,740,738,767,768,144,142,170,171,43,565,564,596,597,0,741,739,760,759,145,143,164,163,43,579,578,610,611,0,742,740,768,769,146,144,171,172,43,566,565,597,598,0,743,741,759,770,147,145,163,428,43,552,553,585,584,0,745,744,771,772,149,148,174,175,43,580,579,611,612,0,746,742,769,773,150,146,172,176,43,567,566,598,599,0,747,743,770,774,151,147,428,177,43,554,552,584,586,0,748,745,772,775,152,149,175,178,43,581,580,612,613,0,749,746,773,776,153,150,176,179,43,568,567,599,600,0,750,747,774,777,154,151,177,180,43,555,554,586,587,0,751,748,775,778,155,152,178,181,43,582,581,613,614,0,752,749,776,779,156,153,179,429,43,569,568,600,601,0,753,750,777,780,157,154,180,183,43,556,555,587,588,0,754,751,778,781,158,155,181,184,43,583,582,614,615,0,755,752,779,782,159,156,429,185,43,570,569,601,602,0,756,753,780,783,160,157,183,430,43,557,556,588,589,0,757,754,781,784,426,158,184,187,43,553,583,615,585,0,744,755,782,771,148,159,185,174,43,571,570,602,603,0,758,756,783,785,162,160,430,188,43,558,557,589,590,0,693,757,784,786,101,426,187,189,43,572,571,603,604,0,729,758,785,787,135,162,188,190,43,559,558,590,591,0,694,693,786,788,102,101,189,191,43,573,572,604,605,0,730,729,787,789,425,135,190,192,43,560,559,591,592,0,731,694,788,790,137,102,191,193,43,574,573,605,606,0,732,730,789,791,138,425,192,194,43,561,560,592,593,0,726,733,792,727,132,137,193,133,43,575,574,606,607,0,734,732,791,763,139,138,194,167,43,632,631,663,664,0,793,794,795,796,195,196,197,198,43,611,610,642,643,0,769,768,797,798,172,171,199,200,43,598,597,629,630,0,770,759,762,799,428,163,427,431,43,584,585,617,616,0,772,771,800,801,175,174,202,203,43,612,611,643,644,0,773,769,798,802,176,172,200,204,43,599,598,630,631,0,774,770,799,794,177,428,431,196,43,586,584,616,618,0,775,772,801,803,178,175,203,205,43,613,612,644,645,0,776,773,802,804,179,176,204,206,43,600,599,631,632,0,777,774,794,793,180,177,196,195,43,587,586,618,619,0,778,775,803,805,181,178,205,432,43,614,613,645,646,0,779,776,804,806,429,179,206,208,43,601,600,632,633,0,780,777,793,807,183,180,195,209,43,588,587,619,620,0,781,778,805,808,184,181,432,210,43,615,614,646,647,0,782,779,806,809,185,429,208,211,43,602,601,633,634,0,783,780,807,810,430,183,209,212,43,589,588,620,621,0,784,781,808,811,187,184,210,213,43,585,615,647,617,0,771,782,809,800,174,185,211,202,43,603,602,634,635,0,785,783,810,812,188,430,212,214,43,590,589,621,622,0,786,784,811,813,189,187,213,215,43,604,603,635,636,0,787,785,812,814,190,188,214,216,43,591,590,622,623,0,788,786,813,815,191,189,215,217,43,605,604,636,637,0,789,787,814,816,192,190,216,218,43,592,591,623,624,0,790,788,815,817,193,191,217,219,43,606,605,637,638,0,791,789,816,818,194,192,218,220,43,593,592,624,625,0,727,792,819,820,133,193,219,221,43,607,606,638,639,0,763,791,818,821,167,194,220,222,43,594,593,625,626,0,728,727,820,822,134,133,221,223,43,608,607,639,640,0,764,763,821,823,168,167,222,224,43,595,594,626,627,0,765,728,822,824,169,134,223,225,43,609,608,640,641,0,767,766,825,826,170,168,224,226,43,596,595,627,628,0,760,765,824,761,164,169,225,165,43,610,609,641,642,0,768,767,826,797,171,170,226,199,43,667,666,698,699,0,276,276,276,276,433,228,229,230,43,619,618,650,651,0,805,803,827,828,432,205,231,232,43,646,645,677,678,0,806,804,829,830,208,206,233,234,43,633,632,664,665,0,807,793,796,831,209,195,198,235,43,620,619,651,652,0,808,805,828,832,210,432,232,236,43,647,646,678,679,0,809,806,830,833,211,208,234,237,43,634,633,665,666,0,810,807,831,834,212,209,235,228,43,621,620,652,653,0,811,808,832,835,213,210,236,238,43,617,647,679,649,0,800,809,833,836,202,211,237,239,43,635,634,666,667,0,812,810,834,837,214,212,228,433,43,622,621,653,654,0,813,811,835,838,215,213,238,240,43,636,635,667,668,0,814,812,837,839,216,214,433,241,43,623,622,654,655,0,815,813,838,840,217,215,240,242,43,637,636,668,669,0,816,814,839,841,218,216,241,243,43,624,623,655,656,0,817,815,840,842,219,217,242,244,43,638,637,669,670,0,818,816,841,843,220,218,243,245,43,625,624,656,657,0,820,819,844,845,221,219,244,246,43,639,638,670,671,0,821,818,843,846,222,220,245,247,43,626,625,657,658,0,822,820,845,847,223,221,246,248,43,640,639,671,672,0,823,821,846,848,224,222,247,249,43,627,626,658,659,0,824,822,847,849,225,223,248,250,43,641,640,672,673,0,826,825,850,851,226,224,249,251,43,628,627,659,660,0,761,824,849,852,165,225,250,252,43,642,641,673,674,0,797,826,851,853,199,226,251,253,43,629,628,660,661,0,762,761,852,854,427,165,252,434,43,643,642,674,675,0,798,797,853,855,200,199,253,255,43,630,629,661,662,0,799,762,854,856,431,427,434,256,43,616,617,649,648,0,801,800,836,857,203,202,239,257,43,644,643,675,676,0,802,798,855,858,204,200,255,258,43,631,630,662,663,0,794,799,856,795,196,431,256,197,43,618,616,648,650,0,803,801,857,827,205,203,257,231,43,645,644,676,677,0,804,802,858,829,206,204,258,233,43,702,701,733,734,0,859,860,861,862,259,260,261,262,43,654,653,685,686,0,276,276,276,276,240,238,263,435,43,668,667,699,700,0,276,276,276,276,241,433,230,436,43,655,654,686,687,0,276,276,276,276,242,240,435,266,43,669,668,700,701,0,276,276,276,276,243,241,436,260,43,656,655,687,688,0,276,276,276,276,244,242,266,267,43,670,669,701,702,0,276,276,276,276,245,243,260,259,43,657,656,688,689,0,276,276,276,276,246,244,267,268,43,671,670,702,703,0,276,276,276,276,247,245,259,269,43,658,657,689,690,0,276,276,276,276,248,246,268,270,43,672,671,703,704,0,276,276,276,276,249,247,269,271,43,659,658,690,691,0,276,276,276,276,250,248,270,272,43,673,672,704,705,0,276,276,276,276,251,249,271,273,43,660,659,691,692,0,276,276,276,276,252,250,272,274,43,674,673,705,706,0,276,276,276,276,253,251,273,275,43,661,660,692,693,0,276,276,276,276,434,252,274,276,43,675,674,706,707,0,276,276,276,276,255,253,275,277,43,662,661,693,694,0,276,276,276,276,256,434,276,278,43,648,649,681,680,0,276,276,276,276,257,239,279,437,43,676,675,707,708,0,276,276,276,276,258,255,277,438,43,663,662,694,695,0,276,276,276,276,197,256,278,439,43,650,648,680,682,0,276,276,276,276,231,257,437,440,43,677,676,708,709,0,276,276,276,276,233,258,438,284,43,664,663,695,696,0,276,276,276,276,198,197,439,285,43,651,650,682,683,0,276,276,276,276,232,231,440,286,43,678,677,709,710,0,276,276,276,276,234,233,284,287,43,665,664,696,697,0,276,276,276,276,235,198,285,288,43,652,651,683,684,0,276,276,276,276,236,232,286,289,43,679,678,710,711,0,276,276,276,276,237,234,287,290,43,666,665,697,698,0,276,276,276,276,228,235,288,229,43,653,652,684,685,0,276,276,276,276,238,236,289,263,43,649,679,711,681,0,276,276,276,276,239,237,290,279,43,737,736,768,769,0,863,864,865,866,291,292,293,294,43,689,688,720,721,0,867,868,869,870,268,267,295,296,43,703,702,734,735,0,871,859,862,872,269,259,262,297,43,690,689,721,722,0,873,867,870,874,270,268,296,298,43,704,703,735,736,0,875,871,872,876,271,269,297,292,43,691,690,722,723,0,877,873,874,878,272,270,298,299,43,705,704,736,737,0,879,880,881,882,273,271,292,291,43,692,691,723,724,0,883,877,878,884,274,272,299,300,43,706,705,737,738,0,885,879,882,886,275,273,291,301,43,693,692,724,725,0,887,883,884,888,276,274,300,302,43,707,706,738,739,0,889,885,886,890,277,275,301,303,43,694,693,725,726,0,891,887,888,892,278,276,302,304,43,680,681,713,712,0,893,894,895,896,437,279,305,306,43,708,707,739,740,0,897,889,890,898,438,277,303,307,43,695,694,726,727,0,899,891,892,900,439,278,304,308,43,682,680,712,714,0,901,893,896,902,440,437,306,441,43,709,708,740,741,0,903,897,898,904,284,438,307,310,43,696,695,727,728,0,905,899,900,906,285,439,308,311,43,683,682,714,715,0,907,901,902,908,286,440,441,312,43,710,709,741,742,0,909,903,904,910,287,284,310,313,43,697,696,728,729,0,911,905,906,912,288,285,311,314,43,684,683,715,716,0,913,907,908,914,289,286,312,315,43,711,710,742,743,0,915,909,910,916,290,287,313,442,43,698,697,729,730,0,917,918,919,920,229,288,314,317,43,685,684,716,717,0,921,913,914,922,263,289,315,318,43,681,711,743,713,0,894,923,924,895,279,290,442,305,43,699,698,730,731,0,925,917,920,926,230,229,317,319,43,686,685,717,718,0,927,921,922,928,435,263,318,320,43,700,699,731,732,0,929,925,926,930,436,230,319,321,43,687,686,718,719,0,931,927,928,932,266,435,320,322,43,701,700,732,733,0,860,929,930,861,260,436,321,261,43,688,687,719,720,0,933,931,932,934,267,266,322,295,43,772,771,803,804,0,276,276,276,276,443,324,325,326,43,724,723,755,756,0,935,936,937,938,300,299,327,328,43,738,737,769,770,0,939,863,866,940,301,291,294,329,43,725,724,756,757,0,941,935,938,942,302,300,328,330,43,739,738,770,771,0,943,939,940,944,303,301,329,324,43,726,725,757,758,0,945,941,942,946,304,302,330,331,43,712,713,745,744,0,947,948,949,950,306,305,332,333,43,740,739,771,772,0,951,943,944,952,307,303,324,443,43,727,726,758,759,0,953,945,946,954,308,304,331,334,43,714,712,744,746,0,955,947,950,956,441,306,333,444,43,741,740,772,773,0,957,951,952,958,310,307,443,336,43,728,727,759,760,0,959,953,954,960,311,308,334,445,43,715,714,746,747,0,961,955,956,962,312,441,444,338,43,742,741,773,774,0,963,957,958,964,313,310,336,339,43,729,728,760,761,0,919,959,960,965,314,311,445,446,43,716,715,747,748,0,966,961,962,967,315,312,338,341,43,743,742,774,775,0,968,963,964,969,442,313,339,342,43,730,729,761,762,0,920,919,965,970,317,314,446,447,43,717,716,748,749,0,971,966,967,972,318,315,341,344,43,713,743,775,745,0,948,916,973,949,305,442,342,332,43,731,730,762,763,0,974,975,976,977,319,317,447,345,43,718,717,749,750,0,978,971,972,979,320,318,344,346,43,732,731,763,764,0,980,974,977,981,321,319,345,347,43,719,718,750,751,0,982,978,979,983,322,320,346,348,43,733,732,764,765,0,984,980,981,985,261,321,347,349,43,720,719,751,752,0,986,982,983,987,295,322,348,350,43,734,733,765,766,0,988,984,985,989,262,261,349,351,43,721,720,752,753,0,990,991,992,993,296,295,350,352,43,735,734,766,767,0,994,988,989,995,297,262,351,353,43,722,721,753,754,0,996,990,993,997,298,296,352,354,43,736,735,767,768,0,998,994,995,999,292,297,353,293,43,723,722,754,755,0,936,996,997,937,299,298,354,327,43,807,806,838,839,0,1000,1001,1002,1003,355,356,357,448,43,759,758,790,791,0,276,276,276,276,334,331,359,449,43,746,744,776,778,0,276,276,276,276,444,333,361,362,43,773,772,804,805,0,276,276,276,276,336,443,326,363,43,760,759,791,792,0,276,276,276,276,445,334,449,364,43,747,746,778,779,0,276,276,276,276,338,444,362,450,43,774,773,805,806,0,276,276,276,276,339,336,363,356,43,761,760,792,793,0,276,276,276,276,446,445,364,366,43,748,747,779,780,0,276,276,276,276,341,338,450,451,43,775,774,806,807,0,276,276,276,276,342,339,356,355,43,762,761,793,794,0,276,276,276,276,447,446,366,368,43,749,748,780,781,0,276,276,276,276,344,341,451,369,43,745,775,807,777,0,276,276,276,276,332,342,355,370,43,763,762,794,795,0,276,276,276,276,345,447,368,371,43,750,749,781,782,0,276,276,276,276,346,344,369,372,43,764,763,795,796,0,276,276,276,276,347,345,371,373,43,751,750,782,783,0,276,276,276,276,348,346,372,374,43,765,764,796,797,0,276,276,276,276,349,347,373,375,43,752,751,783,784,0,276,276,276,276,350,348,374,452,43,766,765,797,798,0,276,276,276,276,351,349,375,377,43,753,752,784,785,0,276,276,276,276,352,350,452,378,43,767,766,798,799,0,276,276,276,276,353,351,377,379,43,754,753,785,786,0,276,276,276,276,354,352,378,380,43,768,767,799,800,0,276,276,276,276,293,353,379,381,43,755,754,786,787,0,276,276,276,276,327,354,380,382,43,769,768,800,801,0,276,276,276,276,294,293,381,383,43,756,755,787,788,0,276,276,276,276,328,327,382,384,43,770,769,801,802,0,276,276,276,276,329,294,383,385,43,757,756,788,789,0,276,276,276,276,330,328,384,386,43,771,770,802,803,0,276,276,276,276,324,329,385,325,43,758,757,789,790,0,276,276,276,276,331,330,386,359,43,744,745,777,776,0,276,276,276,276,333,332,370,361,42,810,808,809,0,1035,1004,1005,387,388,389,42,809,839,838,0,1005,1006,1007,389,448,357,42,838,837,836,0,1007,1008,1009,357,390,453,42,836,835,834,0,1009,1010,1011,453,392,393,42,834,833,832,0,1011,1012,1013,393,394,395,42,832,831,830,0,1013,1014,1015,395,396,397,42,830,829,828,0,1015,1016,1017,397,398,399,42,828,827,826,0,1017,1018,1019,399,400,401,42,826,825,824,0,1019,1020,1021,401,402,403,42,824,823,822,0,1021,1022,1023,403,404,405,42,822,821,820,0,1023,1024,1025,405,406,454,42,820,819,818,0,1025,1026,1027,454,408,455,42,818,817,816,0,1027,1028,1029,455,456,457,42,816,815,814,0,1029,1030,1031,457,458,459,42,814,813,812,0,1031,1032,1033,459,414,460,42,812,811,810,0,1033,1034,1035,460,461,387,42,810,809,838,0,1035,1005,1007,387,389,357,42,838,836,834,0,1007,1009,1011,357,453,393,42,834,832,830,0,1011,1013,1015,393,395,397,42,830,828,826,0,1015,1017,1019,397,399,401,42,826,824,822,0,1019,1021,1023,401,403,405,42,822,820,818,0,1023,1025,1027,405,454,455,42,818,816,814,0,1027,1029,1031,455,457,459,42,814,812,810,0,1031,1033,1035,459,460,387,42,810,838,834,0,1035,1007,1011,387,357,393,42,834,830,826,0,1011,1015,1019,393,397,401,42,826,822,818,0,1019,1023,1027,401,405,455,42,818,814,810,0,1027,1031,1035,455,459,387,42,810,834,826,0,1035,1011,1019,387,393,401,42,826,818,810,0,1019,1027,1035,401,455,387,43,794,793,825,826,0,1036,1037,1038,1039,368,366,402,401,43,781,780,812,813,0,1040,1041,1042,1043,369,451,460,414,43,777,807,839,809,0,1044,1000,1003,1045,370,355,448,389,43,795,794,826,827,0,1046,1047,1048,1049,371,368,401,400,43,782,781,813,814,0,1050,1040,1043,1051,372,369,414,459,43,796,795,827,828,0,1052,1046,1049,1053,373,371,400,399,43,783,782,814,815,0,1054,1050,1051,1055,374,372,459,458,43,797,796,828,829,0,1056,1052,1053,1057,375,373,399,398,43,784,783,815,816,0,1058,1054,1055,1059,452,374,458,457,43,798,797,829,830,0,1060,1056,1057,1061,377,375,398,397,43,785,784,816,817,0,1062,1063,1064,1065,378,452,457,456,43,799,798,830,831,0,1066,1060,1061,1067,379,377,397,396,43,786,785,817,818,0,1068,1062,1065,1069,380,378,456,455,43,800,799,831,832,0,1070,1066,1067,1071,381,379,396,395,43,787,786,818,819,0,1072,1068,1069,1073,382,380,455,408,43,801,800,832,833,0,1074,1075,1076,1077,383,381,395,394,43,788,787,819,820,0,1078,1072,1073,1079,384,382,408,454,43,802,801,833,834,0,1080,1074,1077,1081,385,383,394,393,43,789,788,820,821,0,1082,1078,1079,1083,386,384,454,406,43,803,802,834,835,0,1084,1080,1081,1085,325,385,393,392,43,790,789,821,822,0,1086,1082,1083,1087,359,386,406,405,43,776,777,809,808,0,1088,1044,1045,1089,361,370,389,388,43,804,803,835,836,0,1090,1084,1085,1091,326,325,392,453,43,791,790,822,823,0,1092,1086,1087,1093,449,359,405,404,43,778,776,808,810,0,1094,1088,1089,1095,362,361,388,387,43,805,804,836,837,0,1096,1090,1091,1097,363,326,453,390,43,792,791,823,824,0,1098,1092,1093,1099,364,449,404,403,43,779,778,810,811,0,1100,1094,1095,1101,450,362,387,461,43,806,805,837,838,0,1102,1096,1097,1103,356,363,390,357,43,793,792,824,825,0,1037,1098,1099,1038,366,364,403,402,43,780,779,811,812,0,1041,1100,1101,1042,451,450,461,460],
    "name": "Cube.000Geometry.8"
}