{
    "materials": [{
        "mapDiffuseWrap": ["RepeatWrapping","RepeatWrapping"],
        "transparent": false,
        "colorAmbient": [0.8,0.8,0.8],
        "colorDiffuse": [0.8,0.8,0.8],
        "mapDiffuse": "houseTexture2.png",
        "shading": "lambert",
        "DbgName": "Material",
        "depthTest": true,
        "DbgIndex": 0,
        "visible": true,
        "opacity": 1,
        "wireframe": false,
        "colorEmissive": [0,0,0],
        "blending": "NormalBlending",
        "mapDiffuseAnisotropy": 1,
        "mapDiffuseRepeat": [1,1],
        "depthWrite": true,
        "DbgColor": 15658734
    }],
    "vertices": [-12.0571,0.046097,11.9147,11.9429,0.046097,11.9147,-12.0571,0.046096,-12.0853,11.9429,0.046096,-12.0853,8.49385,3.4e-05,-10.0234,8.49385,3.4e-05,0.788372,8.61772,4.74095,-10.7381,8.61772,4.74095,1.50317,8.61772,5.74956,-4.61749,8.61772,4.62418,-9.77821,8.61772,4.62418,0.54324,8.61772,6.35471,-4.61749,8.27911,6.19592,-4.61749,8.27911,4.63112,-10.5525,8.27911,5.74956,-4.61749,8.27911,4.62418,-9.77821,8.2791,4.62418,0.54324,8.27911,6.35471,-4.61749,8.27911,4.74095,-10.7381,8.2791,4.74095,1.50317,8.49385,0.604053,-10.0234,8.49385,0.604054,0.788372,8.27911,3.4e-05,-9.77821,8.27911,3.4e-05,0.543237,8.27911,0.604053,-9.77821,8.27911,0.604054,0.543238,6.01867,3.4e-05,-9.77822,6.01867,3.4e-05,0.543236,6.01867,4.62418,-9.77821,6.01867,4.62418,0.543238,6.01867,6.19592,-4.61749,6.01868,4.63112,-10.5525,6.01867,4.63112,1.31749,6.01867,6.19592,-4.61749,6.01868,4.63112,-10.5525,6.01867,0.604053,-9.77822,6.01867,0.604054,0.543237,6.12605,3.4e-05,-10.0234,6.12605,3.4e-05,0.788371,6.12605,0.604053,-10.0234,6.12605,0.604054,0.788371,8.27911,2.61412,-9.77821,8.27911,2.61412,0.543239,6.01867,2.61412,-9.77821,6.01867,2.61412,0.543237,8.27911,3.4e-05,-4.61749,8.27911,4.62418,-4.61749,8.27911,0.604053,-4.61749,8.49385,3.4e-05,-4.61749,8.49385,0.604053,-4.61749,6.01867,3.4e-05,-4.61749,8.27911,2.61412,-4.61749,8.27911,5.18687,-7.19785,8.27911,5.52335,-7.77066,8.27911,5.41352,-7.58497,8.61772,5.18687,-7.19785,8.61772,5.52335,-7.77066,6.01867,5.41352,-7.58498,8.27911,5.18687,-2.03712,8.27911,5.52336,-1.46432,8.61772,5.18687,-2.03712,8.61772,5.52336,-1.46432,6.01867,5.41352,-1.65,8.83914,6.19592,-4.61749,8.83914,5.74956,-4.61749,8.83914,5.18687,-7.19785,8.83914,4.62418,-9.77821,8.83914,5.18687,-2.03712,8.83914,5.41352,-7.58497,8.83914,4.63112,-10.5525,8.83914,5.41352,-1.65,8.83913,4.62418,0.54324,8.83913,4.63112,1.31749,8.27911,5.41352,-7.58497,8.27911,4.63112,-10.5525,8.27911,5.41352,-1.65,8.27911,6.19592,-4.61749,8.61772,5.41352,-7.58497,8.61772,4.63112,-10.5525,8.61772,5.41352,-1.65,8.61772,6.19592,-4.61749,8.2791,4.63112,1.31749,8.61772,4.63112,1.31749,4.93524,-0.007208,1.03645,4.81581,2.17188,1.03645,4.93524,-0.007208,0.338754,4.93524,2.1877,0.338754,4.46851,2.58615,0.338754,4.40671,-0.007208,0.338754,4.46851,2.58615,1.03645,4.40671,-0.007208,1.03645,4.40671,2.55074,0.338754,5.0999,2.17188,0.338754,5.0999,-0.007208,0.338754,4.93524,2.1877,1.03645,4.81581,-0.007208,1.03645,4.40671,2.55074,1.03645,4.81994,2.19048,1.56345,4.81994,0.011393,1.56345,4.41085,2.56934,1.56345,4.93938,2.2063,1.56345,4.93938,0.011393,1.56345,4.47265,2.60475,1.56345,5.29071,2.81906,0.712854,5.29071,4.07021,0.712854,5.29071,2.81906,0.339813,5.29071,4.07021,0.339812,6.76611,2.81906,0.712854,6.76611,4.07021,0.712854,6.76611,2.81906,0.339813,6.76611,4.07021,0.339812,5.44227,2.94758,0.720672,5.44227,3.94168,0.720672,6.61455,3.94168,0.720672,6.61455,2.94758,0.720672,5.29071,2.81906,0.860479,5.29071,4.07021,0.860478,6.76611,4.07021,0.860478,6.76611,2.81906,0.860479,5.44227,2.94758,0.868297,5.44227,3.94168,0.868296,6.61455,3.94168,0.868296,6.61455,2.94758,0.868297,5.29071,3.41657,0.712854,5.29071,3.47269,0.712854,5.29071,3.47269,0.339812,5.29071,3.41657,0.339812,6.76611,3.47269,0.339812,6.76611,3.41657,0.339812,6.76611,3.47269,0.712854,6.76611,3.41657,0.712854,5.44227,3.42234,0.720672,5.44227,3.46693,0.720672,6.61455,3.46693,0.720672,6.61455,3.42234,0.720672,5.29071,3.41657,0.860478,5.29071,3.47269,0.860478,6.76611,3.47269,0.860478,6.76611,3.41657,0.860478,5.44227,3.42234,0.868296,5.44227,3.46693,0.868296,6.61455,3.46693,0.868296,6.61455,3.42234,0.868296,5.97245,4.07021,0.339812,6.08437,4.07021,0.339812,6.08437,2.81906,0.339813,5.97245,2.81906,0.339813,6.08437,4.07021,0.712854,5.97245,4.07021,0.712854,5.97245,2.81906,0.712854,6.08437,2.81906,0.712854,6.07287,3.94168,0.720672,5.98395,3.94168,0.720672,5.98395,2.94758,0.720672,6.07287,2.94758,0.720672,6.08437,4.07021,0.860478,5.97245,4.07021,0.860478,5.97245,2.81906,0.860479,6.08437,2.81906,0.860479,6.07287,3.94168,0.868296,5.98395,3.94168,0.868296,5.98395,2.94758,0.868297,6.07287,2.94758,0.868297,5.98395,3.46693,0.720672,6.07287,3.46693,0.720672,5.98395,3.42234,0.720672,6.07287,3.42234,0.720672,6.08437,3.47269,0.339812,5.97245,3.47269,0.339812,6.08437,3.41657,0.339812,5.97245,3.41657,0.339812,5.98395,3.46693,0.720672,6.07287,3.46693,0.720672,5.98395,3.42234,0.720672,6.07287,3.42234,0.720672,5.98395,3.46693,0.874347,6.07287,3.46693,0.874347,5.98395,3.42234,0.874347,6.07287,3.42234,0.874347,5.29071,3.47269,0.908821,5.29071,4.07021,0.908821,6.76611,3.41657,0.908821,6.76611,2.81906,0.908821,5.97245,4.07021,0.908821,6.08437,2.81906,0.908821,5.44227,3.46693,0.916639,5.44227,3.94168,0.916639,6.61455,3.42234,0.916639,6.61455,2.94758,0.916639,5.98395,3.94168,0.916639,6.07287,2.94758,0.916639,6.61455,3.94168,0.916639,6.76611,4.07021,0.908821,5.29071,2.81906,0.908821,5.44227,2.94758,0.916639,5.29071,3.41657,0.908821,6.76611,3.47269,0.908821,5.44227,3.42234,0.916639,6.61455,3.46693,0.916639,6.08437,4.07021,0.908821,5.97245,2.81906,0.908821,6.07287,3.94168,0.916639,5.98395,2.94758,0.916639,2.07421,3.46858,-10.1596,0.750372,3.41815,-10.1523,2.22578,3.47426,-10.1517,2.07421,3.94331,-10.155,2.22578,4.07175,-10.146,0.750372,2.82066,-10.1581,0.901933,2.94926,-10.1646,1.44361,3.94331,-10.155,1.53253,2.94926,-10.1646,0.901933,3.94331,-10.155,0.901933,3.46858,-10.1596,2.07421,2.94926,-10.1646,2.07421,3.42399,-10.16,1.43212,4.07175,-10.146,1.54403,2.82066,-10.1581,0.750372,4.07175,-10.146,0.750372,3.47426,-10.1517,2.22578,2.82066,-10.1581,2.22578,3.41815,-10.1523,1.44361,3.46817,-10.1173,1.53253,3.46817,-10.1173,1.44361,3.42358,-10.1178,1.53253,3.42358,-10.1178,1.44361,3.46669,-9.96365,1.53253,3.46669,-9.96365,1.44361,3.4221,-9.96408,1.53253,3.4221,-9.96408,1.54403,3.46877,-9.58276,1.43212,3.46877,-9.58276,1.54403,3.41266,-9.5833,1.43212,3.41266,-9.5833,1.44361,3.46669,-9.96365,1.53253,3.46669,-9.96365,1.44361,3.4221,-9.96408,1.53253,3.4221,-9.96408,1.44361,3.94284,-10.1067,1.53253,3.94284,-10.1067,1.53253,2.94879,-10.1163,1.44361,2.94879,-10.1163,1.43212,4.07129,-10.0976,1.54403,4.07129,-10.0976,1.54403,2.8202,-10.1097,1.43212,2.8202,-10.1097,1.44361,3.94142,-9.95907,1.53253,3.94142,-9.95907,1.53253,2.94737,-9.96867,1.44361,2.94737,-9.96867,1.43212,4.06986,-9.95001,1.54403,4.06986,-9.95001,1.54403,2.81877,-9.96209,1.43212,2.81877,-9.96209,1.54403,4.06626,-9.57699,1.43212,4.06626,-9.57699,1.43212,2.81517,-9.58907,1.54403,2.81517,-9.58907,0.901933,3.46811,-10.1113,0.901933,3.42353,-10.1117,2.07421,3.42353,-10.1117,2.07421,3.46811,-10.1113,0.750372,3.4738,-10.1034,0.750372,3.41769,-10.1039,2.22578,3.41769,-10.1039,2.22578,3.4738,-10.1034,0.901933,3.46669,-9.96365,0.901933,3.4221,-9.96408,2.07421,3.4221,-9.96408,2.07421,3.46669,-9.96365,0.750372,3.47237,-9.95578,0.750372,3.41626,-9.95632,0.750372,3.46877,-9.58276,0.750372,3.41266,-9.5833,2.22578,3.46877,-9.58276,2.22578,3.41266,-9.5833,2.22578,3.41626,-9.95632,2.22578,3.47237,-9.95578,0.901933,3.94284,-10.1067,0.901933,2.94879,-10.1163,2.07421,2.94879,-10.1163,2.07421,3.94284,-10.1067,0.750372,4.07129,-10.0976,0.750372,2.8202,-10.1097,2.22578,2.8202,-10.1097,2.22578,4.07129,-10.0976,0.901933,3.94142,-9.95907,0.901933,2.94737,-9.96867,2.07421,2.94737,-9.96867,2.07421,3.94142,-9.95907,0.750372,2.81517,-9.58907,0.750372,4.06626,-9.57699,0.750372,2.81877,-9.96209,0.750372,4.06986,-9.95001,2.22578,2.81517,-9.58907,2.22578,4.06626,-9.57699,2.22578,2.81877,-9.96209,2.22578,4.06986,-9.95001,5.98395,3.94331,-10.155,6.07287,2.94926,-10.1646,5.97245,4.07175,-10.146,6.08437,2.82066,-10.1581,6.61455,3.42399,-10.16,-0.977367,3.4e-05,-10.0234,-0.977367,3.4e-05,0.788372,3.75824,3.4e-05,0.543236,3.75824,3.4e-05,-9.77822,-1.10124,4.74095,-10.7381,-1.10123,4.74095,1.50317,3.75824,4.62418,0.543235,3.75824,4.62418,-9.77822,-1.10124,5.74956,-4.61749,-1.10124,4.62418,-9.77821,-1.10124,4.62418,0.54324,3.75824,4.63112,-10.5525,3.75824,6.19592,-4.61749,3.75824,4.63112,1.31748,-1.10124,6.35471,-4.61749,3.75824,4.63112,-10.5525,3.75824,6.19592,-4.61749,-0.762625,6.19592,-4.61749,3.75824,4.63112,1.31748,-0.762628,4.63112,-10.5525,3.75824,4.62418,0.543235,-0.762625,5.74956,-4.61749,-0.762628,4.62418,-9.77821,-0.762623,4.62418,0.54324,-0.762625,6.35471,-4.61749,-0.762628,4.74095,-10.7381,-0.762622,4.74095,1.50317,-0.977368,0.604053,-10.0234,-0.977367,0.604054,0.788372,3.75824,0.604054,0.543236,3.75824,0.604053,-9.77822,-0.762625,3.4e-05,-9.77821,-0.762625,3.4e-05,0.543237,-0.762627,0.604053,-9.77821,3.75824,3.4e-05,-10.0234,3.75824,3.4e-05,0.78837,3.75824,0.604054,0.78837,3.75824,0.604053,-10.0234,-0.762625,0.604054,0.543238,1.49781,3.4e-05,-9.77822,1.49781,3.4e-05,0.543236,1.49781,4.62418,-9.77821,1.49781,4.62418,0.543238,1.49781,6.19592,-4.61749,1.49781,4.63112,-10.5525,1.49781,4.63112,1.31749,1.49781,6.19592,-4.61749,1.49781,4.63112,-10.5525,1.49781,0.604053,-9.77822,1.49781,0.604054,0.543237,1.39044,3.4e-05,-10.0234,1.39044,3.4e-05,0.788371,1.39044,0.604053,-10.0234,1.39044,0.604054,0.788371,-0.762627,2.61412,-9.77821,-0.762624,2.61412,0.543239,3.75824,2.61412,0.543236,3.75824,2.61412,-9.77822,1.49781,2.61412,-9.77821,1.49781,2.61412,0.543237,-0.762625,3.4e-05,-4.61749,3.75824,3.4e-05,-4.61749,-0.762625,4.62418,-4.61749,-0.762625,0.604053,-4.61749,-0.977367,3.4e-05,-4.61749,-0.977367,0.604053,-4.61749,1.49781,3.4e-05,-4.61749,-0.762625,2.61412,-4.61749,-0.762627,5.18687,-7.19785,-0.762627,5.52335,-7.77066,3.75824,5.41352,-7.58498,-0.762627,5.41352,-7.58497,-1.10124,5.18687,-7.19785,-1.10124,5.52335,-7.77066,1.49781,5.41352,-7.58498,3.75824,5.41352,-1.65,-0.762624,5.18687,-2.03712,-0.762623,5.52336,-1.46432,3.75824,5.41352,-1.65,-1.10124,5.18687,-2.03712,-1.10124,5.52336,-1.46432,1.49781,5.41352,-1.65,-1.32265,6.19592,-4.61749,-1.32265,5.74956,-4.61749,-1.32266,5.18687,-7.19785,-1.32266,4.62418,-9.77821,-1.32265,5.18687,-2.03712,-1.32266,5.41352,-7.58497,-1.32266,4.63112,-10.5525,-1.32265,5.41352,-1.65,-1.32265,4.62418,0.54324,-1.32265,4.63112,1.31749,-0.762627,5.41352,-7.58497,-0.762628,4.63112,-10.5525,-0.762623,5.41352,-1.65,-0.762625,6.19592,-4.61749,-1.10124,5.41352,-7.58497,-1.10124,4.63112,-10.5525,-1.10124,5.41352,-1.65,-1.10124,6.19592,-4.61749,-0.762622,4.63112,1.31749,-1.10123,4.63112,1.31749,3.75824,-0.007208,1.03645,3.75824,2.69281,1.03645,3.75824,-0.007208,0.338754,3.75824,2.69281,0.338754,2.58124,-0.007208,1.03645,2.70068,2.17188,1.03645,2.58124,-0.007208,0.338754,2.58124,2.1877,0.338754,3.04797,2.58615,0.338754,3.10977,-0.007208,0.338754,3.04797,2.58615,1.03645,3.10977,-0.007208,1.03645,3.75824,2.77955,0.247066,3.75824,2.77955,0.94476,3.10977,2.55074,0.338754,2.41658,2.17188,0.338754,2.41658,-0.007208,0.338754,2.58124,2.1877,1.03645,2.70068,-0.007208,1.03645,3.10977,2.55074,1.03645,2.69654,2.19048,1.56345,2.69654,0.011393,1.56345,3.10564,2.56934,1.56345,3.75824,2.71142,1.56345,2.5771,2.2063,1.56345,2.5771,0.011393,1.56345,3.04383,2.60475,1.56345,3.75824,2.79815,1.47176,2.22578,2.81906,0.712854,2.22578,4.07021,0.712854,2.22578,2.81906,0.339813,2.22578,4.07021,0.339812,0.750371,2.81906,0.712854,0.750371,4.07021,0.712854,0.750371,2.81906,0.339813,0.750371,4.07021,0.339812,2.07421,2.94758,0.720672,2.07421,3.94168,0.720672,0.901933,3.94168,0.720672,0.901933,2.94758,0.720672,2.22578,2.81906,0.860479,2.22578,4.07021,0.860478,0.750371,4.07021,0.860478,0.750371,2.81906,0.860479,2.07421,2.94758,0.868297,2.07421,3.94168,0.868296,0.901933,3.94168,0.868296,0.901933,2.94758,0.868297,2.22578,3.41657,0.712854,2.22578,3.47269,0.712854,2.22578,3.47269,0.339812,2.22578,3.41657,0.339812,0.750371,3.47269,0.339812,0.750371,3.41657,0.339812,0.750371,3.47269,0.712854,0.750371,3.41657,0.712854,2.07421,3.42234,0.720672,2.07421,3.46693,0.720672,0.901933,3.46693,0.720672,0.901933,3.42234,0.720672,2.22578,3.41657,0.860478,2.22578,3.47269,0.860478,0.750371,3.47269,0.860478,0.750371,3.41657,0.860478,2.07421,3.42234,0.868296,2.07421,3.46693,0.868296,0.901933,3.46693,0.868296,0.901933,3.42234,0.868296,1.54403,4.07021,0.339812,1.43212,4.07021,0.339812,1.43212,2.81906,0.339813,1.54403,2.81906,0.339813,1.43212,4.07021,0.712854,1.54403,4.07021,0.712854,1.54403,2.81906,0.712854,1.43212,2.81906,0.712854,1.44361,3.94168,0.720672,1.53253,3.94168,0.720672,1.53253,2.94758,0.720672,1.44361,2.94758,0.720672,1.43212,4.07021,0.860478,1.54403,4.07021,0.860478,1.54403,2.81906,0.860479,1.43212,2.81906,0.860479,1.44361,3.94168,0.868296,1.53253,3.94168,0.868296,1.53253,2.94758,0.868297,1.44361,2.94758,0.868297,1.53253,3.46693,0.720672,1.44361,3.46693,0.720672,1.53253,3.42234,0.720672,1.44361,3.42234,0.720672,1.43212,3.47269,0.339812,1.54403,3.47269,0.339812,1.43212,3.41657,0.339812,1.54403,3.41657,0.339812,1.53253,3.46693,0.720672,1.44361,3.46693,0.720672,1.53253,3.42234,0.720672,1.44361,3.42234,0.720672,1.53253,3.46693,0.874347,1.44361,3.46693,0.874347,1.53253,3.42234,0.874347,1.44361,3.42234,0.874347,2.22578,3.47269,0.908821,2.22578,4.07021,0.908821,0.750371,3.41657,0.908821,0.750371,2.81906,0.908821,1.54403,4.07021,0.908821,1.43212,2.81906,0.908821,2.07421,3.46693,0.916639,2.07421,3.94168,0.916639,0.901933,3.42234,0.916639,0.901933,2.94758,0.916639,1.53253,3.94168,0.916639,1.44361,2.94758,0.916639,0.901933,3.94168,0.916639,0.750371,4.07021,0.908821,2.22578,2.81906,0.908821,2.07421,2.94758,0.916639,2.22578,3.41657,0.908821,0.750371,3.47269,0.908821,2.07421,3.42234,0.916639,0.901933,3.46693,0.916639,1.43212,4.07021,0.908821,1.54403,2.81906,0.908821,1.44361,3.94168,0.916639,1.53253,2.94758,0.916639,5.44227,3.46858,-10.1596,5.29071,2.81517,-9.58907,6.76611,3.41815,-10.1523,5.29071,4.06626,-9.57699,5.29071,3.47426,-10.1517,5.44227,3.94331,-10.155,5.29071,4.07175,-10.146,6.76611,2.82066,-10.1581,6.61455,2.94926,-10.1646,6.07287,3.94331,-10.155,5.98395,2.94926,-10.1646,6.61455,3.94331,-10.155,6.61455,3.46858,-10.1596,5.44227,2.94926,-10.1646,5.44227,3.42399,-10.16,6.08437,4.07175,-10.146,5.97245,2.82066,-10.1581,6.76611,4.07175,-10.146,6.76611,3.47426,-10.1517,5.29071,2.82066,-10.1581,5.29071,3.41815,-10.1523,5.29071,2.81877,-9.96209,5.29071,4.06986,-9.95001,6.07287,3.46817,-10.1173,5.98395,3.46817,-10.1173,6.07287,3.42358,-10.1178,5.98395,3.42358,-10.1178,6.07287,3.46669,-9.96365,5.98395,3.46669,-9.96365,6.07287,3.4221,-9.96408,5.98395,3.4221,-9.96408,5.97245,3.46877,-9.58276,6.08437,3.46877,-9.58276,5.97245,3.41266,-9.5833,6.08437,3.41266,-9.5833,6.07287,3.46669,-9.96365,5.98395,3.46669,-9.96365,6.07287,3.4221,-9.96408,5.98395,3.4221,-9.96408,6.07287,3.94284,-10.1067,5.98395,3.94284,-10.1067,5.98395,2.94879,-10.1163,6.07287,2.94879,-10.1163,6.08437,4.07129,-10.0976,5.97245,4.07129,-10.0976,5.97245,2.8202,-10.1097,6.08437,2.8202,-10.1097,6.07287,3.94142,-9.95907,5.98395,3.94142,-9.95907,5.98395,2.94737,-9.96867,6.07287,2.94737,-9.96867,6.08437,4.06986,-9.95001,5.97245,4.06986,-9.95001,5.97245,2.81877,-9.96209,6.08437,2.81877,-9.96209,5.97245,4.06626,-9.57699,6.08437,4.06626,-9.57699,6.08437,2.81517,-9.58907,5.97245,2.81517,-9.58907,6.61455,3.46811,-10.1113,0.901933,3.42399,-10.16,6.61455,3.42353,-10.1117,5.44227,3.42353,-10.1117,5.44227,3.46811,-10.1113,6.76611,3.4738,-10.1034,6.76611,3.41769,-10.1039,5.29071,3.41769,-10.1039,5.29071,3.4738,-10.1034,6.61455,3.46669,-9.96365,6.61455,3.4221,-9.96408,5.44227,3.4221,-9.96408,5.44227,3.46669,-9.96365,6.76611,3.47237,-9.95578,6.76611,3.41626,-9.95632,6.76611,3.46877,-9.58276,6.76611,3.41266,-9.5833,5.29071,3.46877,-9.58276,5.29071,3.41266,-9.5833,5.29071,3.41626,-9.95632,5.29071,3.47237,-9.95578,6.61455,3.94284,-10.1067,6.61455,2.94879,-10.1163,5.44227,2.94879,-10.1163,5.44227,3.94284,-10.1067,6.76611,4.07129,-10.0976,6.76611,2.8202,-10.1097,5.29071,2.8202,-10.1097,5.29071,4.07129,-10.0976,6.61455,3.94142,-9.95907,6.61455,2.94737,-9.96867,5.44227,2.94737,-9.96867,5.44227,3.94142,-9.95907,6.76611,2.81517,-9.58907,6.76611,4.06626,-9.57699,6.76611,2.81877,-9.96209,6.76611,4.06986,-9.95001,1.43212,2.82066,-10.1581,1.54403,4.07175,-10.146,1.44361,2.94926,-10.1646,1.53253,3.94331,-10.155,-0.05714,0.046097,11.9147,-0.057142,0.046096,-12.0853,-12.0571,0.046097,-0.085323,11.9429,0.046097,-0.085323,-0.057142,0.046097,-0.085323,-0.256683,7.59789,-1.98741,-0.25668,7.59789,-8.29627,-0.256681,8.64074,-5.14184,-0.256682,7.47715,-2.48213,-0.25668,7.47715,-7.80154,-0.256681,9.26643,-5.14184,-0.07561,9.10224,-5.14184,-0.075611,7.48433,-2.08311,-0.07561,8.64074,-5.14184,-0.075611,7.47715,-2.48213,-0.075608,7.47715,-7.80154,-0.07561,9.26643,-5.14184,-0.075611,7.59789,-1.98741,-0.075608,7.59789,-8.29627,1.13315,7.47715,-2.48213,1.13315,7.47715,-7.80154,1.13315,9.10224,-5.14184,1.13315,7.48433,-2.08311,1.13315,7.48432,-8.20057,1.13315,9.10224,-5.14184,1.13315,7.48433,-2.08311,-0.07561,5.39886,-2.48213,-0.07561,5.39886,-7.80154,1.13315,5.39886,-2.48213,1.13315,5.39886,-7.80154,-0.07561,7.47715,-5.14184,-0.07561,5.39886,-5.14184,-0.07561,8.05894,-3.81199,-0.07561,8.40685,-3.51678,-0.07561,8.29328,-3.61247,-0.256682,8.05894,-3.81199,-0.256682,8.40685,-3.51678,1.13315,8.29328,-3.61247,-0.07561,8.05894,-6.47169,-0.07561,8.40685,-6.7669,-0.256681,8.05894,-6.47169,-0.25668,8.40685,-6.7669,1.13315,8.29328,-6.6712,-0.375083,9.10224,-5.14184,-0.375083,8.64074,-5.14184,-0.375084,8.05894,-3.81199,-0.375084,7.47715,-2.48213,-0.375083,8.05894,-6.47169,-0.375084,8.29328,-3.61247,-0.375086,7.48433,-2.08311,-0.375083,8.29328,-6.6712,-0.375081,7.47715,-7.80154,-0.375081,7.48432,-8.20057,-0.07561,8.29328,-3.61247,-0.075611,7.48433,-2.08311,-0.07561,8.29328,-6.6712,-0.07561,9.10224,-5.14184,-0.256682,8.29328,-3.61247,-0.256683,7.48433,-2.08311,-0.25668,8.29328,-6.6712,-0.256681,9.10224,-5.14184,-0.075608,7.48432,-8.20057,-0.25668,7.48432,-8.20057,1.96209,5.36995,-7.69616,1.99514,5.33334,-7.69616,1.52242,5.61076,-7.88896,1.52242,6.90438,-7.88896,1.52242,5.61076,-7.6967,1.52242,6.90438,-7.6967,0.733458,5.61076,-7.88896,0.733458,6.90438,-7.88896,0.733458,5.61076,-7.6967,0.733458,6.90438,-7.6967,1.44138,5.74365,-7.89299,1.44138,6.77149,-7.89299,0.814504,6.77149,-7.89299,0.814504,5.74365,-7.89299,1.52242,5.61076,-7.96504,1.52242,6.90438,-7.96504,0.733458,6.90438,-7.96504,0.733458,5.61076,-7.96504,1.44138,5.74365,-7.96907,1.44138,6.77149,-7.96907,0.814504,6.77149,-7.96907,0.814504,5.74365,-7.96907,1.52242,6.22856,-7.88896,1.52242,6.28658,-7.88896,1.52242,6.28658,-7.6967,1.52242,6.22856,-7.6967,0.733458,6.28658,-7.6967,0.733458,6.22856,-7.6967,0.733458,6.28658,-7.88896,0.733458,6.22856,-7.88896,1.44138,6.23452,-7.89299,1.44138,6.28062,-7.89299,0.814504,6.28062,-7.89299,0.814504,6.23452,-7.89299,1.52242,6.22856,-7.96504,1.52242,6.28658,-7.96504,0.733458,6.28658,-7.96504,0.733458,6.22856,-7.96504,1.44138,6.23452,-7.96907,1.44138,6.28062,-7.96907,0.814504,6.28062,-7.96907,0.814504,6.23452,-7.96907,1.15786,6.90438,-7.6967,1.09802,6.90438,-7.6967,1.09802,5.61076,-7.6967,1.15786,5.61076,-7.6967,1.09802,6.90438,-7.88896,1.15786,6.90438,-7.88896,1.10417,6.77149,-7.89299,1.15172,6.77149,-7.89299,1.15172,5.74365,-7.89299,1.10417,5.74365,-7.89299,1.09802,6.90438,-7.96504,1.15786,6.90438,-7.96504,1.10417,6.77149,-7.96907,1.15172,6.77149,-7.96907,1.15172,5.74365,-7.96907,1.10417,5.74365,-7.96907,1.15172,6.28062,-7.89299,1.10417,6.28062,-7.89299,1.15172,6.23452,-7.89299,1.10417,6.23452,-7.89299,1.09802,6.28658,-7.6967,1.15786,6.28658,-7.6967,1.09802,6.22856,-7.6967,1.15786,6.22856,-7.6967,1.15172,6.28062,-7.89299,1.10417,6.28062,-7.89299,1.15172,6.23452,-7.89299,1.10417,6.23452,-7.89299,1.15172,6.28062,-7.97219,1.10417,6.28062,-7.97219,1.15172,6.23452,-7.97219,1.10417,6.23452,-7.97219,1.52242,6.28658,-7.98996,1.52242,6.90438,-7.98996,0.733458,6.22856,-7.98996,0.733458,5.61076,-7.98996,1.15786,6.90438,-7.98996,1.09802,5.61076,-7.98996,1.44138,6.28062,-7.99398,1.44138,6.77149,-7.99398,0.814504,6.23452,-7.99398,0.814504,5.74365,-7.99398,1.15172,6.77149,-7.99398,1.10417,5.74365,-7.99398,0.814504,6.77149,-7.99398,0.733458,6.90438,-7.98996,1.52242,5.61076,-7.98996,1.44138,5.74365,-7.99398,1.52242,6.22856,-7.98996,0.733458,6.28658,-7.98996,1.44138,6.23452,-7.99398,0.814504,6.28062,-7.99398,1.09802,6.90438,-7.98996,1.15786,5.61076,-7.98996,1.10417,6.77149,-7.99398,1.15172,5.74365,-7.99398,3.24243,6.28233,-2.28557,3.95035,6.23019,-2.28935,3.16138,6.28821,-2.28963,3.24243,6.77318,-2.28793,3.16138,6.90598,-2.2926,3.95035,5.61242,-2.28638,3.8693,5.74538,-2.28299,3.57964,6.77318,-2.28793,3.53209,5.74538,-2.28299,3.8693,6.77318,-2.28793,3.8693,6.28233,-2.28557,3.24243,5.74538,-2.28299,3.24243,6.23623,-2.28535,3.58579,6.90598,-2.2926,3.52594,5.61242,-2.28638,3.95035,6.90598,-2.2926,3.95035,6.28821,-2.28963,3.16138,5.61242,-2.28638,3.16138,6.23019,-2.28935,3.57964,6.28191,-2.30737,3.53209,6.28191,-2.30737,3.57964,6.23581,-2.30715,3.53209,6.23581,-2.30715,3.57964,6.28037,-2.38656,3.53209,6.28037,-2.38656,3.57964,6.23427,-2.38634,3.53209,6.23427,-2.38634,3.52594,6.28253,-2.58287,3.58579,6.28253,-2.58287,3.52594,6.22451,-2.58259,3.58579,6.22451,-2.58259,3.57964,6.28037,-2.38656,3.53209,6.28037,-2.38656,3.57964,6.23427,-2.38634,3.53209,6.23427,-2.38634,3.57964,6.77269,-2.31285,3.53209,6.77269,-2.31285,3.53209,5.7449,-2.3079,3.57964,5.7449,-2.3079,3.58579,6.9055,-2.31752,3.52594,6.9055,-2.31752,3.52594,5.61194,-2.31129,3.58579,5.61194,-2.31129,3.57964,6.77122,-2.38893,3.53209,6.77122,-2.38893,3.53209,5.74343,-2.38398,3.57964,5.74343,-2.38398,3.58579,6.90402,-2.39359,3.52594,6.90402,-2.39359,3.52594,5.61047,-2.38737,3.58579,5.61047,-2.38737,3.52594,6.9003,-2.58584,3.58579,6.9003,-2.58584,3.58579,5.60675,-2.57961,3.52594,5.60675,-2.57961,3.8693,6.28185,-2.31049,3.8693,6.23575,-2.31026,3.24243,6.23575,-2.31026,3.24243,6.28185,-2.31049,3.95035,6.28773,-2.31454,3.95035,6.22971,-2.31426,3.16138,6.22971,-2.31426,3.16138,6.28773,-2.31454,3.8693,6.28037,-2.38656,3.8693,6.23427,-2.38634,3.24243,6.23427,-2.38634,3.24243,6.28037,-2.38656,3.95035,6.28625,-2.39062,3.95035,6.22824,-2.39034,3.95035,6.28253,-2.58287,3.95035,6.22451,-2.58259,3.16138,6.28253,-2.58287,3.16138,6.22451,-2.58259,3.16138,6.22824,-2.39034,3.16138,6.28625,-2.39062,3.8693,6.77269,-2.31285,3.8693,5.7449,-2.3079,3.24243,5.7449,-2.3079,3.24243,6.77269,-2.31285,3.95035,6.9055,-2.31752,3.95035,5.61194,-2.31129,3.16138,5.61194,-2.31129,3.16138,6.9055,-2.31752,3.8693,6.77122,-2.38893,3.8693,5.74343,-2.38398,3.24243,5.74343,-2.38398,3.24243,6.77122,-2.38893,3.95035,5.60675,-2.57961,3.95035,6.9003,-2.58584,3.95035,5.61047,-2.38737,3.95035,6.90402,-2.39359,3.16138,5.60675,-2.57961,3.16138,6.9003,-2.58584,3.16138,5.61047,-2.38737,3.16138,6.90402,-2.39359,1.15172,6.77318,-2.28793,1.10417,5.74538,-2.28299,1.15786,6.90598,-2.2926,1.09802,5.61242,-2.28638,0.814504,6.23623,-2.28535,4.94049,7.59789,-1.98741,4.94049,7.59789,-8.29627,2.3419,7.47715,-7.80154,2.3419,7.47715,-2.48213,4.94049,8.64074,-5.14184,4.94049,7.47715,-2.48213,4.94049,7.47715,-7.80154,2.3419,7.48433,-2.08311,2.3419,9.10224,-5.14184,2.3419,7.48432,-8.20057,4.94049,9.26643,-5.14184,2.3419,7.48433,-2.08311,2.3419,9.10224,-5.14184,4.75942,9.10224,-5.14184,2.3419,7.48432,-8.20057,4.75942,7.48433,-2.08311,2.3419,7.47715,-7.80154,4.75942,8.64074,-5.14184,4.75942,7.47715,-2.48213,4.75942,7.47715,-7.80154,4.75942,9.26643,-5.14184,4.75942,7.59789,-1.98741,4.75942,7.59789,-8.29627,3.55066,7.47715,-2.48213,3.55066,7.47715,-7.80154,3.55066,9.10224,-5.14184,3.55066,7.48433,-2.08311,3.55066,7.48432,-8.20057,3.55066,9.10224,-5.14184,3.55066,7.48433,-2.08311,4.75942,5.39886,-2.48213,4.75942,5.39886,-7.80154,2.3419,5.39886,-7.80154,2.3419,5.39886,-2.48213,3.55066,5.39886,-2.48213,3.55066,5.39886,-7.80154,4.75942,7.47715,-5.14184,4.75942,5.39886,-5.14184,4.75942,8.05894,-3.81199,4.75942,8.40685,-3.51678,2.3419,8.29328,-3.61247,4.75942,8.29328,-3.61247,4.94049,8.05894,-3.81199,4.94049,8.40685,-3.51678,3.55066,8.29328,-3.61247,2.3419,8.29328,-6.6712,4.75942,8.05894,-6.47169,4.75942,8.40685,-6.7669,2.3419,8.29328,-6.6712,4.94049,8.05894,-6.47169,4.94049,8.40685,-6.7669,3.55066,8.29328,-6.6712,5.05889,9.10224,-5.14184,5.05889,8.64074,-5.14184,5.05889,8.05894,-3.81199,5.05889,7.47715,-2.48213,5.05889,8.05894,-6.47169,5.05889,8.29328,-3.61247,5.0589,7.48433,-2.08311,5.05889,8.29328,-6.6712,5.05889,7.47715,-7.80154,5.05889,7.48432,-8.20057,4.75942,8.29328,-3.61247,4.75942,7.48433,-2.08311,4.75942,8.29328,-6.6712,4.75942,9.10224,-5.14184,4.94049,8.29328,-3.61247,4.94049,7.48433,-2.08311,4.94049,8.29328,-6.6712,4.94049,9.10224,-5.14184,4.75942,7.48432,-8.20057,4.94049,7.48432,-8.20057,2.3419,5.48024,-7.69616,2.72172,5.36995,-7.69616,2.3419,5.56992,-7.6489,2.68867,5.33334,-7.69616,3.16138,5.61076,-7.88896,3.16138,6.90438,-7.88896,3.16138,5.61076,-7.6967,3.16138,6.90438,-7.6967,3.95035,5.61076,-7.88896,3.95035,6.90438,-7.88896,3.95035,5.61076,-7.6967,3.95035,6.90438,-7.6967,3.24243,5.74365,-7.89299,3.24243,6.77149,-7.89299,3.8693,6.77149,-7.89299,3.8693,5.74365,-7.89299,3.16138,5.61076,-7.96504,3.16138,6.90438,-7.96504,3.95035,6.90438,-7.96504,3.95035,5.61076,-7.96504,3.24243,5.74365,-7.96907,3.24243,6.77149,-7.96907,3.8693,6.77149,-7.96907,3.8693,5.74365,-7.96907,3.16138,6.22856,-7.88896,3.16138,6.28658,-7.88896,3.16138,6.28658,-7.6967,3.16138,6.22856,-7.6967,3.95035,6.28658,-7.6967,3.95035,6.22856,-7.6967,3.95035,6.28658,-7.88896,3.95035,6.22856,-7.88896,3.24243,6.23452,-7.89299,3.24243,6.28062,-7.89299,3.8693,6.28062,-7.89299,3.8693,6.23452,-7.89299,3.16138,6.22856,-7.96504,3.16138,6.28658,-7.96504,3.95035,6.28658,-7.96504,3.95035,6.22856,-7.96504,3.24243,6.23452,-7.96907,3.24243,6.28062,-7.96907,3.8693,6.28062,-7.96907,3.8693,6.23452,-7.96907,3.52594,6.90438,-7.6967,3.58579,6.90438,-7.6967,3.58579,5.61076,-7.6967,3.52594,5.61076,-7.6967,3.58579,6.90438,-7.88896,3.52594,6.90438,-7.88896,3.57964,6.77149,-7.89299,3.53209,6.77149,-7.89299,3.53209,5.74365,-7.89299,3.57964,5.74365,-7.89299,3.58579,6.90438,-7.96504,3.52594,6.90438,-7.96504,3.57964,6.77149,-7.96907,3.53209,6.77149,-7.96907,3.53209,5.74365,-7.96907,3.57964,5.74365,-7.96907,3.53209,6.28062,-7.89299,3.57964,6.28062,-7.89299,3.53209,6.23452,-7.89299,3.57964,6.23452,-7.89299,3.58579,6.28658,-7.6967,3.52594,6.28658,-7.6967,3.58579,6.22856,-7.6967,3.52594,6.22856,-7.6967,3.53209,6.28062,-7.89299,3.57964,6.28062,-7.89299,3.53209,6.23452,-7.89299,3.57964,6.23452,-7.89299,3.53209,6.28062,-7.97219,3.57964,6.28062,-7.97219,3.53209,6.23452,-7.97219,3.57964,6.23452,-7.97219,3.16138,6.28658,-7.98996,3.16138,6.90438,-7.98996,3.95035,6.22856,-7.98996,3.95035,5.61076,-7.98996,3.52594,6.90438,-7.98996,3.58579,5.61076,-7.98996,3.24243,6.28062,-7.99398,3.24243,6.77149,-7.99398,3.8693,6.23452,-7.99398,3.8693,5.74365,-7.99398,3.53209,6.77149,-7.99398,3.57964,5.74365,-7.99398,3.8693,6.77149,-7.99398,3.95035,6.90438,-7.98996,3.16138,5.61076,-7.98996,3.24243,5.74365,-7.99398,3.16138,6.22856,-7.98996,3.95035,6.28658,-7.98996,3.24243,6.23452,-7.99398,3.8693,6.28062,-7.99398,3.58579,6.90438,-7.98996,3.52594,5.61076,-7.98996,3.57964,6.77149,-7.99398,3.53209,5.74365,-7.99398,1.44138,6.28233,-2.28557,1.52242,5.60675,-2.57961,0.733458,6.23019,-2.28935,1.52242,6.9003,-2.58584,1.52242,6.28821,-2.28963,1.44138,6.77318,-2.28793,1.52242,6.90598,-2.2926,0.733458,5.61242,-2.28638,0.814504,5.74538,-2.28299,1.10417,6.77318,-2.28793,1.15172,5.74538,-2.28299,0.814504,6.77318,-2.28793,0.814504,6.28233,-2.28557,1.44138,5.74538,-2.28299,1.44138,6.23623,-2.28535,1.09802,6.90598,-2.2926,1.15786,5.61242,-2.28638,0.733458,6.90598,-2.2926,0.733458,6.28821,-2.28963,1.52242,5.61242,-2.28638,1.52242,6.23019,-2.28935,1.52242,5.61047,-2.38737,1.52242,6.90402,-2.39359,1.10417,6.28191,-2.30737,1.15172,6.28191,-2.30737,1.10417,6.23581,-2.30715,1.15172,6.23581,-2.30715,1.10417,6.28037,-2.38656,1.15172,6.28037,-2.38656,1.10417,6.23427,-2.38634,1.15172,6.23427,-2.38634,1.15786,6.28253,-2.58287,1.09802,6.28253,-2.58287,1.15786,6.22451,-2.58259,1.09802,6.22451,-2.58259,1.10417,6.28037,-2.38656,1.15172,6.28037,-2.38656,1.10417,6.23427,-2.38634,1.15172,6.23427,-2.38634,1.10417,6.77269,-2.31285,1.15172,6.77269,-2.31285,1.15172,5.7449,-2.3079,1.10417,5.7449,-2.3079,1.09802,6.9055,-2.31752,1.15786,6.9055,-2.31752,1.15786,5.61194,-2.31129,1.09802,5.61194,-2.31129,1.10417,6.77122,-2.38893,1.15172,6.77122,-2.38893,1.15172,5.74343,-2.38398,1.10417,5.74343,-2.38398,1.09802,6.90402,-2.39359,1.15786,6.90402,-2.39359,1.15786,5.61047,-2.38737,1.09802,5.61047,-2.38737,1.15786,6.9003,-2.58584,1.09802,6.9003,-2.58584,1.09802,5.60675,-2.57961,1.15786,5.60675,-2.57961,0.814504,6.28185,-2.31049,3.8693,6.23623,-2.28535,0.814504,6.23575,-2.31026,1.44138,6.23575,-2.31026,1.44138,6.28185,-2.31049,0.733458,6.28773,-2.31454,0.733458,6.22971,-2.31426,1.52242,6.22971,-2.31426,1.52242,6.28773,-2.31454,0.814504,6.28037,-2.38656,0.814504,6.23427,-2.38634,1.44138,6.23427,-2.38634,1.44138,6.28037,-2.38656,0.733458,6.28625,-2.39062,0.733458,6.22824,-2.39034,0.733458,6.28253,-2.58287,0.733458,6.22451,-2.58259,1.52242,6.28253,-2.58287,1.52242,6.22451,-2.58259,1.52242,6.22824,-2.39034,1.52242,6.28625,-2.39062,0.814504,6.77269,-2.31285,0.814504,5.7449,-2.3079,1.44138,5.7449,-2.3079,1.44138,6.77269,-2.31285,0.733458,6.9055,-2.31752,0.733458,5.61194,-2.31129,1.52242,5.61194,-2.31129,1.52242,6.9055,-2.31752,0.814504,6.77122,-2.38893,0.814504,5.74343,-2.38398,1.44138,5.74343,-2.38398,1.44138,6.77122,-2.38893,0.733458,5.60675,-2.57961,0.733458,6.9003,-2.58584,0.733458,5.61047,-2.38737,0.733458,6.90402,-2.39359,3.58579,5.61242,-2.28638,3.52594,6.90598,-2.2926,3.57964,5.74538,-2.28299,3.53209,6.77318,-2.28793],
    "name": "CubeGeometry",
    "normals": [0,1,0,0,-1,0,1,0,0,0.345836,-0.905759,0.244881,0.707083,0,0.707083,0,0,1,0,-0.703909,0.710257,0,-0.552385,0.833552,0,0.707083,-0.707083,0,-0.707083,-0.707083,0,0.966948,0.254921,-0.707083,0.683737,0.180273,-0.688314,0.285867,0.666646,0,0.61034,0.792108,0,-0.710257,0.703909,-0.421552,-0.806177,0.415113,0.345836,-0.905759,-0.244881,0,-0.703909,-0.710257,0,-0.124088,0.992248,0,-0.026093,0.999634,0,-0.990173,-0.139805,0,-0.97702,-0.21305,0.707083,-0.690848,-0.150639,0.88049,-0.463118,-0.100986,-0.707083,0,0.707083,0,0.484664,0.874691,0,0.792108,0.61034,0,0.966948,-0.254921,0,0.613361,0.789788,0,-0.97702,0.21305,0.66213,-0.749352,0,0.707083,-0.690848,0.150639,0.707083,0.683737,-0.180273,0.547075,0.115299,-0.829096,-0.547075,0.115299,-0.829096,-0.707083,0.683737,-0.180273,0.707083,0.683737,0.180273,0.653951,0.756493,0,-0.653951,0.756493,0,0.589648,-0.746483,-0.308267,0,-0.99469,0.102664,0.784692,-0.468795,0.405499,-0.589648,-0.746483,0.308267,0,0,-1,0,-0.707083,0.707083,0,0.707083,0.707083,0.707083,-0.707083,0,0.707083,0.707083,0,0.577349,0.577349,0.577349,0.577349,-0.577349,0.577349,0.577349,-0.577349,-0.577349,0.301492,0.904508,0.301492,0.577349,0.577349,-0.577349,0.301492,0.904508,-0.301492,0.707083,0,-0.707083,0,0.482559,0.87582,0,0.788202,0.615375,0.758324,-0.651814,0,0.547075,0.115299,0.829096,-0.547075,0.115299,0.829096,0.538163,-0.104587,-0.836299,0.682821,-0.726707,0.075014,0.167394,0.953307,0.25132,0.707083,0.683737,-0.180242,0.769219,0.638936,0,-0.050874,-0.338816,-0.939451,-0.985565,0.107181,-0.130833,0.980255,0,-0.197668,0.52678,0.242897,0.814508,0.909635,0.415204,-0.010865,0.999878,-0.002197,0.014039,-0.346477,-0.661306,0.665273,0,-0.737571,0.675253,-0.473952,-0.720878,0.5056,0.468673,0.883175,-0.017884,0.460433,0.783471,0.417249,0,0.525773,-0.850612,0,0.999847,-0.016785,-0.710166,-0.303934,0.635029,0,-0.334544,-0.942351,-0.576708,-0.566515,0.58858,-0.529191,-0.235847,0.815058,-0.313944,-0.344432,0.884732,0,-0.351115,0.936308,0.581713,-0.565752,0.584368,0.713126,0.335429,0.615528,0.350627,0.726768,0.590625,0,0.92056,0.390545,-1,0,0,-0.707083,0,-0.707083,-0.577349,-0.577349,-0.577349,-0.707083,-0.707083,0,-0.577349,-0.577349,0.577349,0.304788,-0.903165,0.302286,-0.577349,0.577349,-0.577349,-0.707083,0.707083,0,-0.577349,0.577349,0.577349,-0.903317,-0.304361,0.302194,-0.304788,-0.903165,0.302286,0,-0.685293,0.728233,0.28367,-0.277657,0.917814,-0.582995,-0.582293,0.566546,-0.725089,0,0.68865,-0.903317,0.304361,0.302194,-0.68865,0,0.725089,0.903317,0.304361,0.302194,-0.304788,0.903165,0.302286,0.903317,-0.304361,0.302194,-0.302194,0.302957,0.903806,-0.28367,-0.277657,0.917814,-0.28367,0.277657,0.917814,0,-0.728233,0.685293,0.304788,0.903165,0.302286,0.302194,-0.302957,0.903806,-0.302194,-0.302957,0.903806,0.302194,0.302957,0.903806,0.68865,0,0.725089,0.582995,-0.582293,0.566546,0,0.728233,0.685293,-0.582995,0.582293,0.566546,0.725089,0,0.68865,0.582995,0.582293,0.566546,0.28367,0.277657,0.917814,0,0.685293,0.728233,0.304788,-0.900204,-0.311014,0,-0.678243,-0.734825,-0.28367,-0.268777,-0.920469,-0.707083,-0.707053,-0.006806,0.707083,-0.707053,-0.006806,0.28367,-0.268777,-0.920469,-0.304788,-0.900204,-0.311014,0.725089,0.006653,-0.688589,0.725089,0.006653,-0.68862,0,-0.72158,-0.692282,0,0.692282,-0.72161,-0.582995,-0.5768,-0.572131,0.28367,0.286477,-0.915098,0,0.734825,-0.678213,0.582995,0.587756,-0.5609,-0.725089,0.006653,-0.68862,0.68865,0.006989,-0.725028,0.68862,0.006989,-0.725059,-0.725089,0.006653,-0.688589,-0.582995,0.587756,-0.5609,-0.68862,0.006989,-0.725059,-0.68865,0.006989,-0.725028,0.582995,-0.5768,-0.572131,-0.28367,0.286477,-0.915098,-0.302194,-0.294229,-0.906674,-0.304788,0.906034,-0.293588,-0.577349,0.582873,-0.571734,0.302194,0.311655,-0.900845,0.577349,-0.571734,-0.582873,0.999969,0,0,-0.302194,0.311686,-0.900845,0.302194,-0.294229,-0.906674,0,-0.009644,0.999939,0,0.700217,0.713889,0.707083,-0.006806,0.707053,0.577349,0.571734,0.582873,0.304788,0.906034,-0.293588,-0.707083,0.707053,0.006806,0.577349,0.582873,-0.571734,0,0.999939,0.009644,0.707083,0.707053,0.006806,0,-0.999939,-0.009644,0,-0.713889,0.700217,-0.577349,-0.582873,0.571734,0.903317,-0.301431,-0.305124,-0.577349,-0.571734,-0.582873,0,0.009644,-0.999939,-0.903317,0.307291,-0.299264,-0.903317,-0.301431,-0.305124,0.903317,0.307291,-0.299264,0.577349,-0.582873,0.571734,-0.707083,-0.006806,0.707053,0,0.713889,-0.700247,-0.577349,0.571734,0.582873,0,0.713889,-0.700217,-0.302194,0.311655,-0.900845,-0.345836,-0.905759,0.244881,0.688314,0.285867,0.666646,0,-0.89761,0.440779,-0.345836,-0.905759,-0.244881,0.45848,-0.876797,0.144963,-0.88052,-0.463118,-0.100986,-0.707083,-0.690848,-0.150639,0,0.969329,0.245643,-0.707083,-0.690848,0.150639,-0.66213,-0.749352,0,-0.589648,-0.746483,-0.308267,0.589648,-0.746483,0.308267,-0.784692,-0.468825,0.405499,-0.301492,0.904508,0.301492,-0.301492,0.904508,-0.301492,0,-0.678213,-0.734825,-0.758324,-0.651814,0,-0.682821,-0.726707,0.075014,-0.538163,-0.104587,-0.836299,-0.167394,0.953307,0.25132,-0.769219,0.638936,0,0.050874,-0.338816,-0.939451,-0.980255,0,-0.197638,0.899686,0.16541,-0.403912,-0.52678,0.242897,0.814508,-0.999878,-0.002197,0.014039,-0.909635,0.415204,-0.010865,0.346477,-0.661306,0.665273,0.473952,-0.720878,0.5056,-0.468673,0.883175,-0.017884,-0.460433,0.783471,0.417249,0.710166,-0.303934,0.635029,0.529191,-0.235847,0.815058,0.576708,-0.566515,0.58858,0.313944,-0.344432,0.884732,-0.581713,-0.565752,0.584368,-0.713126,0.335429,0.615528,-0.350627,0.726768,0.590625,-0.725089,0.006623,-0.688589,-0.725089,0.006623,-0.68862,-0.999969,0,0,-0.903317,0.30726,-0.299264,-0.38963,-0.899838,-0.19599,0,-0.700705,-0.713431,0,-0.887906,-0.459975,0,0.883938,-0.467544,0.707083,0.62505,-0.330607,0.8287,0.279641,0.484787,0,0.856594,0.515946,0,-0.700705,0.713431,0.282876,-0.658437,0.697409,-0.38963,-0.899838,0.19599,0,-0.232124,-0.972655,0,-0.219733,0.975555,0,-0.963775,0.266671,0,-0.916135,0.4008,-0.707083,-0.647816,0.283395,-0.865261,-0.459273,0.200903,0,0.33723,0.941404,0,0.515946,0.856594,0,0.883938,0.467544,0,0.409803,0.912168,0,-0.916135,-0.4008,-0.627033,-0.778985,0,-0.707083,-0.647816,-0.283395,-0.707083,0.62505,0.330607,-0.566912,0.157201,0.808618,0.566912,0.157201,0.808618,0.707083,0.62505,0.330607,-0.707083,0.62505,-0.330607,-0.615436,0.788141,0,0.615436,0.788141,0,-0.463881,-0.718741,0.517869,0,-0.98059,-0.195929,-0.613239,-0.410382,-0.674886,0.463881,-0.718741,-0.517869,0,0.650349,0.759606,0,0.999298,0.036653,-0.809351,-0.587298,0,-0.566912,0.157201,-0.808618,0.566912,0.157201,-0.808618,-0.541093,-0.195196,0.817957,-0.662038,-0.734916,-0.146825,-0.305765,0.841609,-0.445143,-0.828883,0.559404,0,0,-0.32841,0.944517,0.094943,-0.326945,0.940245,-0.30314,-0.903836,-0.301889,0.903348,-0.30427,-0.302164,0.30314,-0.903836,-0.301889,0,-0.69631,-0.717734,-0.280068,-0.292611,-0.914274,0.713157,-0.013825,-0.700827,0.724418,0,-0.689322,0.903348,0.30427,-0.302164,0.689322,0,-0.724418,-0.903348,0.30427,-0.302164,0.30314,0.903836,-0.301889,-0.903348,-0.30427,-0.302164,0.303354,0.301187,-0.903989,0.280068,-0.292611,-0.914274,0.280068,0.292611,-0.914274,-0.30314,0.903836,-0.301889,-0.303354,-0.301187,-0.903989,0.303354,-0.301187,-0.903989,-0.303354,0.301187,-0.903989,-0.689322,0,-0.724418,0,0.717734,-0.69631,0.580187,0.581561,-0.570177,-0.724418,0,-0.689322,-0.580187,0.581561,-0.570177,-0.280068,0.292611,-0.914274,0,-0.030274,-0.999512,-0.713157,-0.013825,-0.700827,0,0.69631,-0.717734,-0.299387,-0.899411,0.31843,0,-0.687582,0.726096,0.276345,-0.28721,0.917112,0.707083,-0.706961,0.013672,-0.707083,-0.706961,0.013672,-0.276345,-0.28721,0.917112,0.299387,-0.899411,0.31843,-0.724418,0.003296,0.689322,-0.724448,0.003296,0.689291,0,-0.70925,0.704917,0,0.704917,0.709281,0.58095,-0.574236,0.576769,-0.283792,0.297922,0.911405,0,0.726127,0.687551,-0.579424,0.588824,0.563463,0.724448,0.003296,0.689291,-0.689322,0.003479,0.724418,0.724418,0.003327,0.689322,0.579424,0.588824,0.563463,0.689322,0.003479,0.724418,-0.58095,-0.574236,0.576769,0.283792,0.297922,0.911405,0.299631,-0.295846,0.90701,0.306894,0.907956,0.285287,0.576586,0.584643,0.570696,0.710349,-0.703696,0.013611,-0.307108,0.306436,0.900967,-0.578112,-0.569903,0.583911,0.307108,0.306436,0.900967,-0.299631,-0.295846,0.90701,0,-0.004822,-0.999969,0,0.698477,-0.715598,-0.707083,-0.003388,-0.707083,-0.578112,0.569933,-0.58388,-0.306894,0.907956,0.285287,0.707083,0.706961,-0.013642,-0.576586,0.584643,0.570696,0,0.999786,-0.019349,-0.707083,0.706961,-0.013672,0,-0.999786,0.019349,0,-0.715598,-0.698508,0.576586,-0.584643,-0.570696,-0.901639,-0.30311,0.30839,-0.578112,-0.569933,0.58388,-0.576556,0.584674,0.570696,0.578112,-0.569903,0.583911,0,0.004791,0.999969,0,0.999786,-0.019379,-0.707083,0.706961,-0.013703,0.707083,0.706961,-0.013703,0.905087,0.305307,0.295938,0.901639,-0.30311,0.30839,0,-0.999786,0.019379,0.707083,-0.706961,0.013703,-0.905087,0.305307,0.295938,0.703787,0.710257,-0.013764,-0.576586,-0.584643,-0.570696,0.707083,-0.003388,-0.707083,0.578112,-0.569933,0.58388,-0.707083,-0.706961,0.013703,-0.710349,-0.703696,0.013611,-0.707083,0.706961,-0.013642,0.576556,0.584674,0.570696,0.707083,0.706961,-0.013672,0,0.715598,0.698477,0.578112,0.569933,-0.58388,0,-0.70925,0.704947,-0.58095,-0.574236,0.5768,-0.579455,0.588824,0.563433,0.38963,-0.899838,-0.19599,-0.8287,0.279641,0.484787,0,-0.887906,0.459975,0.38963,-0.899838,0.19599,-0.334635,-0.778863,0.530412,0.865261,-0.459273,0.200903,0.707083,-0.647816,0.283395,0,0.674459,0.738273,0.707083,-0.647816,-0.283395,0.627033,-0.778985,0,0.463881,-0.718741,0.517869,-0.463881,-0.718741,-0.517869,0.613239,-0.410382,-0.674886,0.809351,-0.587298,0,0.662038,-0.734916,-0.146825,0.541093,-0.195196,0.817988,0.305765,0.841609,-0.445143,0.828883,0.559404,0,-0.094943,-0.326945,0.940245,0.724418,0.003296,0.689322,0,0.704917,0.70925,0,0.698508,-0.715598,-0.703787,0.710257,-0.013764],
    "metadata": {
        "materials": 1,
        "type": "Geometry",
        "normals": 387,
        "uvs": 1,
        "faces": 1082,
        "version": 3,
        "vertices": 1166,
        "generator": "io_three"
    },
    "uvs": [[0.493373,0.273056,0.98973,0.269799,0.991466,0.519563,0.495109,0.522821,0.832543,0.535672,0.903643,0.535672,0.903643,0.606772,0.832543,0.606772,0.922096,0.703872,0.922269,0.947712,0.113566,0.949831,0.113394,0.705991,0.911883,0.701858,0.919178,0.947986,0.074722,0.950351,0.067427,0.704224,0.28411,0.546854,0.282446,0.617368,0.140744,0.617318,0.142408,0.546804,0.590379,0.609028,0.529252,0.609028,0.529252,0.547901,0.590379,0.547901,0,0,1,0,1,1,0,1,0.496122,0.556865,0.568294,0.556865,0.568294,0.629036,0.496122,0.629036,0.909517,0.701864,0.916812,0.947992,0.072356,0.950357,0.065061,0.70423,0.786317,0.713226,0.781983,0.937209,0.212906,0.938222,0.21724,0.714238,0.897406,0.694747,0.897578,0.938725,0.088418,0.940845,0.088246,0.696867,0.913035,0.698685,0.913207,0.942525,0.104505,0.944644,0.104333,0.700805,0.899442,0.697415,0.899614,0.941255,0.090912,0.943374,0.09074,0.699534,0.997661,0.764163,0.74768,0.836592,0.497699,0.909021,0.497699,0.764164,0.247718,0.836592,-0.002263,0.764164,0.560052,0.574989,0.555641,0.574989,0.555641,0.570577,0.560052,0.570577,0.609361,0.626917,0.514871,0.626917,0.514871,0.532427,0.609361,0.532427,0.87348,0.58113,0.866762,0.58113,0.866762,0.574412,0.87348,0.574412,0.928339,0.671197,0.91773,0.671197,0.91773,0.660588,0.928339,0.660588,0.55313,0.570707,0.558906,0.570707,0.558906,0.576483,0.55313,0.576483,0.715235,0.545364,0.714189,0.631925,0.399794,0.630879,0.40084,0.544318,0.796876,0.543305,0.884096,0.543305,0.884096,0.630525,0.796876,0.630525,0.539238,0.601371,0.483768,0.601371,0.483768,0.545901,0.539238,0.545901,0.796511,0.533737,0.902866,0.533737,0.902866,0.640092,0.796511,0.640092,0.813064,0.998163,0.170126,0.999245,0.166195,0.803374,0.809133,0.802291,0.860775,0.961976,0.109485,0.96245,0.104727,0.690646,0.856018,0.690172,0.860764,0.961215,0.109473,0.961689,0.104716,0.689884,0.856006,0.689411,0.903643,0.55412,0.902701,0.55412,0.902701,0.536508,0.810799,0.998174,0.167861,0.999256,0.163931,0.803384,0.806868,0.802302,0.810799,0.996967,0.167861,0.998049,0.163931,0.802177,0.806868,0.801095,0.645912,0.79522,0.346488,0.794964,0.349486,0.702126,0.648911,0.702382,0.618896,0.902839,0.402056,0.90659,0.506902,0.847825,0.611747,0.78906,0.459571,0.527854,0.568036,0.527854,0.568036,0.636319,0.459571,0.636319,-0.002984,0.276313,-0.001248,0.526078,-0.004719,0.026549,0.491638,0.023291,0.987995,0.020034,0.208392,0.644743,0.179914,0.644733,0.151629,0.520671,0.257993,0.630782]],
    "faces": [43,637,636,3,634,0,0,1,2,3,0,0,0,0,43,50,27,305,364,0,4,5,6,7,1,1,1,1,43,51,46,16,42,0,8,9,10,11,2,2,3,4,43,44,29,309,359,0,12,13,14,15,5,6,7,5,43,39,37,337,340,0,4,5,6,7,8,9,9,8,43,62,75,76,30,0,16,17,18,19,10,11,12,13,43,31,74,15,28,0,20,21,22,23,14,15,16,17,43,32,316,309,29,0,20,21,22,23,18,19,7,6,43,10,60,67,71,0,20,21,22,23,20,21,22,23,43,73,74,13,54,0,24,25,26,27,24,15,25,26,43,57,373,319,33,0,16,17,18,19,27,27,28,26,43,31,314,318,34,0,24,25,26,27,14,14,26,26,43,30,76,12,33,0,24,25,26,27,13,12,25,26,43,55,8,14,52,0,20,21,22,23,29,1,30,31,43,60,10,16,58,0,20,21,22,23,21,20,3,22,43,56,6,18,53,0,28,29,30,31,32,33,34,35,43,61,11,17,59,0,28,29,30,31,36,37,38,11,43,78,9,15,74,0,20,21,22,23,39,40,16,15,43,10,82,81,16,0,20,21,22,23,20,41,42,3,43,43,35,333,360,0,32,33,34,35,43,8,8,43,43,38,40,339,338,0,4,5,6,7,44,45,45,44,43,48,49,21,5,0,4,5,6,7,46,47,48,49,43,48,5,23,45,0,4,5,6,7,46,49,1,1,43,37,4,22,26,0,4,5,6,7,9,50,1,1,43,38,338,305,27,0,4,5,6,7,44,44,1,1,43,39,340,333,35,0,4,5,6,7,8,8,8,8,43,40,21,25,36,0,4,5,6,7,45,48,51,45,43,49,20,24,47,0,4,5,6,7,47,52,53,47,43,339,40,36,332,0,4,5,6,7,45,45,45,45,43,20,39,35,24,0,4,5,6,7,52,8,8,53,43,5,38,27,23,0,4,5,6,7,49,44,1,1,43,337,37,26,306,0,4,5,6,7,9,9,1,1,43,5,21,40,38,0,4,5,6,7,49,48,45,44,43,41,24,35,43,0,32,33,34,35,54,53,8,43,43,315,30,33,319,0,24,25,26,27,55,13,26,28,43,74,31,34,13,0,24,25,26,27,15,14,26,25,43,54,57,33,12,0,16,17,18,19,26,27,26,25,43,81,32,29,16,0,20,21,22,23,42,18,6,3,43,314,31,28,310,0,20,21,22,23,14,14,17,17,43,378,62,30,315,0,16,17,18,19,56,10,13,55,43,20,4,37,39,0,4,5,6,7,52,50,9,8,43,42,16,29,44,0,32,33,34,35,4,3,6,5,43,45,23,27,50,0,4,5,6,7,1,1,1,1,43,25,42,44,36,0,32,33,34,35,51,4,5,45,43,15,41,43,28,0,32,33,34,35,16,54,43,17,43,28,43,360,310,0,32,33,34,35,17,43,43,17,43,36,44,359,332,0,36,37,38,39,45,5,5,45,43,47,51,42,25,0,40,41,42,43,47,2,4,51,43,24,41,51,47,0,44,45,46,47,53,54,2,47,43,22,45,50,26,0,4,5,6,7,1,1,1,1,43,21,49,47,25,0,4,5,6,7,48,47,47,51,43,4,48,45,22,0,4,5,6,7,50,46,1,1,43,4,20,49,48,0,4,5,6,7,50,52,47,46,43,41,15,46,51,0,48,49,50,51,54,16,2,2,43,26,50,364,306,0,4,5,6,7,1,1,1,1,43,15,52,14,46,0,52,53,54,55,16,31,30,2,43,46,14,58,16,0,55,54,56,57,2,30,22,3,43,13,34,57,54,0,16,17,18,19,25,26,27,26,43,11,56,53,17,0,28,29,30,31,37,32,35,38,43,9,55,52,15,0,20,21,22,23,40,29,31,16,43,34,318,373,57,0,16,17,18,19,26,26,27,27,43,76,73,54,12,0,24,25,26,27,12,24,26,25,43,60,8,64,67,0,20,21,22,23,21,1,57,22,43,316,32,62,378,0,16,17,18,19,19,18,10,56,43,7,61,59,19,0,28,29,30,31,58,36,11,59,43,8,60,58,14,0,20,21,22,23,1,21,22,30,43,9,78,69,66,0,20,21,22,23,40,39,60,61,43,32,81,75,62,0,16,17,18,19,18,42,11,10,43,68,63,64,65,0,16,17,18,19,32,37,57,31,43,70,72,71,67,0,16,17,18,19,36,62,23,22,43,69,68,65,66,0,16,17,18,19,60,32,31,61,43,63,70,67,64,0,16,17,18,19,37,36,22,57,43,78,77,68,69,0,16,17,18,19,39,63,32,60,43,8,55,65,64,0,20,21,22,23,1,29,31,57,43,79,82,72,70,0,16,17,18,19,36,41,62,36,43,80,79,70,63,0,16,17,18,19,64,36,36,37,43,77,80,63,68,0,16,17,18,19,63,64,37,32,43,55,9,66,65,0,20,21,22,23,29,40,61,31,43,53,18,74,73,0,28,29,30,31,35,34,15,24,43,59,17,76,75,0,28,29,30,31,11,38,12,11,43,6,56,77,78,0,28,29,30,31,33,32,63,39,43,11,61,79,80,0,28,29,30,31,37,36,36,64,43,18,6,78,74,0,58,59,60,61,34,33,39,15,43,7,19,81,82,0,58,59,60,61,58,59,42,41,43,17,53,73,76,0,28,29,30,31,38,35,24,12,43,56,11,80,77,0,28,29,30,31,32,37,64,63,43,19,59,75,81,0,28,29,30,31,59,11,11,42,43,61,7,82,79,0,28,29,30,31,36,58,41,36,43,91,92,93,88,0,62,63,64,65,65,66,67,9,43,86,94,83,85,0,62,63,64,65,68,69,70,48,43,96,406,405,90,0,62,63,64,65,71,72,44,44,43,90,88,93,95,0,66,67,68,69,44,9,67,73,43,89,87,417,418,0,62,63,64,65,74,75,76,77,43,94,86,87,89,0,62,63,64,65,69,68,75,74,43,405,407,88,90,0,4,5,6,7,44,9,9,44,43,84,96,90,95,0,62,63,64,65,78,71,44,73,43,408,91,88,407,0,62,63,64,65,79,65,9,9,43,87,86,92,91,0,62,63,64,65,75,68,66,65,43,86,85,93,92,0,24,25,26,27,68,48,67,66,43,84,95,98,97,0,62,63,64,65,78,73,80,81,43,85,83,95,93,0,70,71,72,73,48,70,73,67,43,406,96,99,428,0,62,63,64,65,72,71,82,83,43,417,87,91,408,0,62,63,64,65,76,75,65,79,43,95,83,101,98,0,70,71,72,73,73,70,84,80,43,101,100,97,98,0,62,63,64,65,84,85,81,80,43,102,432,428,99,0,74,75,76,77,86,87,83,82,43,100,102,99,97,0,62,63,64,65,85,86,82,81,43,94,89,102,100,0,62,63,64,65,69,74,86,85,43,89,418,432,102,0,62,63,64,65,74,77,87,86,43,83,94,100,101,0,62,63,64,65,70,69,85,84,43,96,84,97,99,0,62,63,64,65,71,78,81,82,43,123,126,105,103,0,78,79,80,81,88,89,90,91,43,169,128,109,145,0,24,25,26,27,43,54,50,9,43,128,130,107,109,0,78,79,80,81,54,2,46,50,43,151,113,121,159,0,78,79,80,81,49,92,91,93,43,150,145,109,107,0,78,79,80,81,1,9,50,46,43,148,143,106,104,0,78,79,80,81,0,8,94,95,43,165,131,111,153,0,82,83,84,85,44,49,48,96,43,150,107,118,158,0,78,79,80,81,1,46,46,1,43,123,103,115,135,0,78,79,80,81,88,91,91,88,43,134,114,122,142,0,78,79,80,81,92,96,95,97,43,160,159,201,189,0,78,79,80,81,98,93,99,99,43,120,160,189,186,0,78,79,80,81,46,98,99,100,43,135,115,193,195,0,78,79,80,81,88,91,101,102,43,141,142,187,198,0,78,79,80,81,103,97,104,104,43,132,112,120,140,0,78,79,80,81,48,49,46,105,43,148,104,116,156,0,78,79,80,81,0,95,95,0,43,129,108,117,137,0,78,79,80,81,2,47,47,2,43,153,111,119,161,0,78,79,80,81,96,48,47,106,43,107,130,138,118,0,78,79,80,81,46,2,2,46,43,130,129,137,138,0,78,79,80,81,2,2,2,2,43,111,131,139,119,0,78,79,80,81,48,49,107,47,43,140,175,171,132,0,78,79,80,81,105,108,95,48,43,159,121,191,201,0,78,79,80,81,93,91,109,99,43,142,122,188,187,0,78,79,80,81,97,95,110,104,43,121,141,198,191,0,78,79,80,81,91,103,104,109,43,157,158,184,200,0,78,79,80,81,1,1,111,111,43,113,133,141,121,0,78,79,80,81,92,96,103,91,43,175,160,152,171,0,78,79,80,81,108,98,92,95,43,104,124,136,116,0,78,79,80,81,95,88,88,95,43,124,123,135,136,0,78,79,80,81,88,88,88,88,43,152,112,132,163,0,82,83,84,85,92,49,48,5,43,162,178,177,161,0,78,79,80,81,112,113,114,106,43,110,108,129,127,0,78,79,80,81,52,47,2,54,43,127,129,130,128,0,78,79,80,81,54,2,2,54,43,144,110,127,167,0,24,25,26,27,8,52,54,43,43,167,127,128,169,0,24,25,26,27,43,54,54,43,43,104,106,125,124,0,78,79,80,81,95,94,89,88,43,124,125,126,123,0,78,79,80,81,88,89,89,88,43,125,168,170,126,0,24,25,26,27,89,43,43,89,43,168,167,169,170,0,24,25,26,27,43,43,43,43,43,106,143,168,125,0,78,79,80,81,94,8,43,89,43,143,144,167,168,0,24,25,26,27,8,8,43,43,43,178,162,154,174,0,78,79,80,81,113,112,48,46,43,140,139,177,175,0,78,79,80,81,105,107,114,108,43,113,151,164,133,0,82,83,84,85,92,49,5,96,43,142,178,174,134,0,78,79,80,81,97,113,46,92,43,114,154,162,122,0,78,79,80,81,96,48,112,95,43,141,176,178,142,0,78,79,80,81,103,115,113,97,43,108,147,155,117,0,78,79,80,81,47,0,0,47,43,147,148,156,155,0,78,79,80,81,0,0,0,0,43,140,120,186,185,0,78,79,80,81,105,46,100,116,43,139,140,185,197,0,78,79,80,81,107,105,116,116,43,115,157,200,193,0,78,79,80,81,91,1,111,101,43,158,118,182,184,0,78,79,80,81,1,46,117,111,43,103,149,157,115,0,78,79,80,81,91,1,1,91,43,149,150,158,157,0,78,79,80,81,1,1,1,1,43,134,166,154,114,0,82,83,84,85,92,5,48,96,43,141,133,172,176,0,78,79,80,81,103,96,47,115,43,108,110,144,147,0,78,79,80,81,47,52,8,0,43,147,144,143,148,0,78,79,80,81,0,8,8,0,43,103,105,146,149,0,78,79,80,81,91,90,9,1,43,149,146,145,150,0,78,79,80,81,1,9,9,1,43,112,152,160,120,0,78,79,80,81,49,92,98,46,43,160,175,176,159,0,78,79,80,81,98,108,115,93,43,126,170,146,105,0,78,79,80,81,89,43,9,90,43,170,169,145,146,0,78,79,80,81,43,43,9,9,43,176,175,177,178,0,78,79,80,81,115,108,114,113,43,177,173,153,161,0,78,79,80,81,114,88,96,106,43,176,172,151,159,0,78,79,80,81,115,47,49,93,43,183,180,186,189,0,78,79,80,81,118,119,100,99,43,196,192,191,198,0,78,79,80,81,120,121,109,104,43,195,193,194,197,0,78,79,80,81,102,101,122,116,43,184,182,188,190,0,78,79,80,81,111,117,110,123,43,180,179,185,186,0,78,79,80,81,119,102,116,100,43,179,195,197,185,0,78,79,80,81,102,102,116,116,43,182,181,187,188,0,78,79,80,81,117,120,104,110,43,181,196,198,187,0,78,79,80,81,120,120,104,104,43,193,200,202,194,0,78,79,80,81,101,111,123,122,43,200,184,190,202,0,78,79,80,81,111,111,123,123,43,192,199,201,191,0,78,79,80,81,121,118,99,109,43,199,183,189,201,0,78,79,80,81,118,118,99,99,43,136,135,195,179,0,78,79,80,81,88,88,102,102,43,122,162,190,188,0,78,79,80,81,95,112,123,110,43,161,119,194,202,0,78,79,80,81,106,47,122,123,43,116,136,179,180,0,78,79,80,81,95,88,102,119,43,137,117,192,196,0,78,79,80,81,2,47,121,120,43,162,161,202,190,0,78,79,80,81,112,106,123,123,43,118,138,181,182,0,78,79,80,81,46,2,120,117,43,117,155,199,192,0,78,79,80,81,47,0,118,121,43,138,137,196,181,0,78,79,80,81,2,2,120,120,43,156,116,180,183,0,78,79,80,81,0,95,119,118,43,155,156,183,199,0,78,79,80,81,0,0,118,118,43,119,139,197,194,0,78,79,80,81,47,107,116,122,43,239,632,206,281,0,78,79,80,81,124,125,126,127,43,278,212,210,238,0,78,79,80,81,128,129,125,130,43,264,221,205,265,0,78,79,80,81,2,131,132,2,43,629,631,211,217,0,78,79,80,81,133,134,134,133,43,208,209,631,629,0,78,79,80,81,135,136,134,133,43,630,632,210,216,0,78,79,80,81,137,125,125,137,43,207,206,632,630,0,78,79,80,81,138,126,125,137,43,219,213,593,204,0,78,79,80,81,139,140,141,142,43,218,212,213,219,0,78,79,80,81,143,129,140,139,43,221,215,203,205,0,78,79,80,81,131,144,145,132,43,220,214,215,221,0,78,79,80,81,146,147,144,131,43,216,210,212,218,0,78,79,80,81,137,125,129,143,43,205,203,206,207,0,78,79,80,81,132,145,126,138,43,204,593,209,208,0,78,79,80,81,142,141,136,135,43,217,211,214,220,0,78,79,80,81,133,134,147,146,43,224,241,249,228,0,78,79,80,81,148,149,150,127,43,223,239,247,227,0,86,87,88,89,151,124,152,153,43,224,222,223,225,0,78,79,80,81,148,154,151,155,43,230,254,255,231,0,24,25,26,27,156,157,157,156,43,274,295,254,230,0,24,25,26,27,158,159,157,156,43,240,241,224,225,0,78,79,80,81,160,149,148,155,43,288,280,240,248,0,78,79,80,81,150,161,160,162,43,251,250,255,254,0,78,79,80,81,163,163,157,157,43,297,251,254,295,0,78,79,80,81,164,163,157,159,43,253,252,257,256,0,78,79,80,81,165,165,166,166,43,292,253,256,290,0,78,79,80,81,127,165,166,167,43,259,224,228,267,0,78,79,80,81,168,148,127,152,43,266,286,246,234,0,90,91,92,93,162,152,169,170,43,251,243,242,250,0,78,79,80,81,163,163,163,163,43,297,285,243,251,0,78,79,80,81,164,164,163,163,43,242,216,218,282,0,78,79,80,81,163,137,143,161,43,285,207,630,243,0,78,79,80,81,164,138,137,163,43,261,203,215,260,0,78,79,80,81,171,145,144,172,43,260,215,214,280,0,78,79,80,81,172,144,147,161,43,253,245,244,252,0,78,79,80,81,165,165,165,165,43,292,283,245,253,0,78,79,80,81,127,127,165,165,43,259,258,222,224,0,78,79,80,81,168,173,154,148,43,286,278,238,246,0,78,79,80,81,152,128,130,169,43,258,266,226,222,0,78,79,80,81,173,162,161,154,43,287,267,236,249,0,90,91,92,93,162,152,170,150,43,260,225,223,261,0,78,79,80,81,172,155,151,171,43,222,226,246,238,0,78,79,80,81,154,161,169,130,43,257,232,233,256,0,24,25,26,27,166,156,156,166,43,294,275,232,257,0,24,25,26,27,174,158,156,166,43,232,230,231,233,0,24,25,26,27,156,156,156,156,43,275,274,230,232,0,24,25,26,27,158,158,156,156,43,276,277,274,275,0,78,79,80,81,2,2,158,158,43,296,276,275,294,0,78,79,80,81,128,2,158,174,43,233,231,272,273,0,24,25,26,27,156,156,175,175,43,256,233,273,290,0,24,25,26,27,166,156,175,167,43,273,272,270,271,0,78,79,80,81,175,175,88,88,43,290,273,271,292,0,78,79,80,81,167,175,88,127,43,238,239,223,222,0,78,79,80,81,130,124,151,154,43,248,237,268,288,0,90,91,92,93,162,170,169,150,43,276,264,265,277,0,78,79,80,81,2,2,2,2,43,296,284,264,276,0,78,79,80,81,128,128,2,2,43,225,229,248,240,0,78,79,80,81,155,128,162,160,43,287,279,259,267,0,78,79,80,81,162,164,168,152,43,243,630,216,242,0,78,79,80,81,163,137,137,163,43,279,209,593,259,0,78,79,80,81,164,136,141,168,43,258,213,212,278,0,78,79,80,81,173,140,129,128,43,241,631,209,279,0,78,79,80,81,149,134,136,164,43,260,268,229,225,0,78,79,80,81,172,169,128,155,43,289,281,261,269,0,78,79,80,81,169,127,171,150,43,270,262,263,271,0,78,79,80,81,88,88,88,88,43,293,282,262,270,0,78,79,80,81,161,161,88,88,43,247,239,281,289,0,78,79,80,81,152,124,127,169,43,271,263,283,292,0,78,79,80,81,88,88,127,127,43,252,244,284,296,0,78,79,80,81,165,165,128,128,43,268,260,280,288,0,78,79,80,81,169,172,161,150,43,259,593,213,258,0,78,79,80,81,168,141,140,173,43,265,205,207,285,0,78,79,80,81,2,132,138,164,43,280,214,211,240,0,78,79,80,81,161,147,134,160,43,240,211,631,241,0,78,79,80,81,160,134,134,149,43,266,258,278,286,0,78,79,80,81,162,173,128,152,43,277,265,285,297,0,78,79,80,81,2,2,164,164,43,250,242,282,293,0,78,79,80,81,163,163,161,161,43,235,247,289,269,0,90,91,92,93,176,152,169,150,43,252,296,294,257,0,78,79,80,81,165,128,174,166,43,250,293,291,255,0,78,79,80,81,163,161,177,157,43,249,241,279,287,0,78,79,80,81,150,149,164,162,43,272,291,293,270,0,78,79,80,81,175,177,161,88,43,231,255,291,272,0,24,25,26,27,156,157,177,175,43,277,297,295,274,0,78,79,80,81,2,164,159,158,43,596,604,569,557,0,78,79,80,81,173,162,178,179,43,616,596,533,538,0,78,79,80,81,128,173,140,129,43,579,578,549,301,0,78,79,80,81,165,165,133,133,43,578,619,552,549,0,78,79,80,81,165,127,135,133,43,597,598,535,551,0,78,79,80,81,2,2,131,132,43,618,579,301,540,0,78,79,80,81,128,165,133,146,43,617,597,551,550,0,78,79,80,81,164,2,132,138,43,139,131,165,177,0,78,79,80,81,107,49,44,114,43,369,364,305,343,0,4,5,6,7,1,1,1,1,43,370,358,326,365,0,94,95,96,97,88,24,180,88,43,362,359,309,345,0,98,99,100,101,5,5,7,6,43,355,340,337,353,0,4,5,6,7,8,8,9,9,43,384,346,398,397,0,16,17,18,19,10,13,181,36,43,347,344,325,396,0,20,21,22,23,182,17,183,184,43,348,345,309,316,0,20,21,22,23,18,6,7,19,43,313,393,389,382,0,20,21,22,23,20,185,186,21,43,395,374,322,396,0,24,25,26,27,4,26,26,184,43,377,349,319,373,0,16,17,18,19,27,26,28,27,43,347,350,318,314,0,24,25,26,27,182,187,26,14,43,309,323,321,316,0,24,25,26,27,7,5,5,19,43,378,381,319,315,0,24,25,26,27,56,5,28,55,43,346,349,320,398,0,24,25,26,27,13,26,25,181,43,375,371,324,311,0,20,21,22,23,29,188,189,1,43,382,379,326,313,0,20,21,22,23,21,186,180,20,43,376,372,328,307,0,28,29,30,31,35,32,33,34,43,383,380,327,317,0,28,29,30,31,11,36,37,38,43,400,396,325,312,0,20,21,22,23,190,184,183,40,43,313,326,403,404,0,20,21,22,23,20,180,191,192,43,361,360,333,351,0,102,103,104,105,43,43,8,8,43,354,338,339,356,0,4,5,6,7,44,44,45,45,43,367,304,331,368,0,4,5,6,7,91,92,96,95,43,367,363,335,304,0,106,107,108,5,91,1,1,92,43,353,342,334,303,0,4,5,6,7,9,1,1,90,43,354,343,305,338,0,70,71,72,73,44,1,1,44,43,355,351,333,340,0,4,5,6,7,8,8,8,8,43,356,352,341,331,0,4,5,6,7,45,45,193,96,43,368,366,336,330,0,4,5,6,7,95,95,194,94,43,339,332,352,356,0,4,5,6,7,45,45,45,45,43,330,336,351,355,0,4,5,6,7,94,194,8,8,43,304,335,343,354,0,4,5,6,7,92,1,1,44,43,337,306,342,353,0,4,5,6,7,9,1,1,9,43,304,354,356,331,0,4,5,6,7,92,44,45,96,43,357,361,351,336,0,102,103,104,105,89,43,8,194,43,315,319,349,346,0,24,25,26,27,55,28,26,13,43,572,573,298,542,0,78,79,80,81,124,130,195,195,43,374,320,349,377,0,16,17,18,19,26,25,26,27,43,403,326,345,348,0,20,21,22,23,191,180,6,18,43,314,310,344,347,0,20,21,22,23,14,17,17,182,43,378,315,346,384,0,16,17,18,19,56,55,13,10,43,330,355,353,303,0,4,5,6,7,94,8,9,90,43,358,362,345,326,0,102,103,104,105,24,5,6,180,43,363,369,343,335,0,4,5,6,7,1,1,1,1,43,341,352,362,358,0,102,103,104,105,193,45,5,24,43,325,344,361,357,0,102,103,104,105,183,17,43,89,43,344,310,360,361,0,102,103,104,105,17,17,43,43,43,352,332,359,362,0,102,103,104,105,45,45,5,5,43,366,341,358,370,0,109,110,111,112,95,193,24,88,43,336,366,370,357,0,113,114,115,116,194,95,88,89,43,334,342,369,363,0,4,5,6,7,1,1,1,1,43,331,341,366,368,0,4,5,6,7,96,193,95,95,43,303,334,363,367,0,4,5,6,7,90,1,1,91,43,303,367,368,330,0,4,5,6,7,90,91,95,94,43,357,370,365,325,0,113,114,115,116,89,88,88,183,43,342,306,364,369,0,4,5,6,7,1,1,1,1,43,325,365,324,371,0,117,118,119,120,183,88,189,188,43,365,326,379,324,0,121,122,123,124,88,180,186,189,43,322,374,377,350,0,16,17,18,19,26,26,27,187,43,317,327,372,376,0,28,29,30,31,38,37,32,35,43,312,325,371,375,0,20,21,22,23,40,183,188,29,43,350,377,373,318,0,16,17,18,19,187,27,27,26,43,398,320,374,395,0,24,25,26,27,181,25,26,4,43,382,389,386,311,0,20,21,22,23,21,186,196,1,43,316,378,384,348,0,16,17,18,19,19,56,10,18,43,308,329,380,383,0,28,29,30,31,59,58,36,11,43,311,324,379,382,0,20,21,22,23,1,189,186,21,43,316,321,381,378,0,24,25,26,27,19,5,5,56,43,312,388,391,400,0,20,21,22,23,40,197,198,190,43,348,384,397,403,0,16,17,18,19,18,10,36,191,43,390,387,386,385,0,16,17,18,19,35,188,196,38,43,392,389,393,394,0,16,17,18,19,11,186,185,199,43,391,388,387,390,0,16,17,18,19,198,197,188,35,43,385,386,389,392,0,16,17,18,19,38,196,186,11,43,400,391,390,399,0,16,17,18,19,190,198,35,35,43,311,386,387,375,0,20,21,22,23,1,196,188,29,43,401,392,394,404,0,16,17,18,19,11,11,199,192,43,402,385,392,401,0,16,17,18,19,200,38,11,11,43,399,390,385,402,0,16,17,18,19,35,35,38,200,43,375,387,388,312,0,20,21,22,23,29,188,197,40,43,372,395,396,328,0,28,29,30,31,32,4,184,33,43,380,397,398,327,0,28,29,30,31,36,36,181,37,43,307,400,399,376,0,28,29,30,31,34,190,35,35,43,317,402,401,383,0,28,29,30,31,38,200,11,11,43,328,396,400,307,0,58,59,60,61,33,184,190,34,43,308,404,403,329,0,20,21,22,23,59,192,191,58,43,327,398,395,372,0,28,29,30,31,37,181,4,32,43,376,399,402,317,0,28,29,30,31,35,35,200,38,43,329,403,397,380,0,58,59,60,61,58,191,36,36,43,383,401,404,308,0,28,29,30,31,11,11,192,59,43,419,414,421,420,0,62,63,64,65,201,9,202,203,43,412,411,409,422,0,62,63,64,65,204,96,205,206,43,424,416,405,406,0,62,63,64,65,207,44,44,72,43,416,423,421,414,0,70,71,72,73,44,208,202,9,43,415,418,417,413,0,62,63,64,65,209,77,76,210,43,422,415,413,412,0,62,63,64,65,206,209,210,204,43,405,416,414,407,0,4,5,6,7,44,44,9,9,43,410,423,416,424,0,62,63,64,65,211,208,44,207,43,408,407,414,419,0,62,63,64,65,79,9,9,201,43,413,419,420,412,0,62,63,64,65,210,201,203,204,43,412,420,421,411,0,62,63,64,65,204,203,202,96,43,410,425,426,423,0,62,63,64,65,211,212,213,208,43,411,421,423,409,0,4,5,6,7,96,202,208,205,43,406,428,427,424,0,62,63,64,65,72,83,214,207,43,417,408,419,413,0,62,63,64,65,76,79,201,210,43,423,426,430,409,0,70,71,72,73,208,213,215,205,43,430,426,425,429,0,62,63,64,65,215,213,212,216,43,431,427,428,432,0,74,75,76,77,217,214,83,87,43,429,425,427,431,0,62,63,64,65,216,212,214,217,43,422,429,431,415,0,62,63,64,65,206,216,217,209,43,415,431,432,418,0,62,63,64,65,209,217,87,77,43,409,430,429,422,0,125,126,127,128,205,215,216,206,43,424,427,425,410,0,62,63,64,65,207,214,212,211,43,453,433,435,456,0,78,79,80,81,2,46,50,54,43,499,475,439,458,0,24,25,26,27,43,9,90,89,43,458,439,437,460,0,78,79,80,81,89,90,91,88,43,481,489,451,443,0,78,79,80,81,92,98,46,49,43,480,437,439,475,0,78,79,80,81,1,91,90,9,43,478,434,436,473,0,78,79,80,81,0,47,52,8,43,495,483,441,461,0,90,91,92,93,44,48,96,92,43,480,488,448,437,0,78,79,80,81,1,1,91,91,43,453,465,445,433,0,78,79,80,81,2,2,46,46,43,464,472,452,444,0,78,79,80,81,49,107,47,48,43,490,519,531,489,0,78,79,80,81,93,99,99,98,43,450,516,519,490,0,78,79,80,81,91,109,99,93,43,465,525,523,445,0,78,79,80,81,2,120,117,46,43,471,528,517,472,0,78,79,80,81,105,116,116,107,43,462,470,450,442,0,78,79,80,81,96,103,91,92,43,478,486,446,434,0,78,79,80,81,0,0,47,47,43,459,467,447,438,0,78,79,80,81,88,88,95,95,43,483,491,449,441,0,78,79,80,81,48,112,95,96,43,437,448,468,460,0,78,79,80,81,91,91,88,88,43,460,468,467,459,0,78,79,80,81,88,88,88,88,43,441,449,469,461,0,78,79,80,81,96,95,97,92,43,470,462,501,505,0,78,79,80,81,103,96,47,115,43,489,531,521,451,0,78,79,80,81,98,99,100,46,43,472,517,518,452,0,78,79,80,81,107,116,122,47,43,451,521,528,471,0,78,79,80,81,46,100,116,105,43,487,530,514,488,0,78,79,80,81,1,111,111,1,43,443,451,471,463,0,78,79,80,81,49,46,105,48,43,505,501,482,490,0,78,79,80,81,115,47,49,93,43,434,446,466,454,0,78,79,80,81,47,47,2,2,43,454,466,465,453,0,78,79,80,81,2,2,2,2,43,482,493,462,442,0,90,91,92,93,49,5,96,92,43,492,491,507,508,0,78,79,80,81,106,112,113,114,43,440,457,459,438,0,78,79,80,81,94,89,88,95,43,457,458,460,459,0,78,79,80,81,89,89,88,88,43,474,497,457,440,0,24,25,26,27,8,43,89,94,43,497,499,458,457,0,24,25,26,27,43,43,89,89,43,434,454,455,436,0,78,79,80,81,47,2,54,52,43,454,453,456,455,0,78,79,80,81,2,2,54,54,43,455,456,500,498,0,24,25,26,27,54,54,43,43,43,498,500,499,497,0,24,25,26,27,43,43,43,43,43,436,455,498,473,0,24,25,26,27,52,54,43,8,43,473,498,497,474,0,24,25,26,27,8,43,43,8,43,508,504,484,492,0,78,79,80,81,114,91,96,106,43,470,505,507,469,0,78,79,80,81,103,115,113,97,43,443,463,494,481,0,90,91,92,93,49,48,5,92,43,472,464,504,508,0,78,79,80,81,107,49,91,114,43,444,452,492,484,0,78,79,80,81,48,47,106,96,43,471,472,508,506,0,78,79,80,81,105,107,114,108,43,438,447,485,477,0,78,79,80,81,95,95,0,0,43,477,485,486,478,0,78,79,80,81,0,0,0,0,43,470,515,516,450,0,78,79,80,81,103,104,109,91,43,469,527,515,470,0,78,79,80,81,97,104,104,103,43,445,523,530,487,0,78,79,80,81,46,117,111,1,43,488,514,512,448,0,78,79,80,81,1,111,101,91,43,433,445,487,479,0,78,79,80,81,46,46,1,1,43,479,487,488,480,0,78,79,80,81,1,1,1,1,43,464,444,484,496,0,90,91,92,93,49,48,96,5,43,471,506,502,463,0,78,79,80,81,105,108,95,48,43,438,477,474,440,0,78,79,80,81,95,0,8,94,43,477,478,473,474,0,78,79,80,81,0,0,8,8,43,433,479,476,435,0,78,79,80,81,46,1,9,50,43,479,480,475,476,0,78,79,80,81,1,1,9,9,43,442,450,490,482,0,78,79,80,81,92,91,93,49,43,490,489,506,505,0,78,79,80,81,93,98,108,115,43,456,435,476,500,0,24,25,26,27,54,50,9,43,43,500,476,475,499,0,24,25,26,27,43,9,9,43,43,506,508,507,505,0,78,79,80,81,108,114,113,115,43,507,491,483,503,0,86,87,88,89,113,112,48,2,43,506,489,481,502,0,78,79,80,81,108,98,92,95,43,513,519,516,510,0,78,79,80,81,118,99,109,121,43,526,528,521,522,0,78,79,80,81,102,116,100,119,43,525,527,524,523,0,78,79,80,81,120,104,110,117,43,514,520,518,512,0,78,79,80,81,111,123,122,101,43,510,516,515,509,0,78,79,80,81,121,109,104,120,43,509,515,527,525,0,78,79,80,81,120,104,104,120,43,512,518,517,511,0,78,79,80,81,101,122,116,102,43,511,517,528,526,0,78,79,80,81,102,116,116,102,43,523,524,532,530,0,78,79,80,81,117,110,123,111,43,530,532,520,514,0,78,79,80,81,111,123,123,111,43,522,521,531,529,0,78,79,80,81,119,100,99,118,43,529,531,519,513,0,78,79,80,81,118,99,99,118,43,466,509,525,465,0,78,79,80,81,2,120,120,2,43,452,518,520,492,0,78,79,80,81,47,122,123,106,43,491,532,524,449,0,78,79,80,81,112,123,110,95,43,446,510,509,466,0,78,79,80,81,47,121,120,2,43,467,526,522,447,0,78,79,80,81,88,102,119,95,43,492,520,532,491,0,78,79,80,81,106,123,123,112,43,448,512,511,468,0,78,79,80,81,91,101,102,88,43,447,522,529,485,0,78,79,80,81,95,119,118,0,43,468,511,526,467,0,78,79,80,81,88,102,102,88,43,486,513,510,446,0,78,79,80,81,0,118,121,47,43,485,529,513,486,0,78,79,80,81,0,118,118,0,43,449,524,527,469,0,78,79,80,81,95,110,104,97,43,598,618,540,535,0,78,79,80,81,2,128,146,131,43,619,599,553,552,0,78,79,80,81,127,88,218,135,43,573,616,538,298,0,78,79,80,81,130,128,129,195,43,613,572,542,544,0,78,79,80,81,127,124,195,126,43,599,600,537,553,0,78,79,80,81,88,88,219,218,43,301,549,543,299,0,78,79,80,81,133,133,134,134,43,540,301,299,541,0,78,79,80,81,146,133,134,147,43,300,548,542,298,0,78,79,80,81,137,137,195,195,43,539,300,298,538,0,78,79,80,81,143,137,195,129,43,551,535,302,545,0,78,79,80,81,132,131,144,145,43,550,551,545,544,0,78,79,80,81,138,132,145,126,43,553,537,533,547,0,78,79,80,81,218,219,140,141,43,552,553,547,546,0,78,79,80,81,135,218,141,136,43,548,550,544,542,0,78,79,80,81,137,138,126,195,43,537,539,538,533,0,78,79,80,81,219,143,129,140,43,535,540,541,302,0,78,79,80,81,131,146,147,144,43,549,552,546,543,0,78,79,80,81,133,135,136,134,43,558,562,583,575,0,78,79,80,81,155,128,162,160,43,557,561,581,573,0,78,79,80,81,179,220,169,130,43,558,559,557,556,0,78,79,80,81,155,148,179,151,43,564,565,589,588,0,78,79,80,81,156,156,157,157,43,609,564,588,536,0,78,79,80,81,175,156,157,177,43,574,559,558,575,0,78,79,80,81,149,148,155,160,43,623,582,574,615,0,78,79,80,81,162,150,149,164,43,585,588,589,584,0,78,79,80,81,163,157,157,163,43,555,536,588,585,0,78,79,80,81,161,177,157,163,43,587,590,591,586,0,78,79,80,81,165,166,166,165,43,627,625,590,587,0,78,79,80,81,128,174,166,165,43,594,602,562,558,0,78,79,80,81,172,169,128,155,43,263,204,208,283,0,78,79,80,81,88,142,135,127,43,601,568,580,621,0,82,83,84,85,150,170,152,169,43,585,584,576,577,0,78,79,80,81,163,163,163,163,43,555,585,577,620,0,78,79,80,81,161,163,163,161,43,612,609,536,555,0,78,79,80,81,88,175,177,161,43,576,617,550,548,0,78,79,80,81,163,164,138,137,43,620,577,300,539,0,78,79,80,81,161,163,137,143,43,596,595,547,533,0,78,79,80,81,173,168,141,140,43,595,615,546,547,0,78,79,80,81,168,164,136,141,43,587,586,578,579,0,78,79,80,81,165,165,165,165,43,627,587,579,618,0,78,79,80,81,128,165,165,128,43,594,558,556,592,0,78,79,80,81,172,155,151,221,43,621,580,572,613,0,78,79,80,81,169,152,124,127,43,592,556,560,601,0,78,79,80,81,221,151,164,150,43,622,583,570,602,0,82,83,84,85,150,162,170,169,43,595,596,557,559,0,78,79,80,81,168,173,179,148,43,556,572,580,560,0,78,79,80,81,151,124,152,164,43,591,590,567,566,0,24,25,26,27,166,166,156,156,43,534,591,566,610,0,78,79,80,81,167,166,156,175,43,566,567,565,564,0,24,25,26,27,156,156,156,156,43,610,566,564,609,0,24,25,26,27,175,156,156,175,43,611,610,609,612,0,78,79,80,81,88,175,175,88,43,554,534,610,611,0,78,79,80,81,127,167,175,88,43,567,608,607,565,0,24,25,26,27,156,158,158,156,43,590,625,608,567,0,24,25,26,27,166,174,158,156,43,608,606,605,607,0,78,79,80,81,158,2,2,158,43,625,627,606,608,0,78,79,80,81,174,128,2,158,43,572,556,557,573,0,78,79,80,81,124,151,179,130,43,582,623,603,571,0,82,83,84,85,150,162,152,170,43,611,612,600,599,0,78,79,80,81,88,88,88,88,43,554,611,599,619,0,78,79,80,81,127,88,88,127,43,559,574,582,563,0,78,79,80,81,148,149,150,127,43,622,602,594,614,0,78,79,80,81,150,169,172,161,43,577,576,548,300,0,78,79,80,81,163,163,137,137,43,614,594,302,541,0,78,79,80,81,161,172,144,147,43,592,613,544,545,0,78,79,80,81,221,127,126,145,43,575,614,541,299,0,78,79,80,81,160,161,147,134,43,595,559,563,603,0,78,79,80,81,168,148,127,152,43,624,604,596,616,0,78,79,80,81,152,162,173,128,43,605,606,598,597,0,78,79,80,81,2,2,2,2,43,628,605,597,617,0,78,79,80,81,164,2,2,164,43,581,624,616,573,0,78,79,80,81,169,152,128,130,43,606,627,618,598,0,78,79,80,81,2,128,128,2,43,586,554,619,578,0,78,79,80,81,165,127,127,165,43,603,623,615,595,0,78,79,80,81,152,162,164,168,43,594,592,545,302,0,78,79,80,81,172,221,145,144,43,600,620,539,537,0,78,79,80,81,88,161,143,219,43,615,574,543,546,0,78,79,80,81,164,149,134,136,43,574,575,299,543,0,78,79,80,81,149,160,134,134,43,601,621,613,592,0,78,79,80,81,150,169,127,221,43,612,555,620,600,0,78,79,80,81,88,161,161,88,43,584,628,617,576,0,78,79,80,81,163,164,164,163,43,569,604,624,581,0,82,83,84,85,178,162,152,169,43,586,591,534,554,0,78,79,80,81,165,166,167,127,43,584,589,626,628,0,78,79,80,81,163,157,159,164,43,583,622,614,575,0,78,79,80,81,162,150,161,160,43,607,605,628,626,0,78,79,80,81,158,2,164,159,43,565,607,626,589,0,24,25,26,27,156,158,159,157,43,284,220,221,264,0,78,79,80,81,128,146,131,2,43,469,507,495,461,0,78,79,80,81,97,113,44,92,43,238,210,632,239,0,78,79,80,81,130,125,125,124,43,282,218,219,262,0,78,79,80,81,161,143,139,88,43,283,208,629,245,0,78,79,80,81,127,135,133,165,43,262,219,204,263,0,78,79,80,81,88,139,142,88,43,244,217,220,284,0,78,79,80,81,165,133,146,128,43,245,629,217,244,0,78,79,80,81,165,133,133,165,43,281,206,203,261,0,78,79,80,81,127,126,145,171,43,261,223,235,269,0,78,79,80,81,171,151,176,150,43,635,637,634,2,0,129,0,3,130,0,0,0,0,43,0,633,637,635,0,131,132,0,129,0,0,0,0,43,633,1,636,637,0,132,133,1,0,0,0,0,0,43,664,663,648,660,0,8,9,10,11,88,88,222,89,43,662,653,896,926,0,12,13,14,15,43,223,224,43,43,675,688,689,654,0,16,17,18,19,225,226,227,228,43,655,687,647,652,0,20,21,22,23,229,230,231,229,43,656,903,896,653,0,20,21,22,23,232,233,224,223,43,642,673,680,684,0,20,21,22,23,234,235,236,237,43,686,687,645,667,0,24,25,26,27,4,230,238,239,43,670,934,906,657,0,16,17,18,19,240,240,241,239,43,655,901,905,658,0,24,25,26,27,229,229,239,239,43,654,689,644,657,0,24,25,26,27,228,227,238,239,43,668,640,646,665,0,20,21,22,23,242,1,243,244,43,673,642,648,671,0,20,21,22,23,235,234,222,236,43,669,638,650,666,0,28,29,30,31,245,246,247,248,43,674,643,649,672,0,28,29,30,31,249,250,251,226,43,691,641,647,687,0,20,21,22,23,252,253,231,230,43,642,695,694,648,0,20,21,22,23,234,254,255,222,43,902,654,657,906,0,24,25,26,27,256,228,239,241,43,687,655,658,645,0,24,25,26,27,230,229,239,238,43,667,670,657,644,0,16,17,18,19,239,240,239,238,43,694,656,653,648,0,20,21,22,23,255,232,223,222,43,901,655,652,897,0,20,21,22,23,229,229,229,229,43,939,675,654,902,0,16,17,18,19,257,225,228,256,43,660,648,653,662,0,32,33,34,35,89,222,223,43,43,647,659,661,652,0,32,33,34,35,231,24,5,229,43,652,661,927,897,0,32,33,34,35,229,5,5,229,43,659,647,663,664,0,48,49,50,51,24,231,88,88,43,647,665,646,663,0,52,53,54,55,231,244,243,88,43,663,646,671,648,0,55,54,56,57,88,243,236,222,43,645,658,670,667,0,16,17,18,19,238,239,240,239,43,643,669,666,649,0,28,29,30,31,250,245,248,251,43,641,668,665,647,0,20,21,22,23,253,242,244,231,43,658,905,934,670,0,16,17,18,19,239,239,240,240,43,689,686,667,644,0,24,25,26,27,227,4,239,238,43,673,640,677,680,0,20,21,22,23,235,1,258,236,43,903,656,675,939,0,16,17,18,19,233,232,225,257,43,639,674,672,651,0,28,29,30,31,259,249,226,260,43,640,673,671,646,0,20,21,22,23,1,235,236,243,43,641,691,682,679,0,20,21,22,23,253,252,261,262,43,656,694,688,675,0,16,17,18,19,232,255,226,225,43,681,676,677,678,0,16,17,18,19,245,250,258,244,43,682,681,678,679,0,16,17,18,19,261,245,244,262,43,676,683,680,677,0,16,17,18,19,250,249,236,258,43,691,690,681,682,0,16,17,18,19,252,245,245,261,43,640,668,678,677,0,20,21,22,23,1,242,244,258,43,692,695,685,683,0,16,17,18,19,249,254,263,249,43,693,692,683,676,0,16,17,18,19,264,249,249,250,43,690,693,676,681,0,16,17,18,19,245,264,250,245,43,668,641,679,678,0,20,21,22,23,242,253,262,244,43,666,650,687,686,0,28,29,30,31,248,247,230,4,43,672,649,689,688,0,28,29,30,31,226,251,227,226,43,638,669,690,691,0,28,29,30,31,246,245,245,252,43,643,674,692,693,0,28,29,30,31,250,249,249,264,43,650,638,691,687,0,58,59,60,61,247,246,252,230,43,639,651,694,695,0,58,59,60,61,259,260,255,254,43,649,666,686,689,0,28,29,30,31,251,248,4,227,43,669,643,693,690,0,28,29,30,31,245,250,264,245,43,651,672,688,694,0,28,29,30,31,260,226,226,255,43,674,639,695,692,0,28,29,30,31,249,259,254,249,43,968,696,697,966,0,62,63,64,65,265,266,266,265,43,718,721,700,698,0,78,79,80,81,2,4,4,2,43,760,723,704,740,0,24,25,26,27,5,24,24,5,43,723,725,702,704,0,78,79,80,81,24,88,88,24,43,744,708,716,750,0,78,79,80,81,90,50,46,267,43,743,738,701,699,0,78,79,80,81,0,45,48,47,43,756,726,706,746,0,82,83,84,85,9,90,94,52,43,718,698,710,730,0,78,79,80,81,2,2,2,2,43,729,709,717,737,0,78,79,80,81,50,52,47,268,43,751,750,792,780,0,78,79,80,81,269,267,270,270,43,715,751,780,777,0,78,79,80,81,91,269,270,271,43,730,710,784,786,0,78,79,80,81,2,2,272,273,43,736,737,778,789,0,78,79,80,81,274,268,275,275,43,727,707,715,735,0,78,79,80,81,94,90,91,276,43,743,699,711,749,0,78,79,80,81,0,47,47,0,43,724,703,712,732,0,78,79,80,81,88,95,95,88,43,746,706,714,752,0,78,79,80,81,52,94,95,277,43,702,725,733,713,0,78,79,80,81,88,88,88,88,43,725,724,732,733,0,78,79,80,81,88,88,88,88,43,706,726,734,714,0,78,79,80,81,94,90,278,95,43,735,766,762,727,0,78,79,80,81,276,279,47,94,43,750,716,782,792,0,78,79,80,81,267,46,280,270,43,737,717,779,778,0,78,79,80,81,268,47,281,275,43,716,736,789,782,0,78,79,80,81,46,274,275,280,43,708,728,736,716,0,78,79,80,81,50,52,274,46,43,766,751,745,762,0,78,79,80,81,279,269,50,47,43,699,719,731,711,0,78,79,80,81,47,2,2,47,43,719,718,730,731,0,78,79,80,81,2,2,2,2,43,745,707,727,754,0,82,83,84,85,50,90,94,43,43,753,769,768,752,0,78,79,80,81,282,283,284,277,43,705,703,724,722,0,78,79,80,81,96,95,88,24,43,722,724,725,723,0,78,79,80,81,24,88,88,24,43,739,705,722,758,0,24,25,26,27,45,96,24,5,43,758,722,723,760,0,24,25,26,27,5,24,24,5,43,699,701,720,719,0,78,79,80,81,47,48,4,2,43,719,720,721,718,0,78,79,80,81,2,4,4,2,43,720,759,761,721,0,24,25,26,27,4,5,5,4,43,759,758,760,761,0,24,25,26,27,5,5,5,5,43,701,738,759,720,0,78,79,80,81,48,45,5,4,43,738,739,758,759,0,24,25,26,27,45,45,5,5,43,769,753,747,765,0,78,79,80,81,283,282,94,91,43,735,734,768,766,0,78,79,80,81,276,278,284,279,43,708,744,755,728,0,82,83,84,85,50,90,43,52,43,737,769,765,729,0,78,79,80,81,268,283,91,50,43,709,747,753,717,0,78,79,80,81,52,94,282,47,43,736,767,769,737,0,78,79,80,81,274,285,283,268,43,703,742,748,712,0,78,79,80,81,95,0,0,95,43,742,743,749,748,0,78,79,80,81,0,0,0,0,43,735,715,777,776,0,78,79,80,81,276,91,271,286,43,734,735,776,788,0,78,79,80,81,278,276,286,286,43,729,757,747,709,0,82,83,84,85,50,43,94,52,43,736,728,763,767,0,78,79,80,81,274,52,95,285,43,703,705,739,742,0,78,79,80,81,95,96,45,0,43,742,739,738,743,0,78,79,80,81,0,45,45,0,43,707,745,751,715,0,78,79,80,81,90,50,269,91,43,751,766,767,750,0,78,79,80,81,269,279,285,267,43,721,761,741,700,0,78,79,80,81,4,5,5,4,43,761,760,740,741,0,78,79,80,81,5,5,5,5,43,767,766,768,769,0,78,79,80,81,285,279,284,283,43,768,764,746,752,0,78,79,80,81,284,2,52,277,43,767,763,744,750,0,78,79,80,81,285,95,90,267,43,774,771,777,780,0,78,79,80,81,287,288,271,270,43,787,783,782,789,0,78,79,80,81,289,290,280,275,43,786,784,785,788,0,78,79,80,81,273,272,291,286,43,775,773,779,781,0,78,79,80,81,292,293,281,294,43,771,770,776,777,0,78,79,80,81,288,273,286,271,43,770,786,788,776,0,78,79,80,81,273,273,286,286,43,773,772,778,779,0,78,79,80,81,293,289,275,281,43,772,787,789,778,0,78,79,80,81,289,289,275,275,43,784,791,793,785,0,78,79,80,81,272,292,294,291,43,791,775,781,793,0,78,79,80,81,292,292,294,294,43,783,790,792,782,0,78,79,80,81,290,287,270,280,43,790,774,780,792,0,78,79,80,81,287,287,270,270,43,731,730,786,770,0,78,79,80,81,2,2,273,273,43,717,753,781,779,0,78,79,80,81,47,282,294,281,43,752,714,785,793,0,78,79,80,81,277,95,291,294,43,711,731,770,771,0,78,79,80,81,47,2,273,288,43,732,712,783,787,0,78,79,80,81,88,95,290,289,43,753,752,793,781,0,78,79,80,81,282,277,294,294,43,713,733,772,773,0,78,79,80,81,88,88,289,293,43,712,748,790,783,0,78,79,80,81,95,0,287,290,43,733,732,787,772,0,78,79,80,81,88,88,289,289,43,749,711,771,774,0,78,79,80,81,0,47,288,287,43,748,749,774,790,0,78,79,80,81,0,0,287,287,43,714,734,788,785,0,78,79,80,81,95,278,286,291,43,830,1165,797,872,0,78,79,80,81,295,296,297,298,43,869,803,801,829,0,78,79,80,81,299,300,296,301,43,855,812,796,856,0,78,79,80,81,88,302,303,88,43,1162,1164,802,808,0,78,79,80,81,304,305,305,304,43,799,800,1164,1162,0,78,79,80,81,306,307,305,304,43,1163,1165,801,807,0,78,79,80,81,308,296,296,308,43,798,797,1165,1163,0,78,79,80,81,309,297,296,308,43,810,804,1126,795,0,78,79,80,81,310,311,311,312,43,809,803,804,810,0,78,79,80,81,313,300,311,310,43,812,806,794,796,0,78,79,80,81,302,314,314,303,43,811,805,806,812,0,78,79,80,81,315,316,314,302,43,807,801,803,809,0,78,79,80,81,308,296,300,313,43,796,794,797,798,0,78,79,80,81,303,314,297,309,43,795,1126,800,799,0,78,79,80,81,312,311,307,306,43,808,802,805,811,0,78,79,80,81,304,305,316,315,43,815,832,840,819,0,78,79,80,81,317,318,319,320,43,814,830,838,818,0,86,87,88,89,321,295,322,88,43,815,813,814,816,0,78,79,80,81,317,323,321,324,43,821,845,846,822,0,24,25,26,27,325,326,326,325,43,865,886,845,821,0,24,25,26,27,327,328,326,325,43,831,832,815,816,0,78,79,80,81,329,318,317,324,43,879,871,831,839,0,78,79,80,81,319,330,329,331,43,842,841,846,845,0,78,79,80,81,332,332,326,326,43,888,842,845,886,0,78,79,80,81,333,332,326,328,43,844,843,848,847,0,78,79,80,81,334,334,335,335,43,883,844,847,881,0,78,79,80,81,298,334,335,336,43,850,815,819,858,0,78,79,80,81,337,317,320,338,43,857,877,837,825,0,90,91,92,93,339,322,340,341,43,842,834,833,841,0,78,79,80,81,332,342,342,332,43,888,876,834,842,0,78,79,80,81,333,343,342,332,43,833,807,809,873,0,78,79,80,81,342,308,313,344,43,876,798,1163,834,0,78,79,80,81,343,309,308,342,43,852,794,806,851,0,78,79,80,81,345,314,314,346,43,851,806,805,871,0,78,79,80,81,346,314,316,330,43,844,836,835,843,0,78,79,80,81,334,347,347,334,43,883,874,836,844,0,78,79,80,81,298,348,347,334,43,850,849,813,815,0,78,79,80,81,337,349,323,317,43,877,869,829,837,0,78,79,80,81,322,299,301,340,43,849,857,817,813,0,78,79,80,81,349,339,350,323,43,878,858,827,840,0,90,91,92,93,331,338,341,319,43,851,816,814,852,0,78,79,80,81,346,324,321,345,43,813,817,837,829,0,78,79,80,81,323,350,340,301,43,848,823,824,847,0,24,25,26,27,335,325,325,335,43,885,866,823,848,0,24,25,26,27,351,327,325,335,43,823,821,822,824,0,24,25,26,27,325,325,325,325,43,866,865,821,823,0,24,25,26,27,327,327,325,325,43,867,868,865,866,0,78,79,80,81,88,88,327,327,43,887,867,866,885,0,78,79,80,81,299,88,327,351,43,824,822,863,864,0,24,25,26,27,325,325,352,352,43,847,824,864,881,0,24,25,26,27,335,325,352,336,43,864,863,861,862,0,78,79,80,81,352,352,2,2,43,881,864,862,883,0,78,79,80,81,336,352,2,298,43,829,830,814,813,0,78,79,80,81,301,295,321,323,43,839,828,859,879,0,90,91,92,93,331,341,353,319,43,867,855,856,868,0,78,79,80,81,88,88,88,88,43,887,875,855,867,0,78,79,80,81,299,354,88,88,43,816,820,839,831,0,78,79,80,81,324,355,331,329,43,878,870,850,858,0,78,79,80,81,331,356,337,338,43,834,1163,807,833,0,78,79,80,81,342,308,308,342,43,870,800,1126,850,0,78,79,80,81,356,307,311,337,43,849,804,803,869,0,78,79,80,81,349,311,300,299,43,832,1164,800,870,0,78,79,80,81,318,305,307,356,43,851,859,820,816,0,78,79,80,81,346,353,355,324,43,880,872,852,860,0,78,79,80,81,340,298,345,357,43,861,853,854,862,0,78,79,80,81,2,2,2,2,43,884,873,853,861,0,78,79,80,81,358,344,2,2,43,838,830,872,880,0,78,79,80,81,322,295,298,340,43,862,854,874,883,0,78,79,80,81,2,2,348,298,43,843,835,875,887,0,78,79,80,81,334,347,354,299,43,859,851,871,879,0,78,79,80,81,353,346,330,319,43,850,1126,804,849,0,78,79,80,81,337,311,311,349,43,856,796,798,876,0,78,79,80,81,88,303,309,343,43,871,805,802,831,0,78,79,80,81,330,316,305,329,43,831,802,1164,832,0,78,79,80,81,329,305,305,318,43,857,849,869,877,0,78,79,80,81,339,349,299,322,43,868,856,876,888,0,78,79,80,81,88,88,343,333,43,841,833,873,884,0,78,79,80,81,332,342,344,358,43,826,838,880,860,0,90,91,92,93,359,322,340,357,43,843,887,885,848,0,78,79,80,81,334,299,351,335,43,841,884,882,846,0,78,79,80,81,332,358,360,326,43,840,832,870,878,0,78,79,80,81,319,318,356,331,43,863,882,884,861,0,78,79,80,81,352,360,358,2,43,822,846,882,863,0,24,25,26,27,325,326,360,352,43,868,888,886,865,0,78,79,80,81,88,333,328,327,43,1129,1137,1102,1090,0,78,79,80,81,349,339,359,323,43,1149,1129,1066,1071,0,78,79,80,81,299,349,311,300,43,1112,1111,1082,892,0,78,79,80,81,347,347,304,361,43,1111,1152,1085,1082,0,78,79,80,81,347,348,306,304,43,1130,1131,1068,1084,0,78,79,80,81,88,88,302,303,43,1151,1112,892,1073,0,78,79,80,81,354,347,361,362,43,1150,1130,1084,1083,0,78,79,80,81,343,88,303,363,43,734,726,756,768,0,78,79,80,81,278,90,9,284,43,931,925,913,930,0,94,95,96,97,2,54,364,2,43,929,926,896,918,0,98,99,100,101,43,43,224,223,43,945,919,959,958,0,16,17,18,19,225,228,365,249,43,920,917,912,957,0,20,21,22,23,366,229,367,368,43,921,918,896,903,0,20,21,22,23,232,223,224,233,43,900,954,950,943,0,20,21,22,23,234,369,370,235,43,956,935,909,957,0,24,25,26,27,24,239,239,368,43,938,922,906,934,0,16,17,18,19,240,239,241,240,43,920,923,905,901,0,24,25,26,27,366,371,239,229,43,896,910,908,903,0,24,25,26,27,224,5,5,233,43,939,942,906,902,0,24,25,26,27,257,5,241,256,43,919,922,907,959,0,24,25,26,27,228,239,238,365,43,936,932,911,898,0,20,21,22,23,242,372,373,1,43,943,940,913,900,0,20,21,22,23,235,370,364,234,43,937,933,915,894,0,28,29,30,31,248,245,246,247,43,944,941,914,904,0,28,29,30,31,226,249,250,251,43,961,957,912,899,0,20,21,22,23,374,368,367,253,43,900,913,964,965,0,20,21,22,23,234,364,375,376,43,902,906,922,919,0,24,25,26,27,256,241,239,228,43,1105,1106,889,1075,0,78,79,80,81,295,301,296,296,43,935,907,922,938,0,16,17,18,19,239,238,239,240,43,964,913,918,921,0,20,21,22,23,375,364,223,232,43,901,897,917,920,0,20,21,22,23,229,229,229,366,43,939,902,919,945,0,16,17,18,19,257,256,228,225,43,925,929,918,913,0,102,103,104,105,54,43,223,364,43,912,917,928,924,0,102,103,104,105,367,229,5,4,43,917,897,927,928,0,102,103,104,105,229,229,5,5,43,924,931,930,912,0,113,114,115,116,4,2,2,367,43,912,930,911,932,0,117,118,119,120,367,2,373,372,43,930,913,940,911,0,121,122,123,124,2,364,370,373,43,909,935,938,923,0,16,17,18,19,239,239,240,371,43,904,914,933,937,0,28,29,30,31,251,250,245,248,43,899,912,932,936,0,20,21,22,23,253,367,372,242,43,923,938,934,905,0,16,17,18,19,371,240,240,239,43,959,907,935,956,0,24,25,26,27,365,238,239,24,43,943,950,947,898,0,20,21,22,23,235,370,377,1,43,903,939,945,921,0,16,17,18,19,233,257,225,232,43,895,916,941,944,0,28,29,30,31,260,259,249,226,43,898,911,940,943,0,20,21,22,23,1,373,370,235,43,903,908,942,939,0,24,25,26,27,233,5,5,257,43,899,949,952,961,0,20,21,22,23,253,378,379,374,43,921,945,958,964,0,16,17,18,19,232,225,249,375,43,951,948,947,946,0,16,17,18,19,248,372,377,251,43,953,950,954,955,0,16,17,18,19,226,370,369,380,43,952,949,948,951,0,16,17,18,19,379,378,372,248,43,946,947,950,953,0,16,17,18,19,251,377,370,226,43,961,952,951,960,0,16,17,18,19,374,379,248,248,43,898,947,948,936,0,20,21,22,23,1,377,372,242,43,962,953,955,965,0,16,17,18,19,226,226,380,376,43,963,946,953,962,0,16,17,18,19,381,251,226,226,43,960,951,946,963,0,16,17,18,19,248,248,251,381,43,936,948,949,899,0,20,21,22,23,242,372,378,253,43,933,956,957,915,0,28,29,30,31,245,24,368,246,43,941,958,959,914,0,28,29,30,31,249,249,365,250,43,894,961,960,937,0,28,29,30,31,247,374,248,248,43,904,963,962,944,0,28,29,30,31,251,381,226,226,43,915,957,961,894,0,58,59,60,61,246,368,374,247,43,895,965,964,916,0,20,21,22,23,260,376,375,259,43,914,959,956,933,0,28,29,30,31,250,365,24,245,43,937,960,963,904,0,28,29,30,31,248,248,381,251,43,916,964,958,941,0,58,59,60,61,259,375,249,249,43,944,962,965,895,0,28,29,30,31,226,226,376,260,43,968,966,969,967,0,62,63,64,65,265,265,382,382,43,990,970,972,993,0,78,79,80,81,88,88,24,24,43,1032,1012,976,995,0,24,25,26,27,5,5,4,4,43,995,976,974,997,0,78,79,80,81,4,4,2,2,43,1016,1022,988,980,0,78,79,80,81,50,269,91,90,43,1015,971,973,1010,0,78,79,80,81,0,95,96,45,43,1028,1018,978,998,0,90,91,92,93,9,94,52,50,43,990,1002,982,970,0,78,79,80,81,88,88,88,88,43,1001,1009,989,981,0,78,79,80,81,90,278,95,94,43,1023,1052,1064,1022,0,78,79,80,81,267,270,270,269,43,987,1049,1052,1023,0,78,79,80,81,46,280,270,267,43,1002,1058,1056,982,0,78,79,80,81,88,289,293,88,43,1008,1061,1050,1009,0,78,79,80,81,276,286,286,278,43,999,1007,987,979,0,78,79,80,81,52,274,46,50,43,1015,1021,983,971,0,78,79,80,81,0,0,95,95,43,996,1004,984,975,0,78,79,80,81,2,2,47,47,43,1018,1024,986,978,0,78,79,80,81,94,282,47,52,43,974,985,1005,997,0,78,79,80,81,2,2,2,2,43,997,1005,1004,996,0,78,79,80,81,2,2,2,2,43,978,986,1006,998,0,78,79,80,81,52,47,268,50,43,1007,999,1034,1038,0,78,79,80,81,274,52,95,285,43,1022,1064,1054,988,0,78,79,80,81,269,270,271,91,43,1009,1050,1051,989,0,78,79,80,81,278,286,291,95,43,988,1054,1061,1008,0,78,79,80,81,91,271,286,276,43,980,988,1008,1000,0,78,79,80,81,90,91,276,94,43,1038,1034,1017,1023,0,78,79,80,81,285,95,90,267,43,971,983,1003,991,0,78,79,80,81,95,95,88,88,43,991,1003,1002,990,0,78,79,80,81,88,88,88,88,43,1017,1026,999,979,0,90,91,92,93,90,43,52,50,43,1025,1024,1040,1041,0,78,79,80,81,277,282,283,284,43,977,994,996,975,0,78,79,80,81,48,4,2,47,43,994,995,997,996,0,78,79,80,81,4,4,2,2,43,1011,1030,994,977,0,24,25,26,27,45,5,4,48,43,1030,1032,995,994,0,24,25,26,27,5,5,4,4,43,971,991,992,973,0,78,79,80,81,95,88,24,96,43,991,990,993,992,0,78,79,80,81,88,88,24,24,43,992,993,1033,1031,0,24,25,26,27,24,24,5,5,43,1031,1033,1032,1030,0,24,25,26,27,5,5,5,5,43,973,992,1031,1010,0,24,25,26,27,96,24,5,45,43,1010,1031,1030,1011,0,24,25,26,27,45,5,5,45,43,1041,1037,1019,1025,0,78,79,80,81,284,46,52,277,43,1007,1038,1040,1006,0,78,79,80,81,274,285,283,268,43,980,1000,1027,1016,0,90,91,92,93,90,94,43,50,43,1009,1001,1037,1041,0,78,79,80,81,278,90,46,284,43,981,989,1025,1019,0,78,79,80,81,94,95,277,52,43,1008,1009,1041,1039,0,78,79,80,81,276,278,284,279,43,975,984,1020,1014,0,78,79,80,81,47,47,0,0,43,1014,1020,1021,1015,0,78,79,80,81,0,0,0,0,43,1007,1048,1049,987,0,78,79,80,81,274,275,280,46,43,1006,1060,1048,1007,0,78,79,80,81,268,275,275,274,43,1001,981,1019,1029,0,90,91,92,93,90,94,52,43,43,1008,1039,1035,1000,0,78,79,80,81,276,279,47,94,43,975,1014,1011,977,0,78,79,80,81,47,0,45,48,43,1014,1015,1010,1011,0,78,79,80,81,0,0,45,45,43,979,987,1023,1017,0,78,79,80,81,50,46,267,90,43,1023,1022,1039,1038,0,78,79,80,81,267,269,279,285,43,993,972,1013,1033,0,24,25,26,27,24,24,5,5,43,1033,1013,1012,1032,0,24,25,26,27,5,5,5,5,43,1039,1041,1040,1038,0,78,79,80,81,279,284,283,285,43,1040,1024,1018,1036,0,86,87,88,89,283,282,94,88,43,1039,1022,1016,1035,0,78,79,80,81,279,269,50,47,43,1046,1052,1049,1043,0,78,79,80,81,287,270,280,290,43,1059,1061,1054,1055,0,78,79,80,81,273,286,271,288,43,1058,1060,1057,1056,0,78,79,80,81,289,275,281,293,43,1047,1053,1051,1045,0,78,79,80,81,292,294,291,272,43,1043,1049,1048,1042,0,78,79,80,81,290,280,275,289,43,1042,1048,1060,1058,0,78,79,80,81,289,275,275,289,43,1045,1051,1050,1044,0,78,79,80,81,272,291,286,273,43,1044,1050,1061,1059,0,78,79,80,81,273,286,286,273,43,1056,1057,1065,1063,0,78,79,80,81,293,281,294,292,43,1063,1065,1053,1047,0,78,79,80,81,292,294,294,292,43,1055,1054,1064,1062,0,78,79,80,81,288,271,270,287,43,1062,1064,1052,1046,0,78,79,80,81,287,270,270,287,43,1003,1042,1058,1002,0,78,79,80,81,88,289,289,88,43,989,1051,1053,1025,0,78,79,80,81,95,291,294,277,43,1024,1065,1057,986,0,78,79,80,81,282,294,281,47,43,983,1043,1042,1003,0,78,79,80,81,95,290,289,88,43,1004,1059,1055,984,0,78,79,80,81,2,273,288,47,43,1025,1053,1065,1024,0,78,79,80,81,277,294,294,282,43,985,1045,1044,1005,0,78,79,80,81,2,272,273,2,43,984,1055,1062,1020,0,78,79,80,81,47,288,287,0,43,1005,1044,1059,1004,0,78,79,80,81,2,273,273,2,43,1021,1046,1043,983,0,78,79,80,81,0,287,290,95,43,1020,1062,1046,1021,0,78,79,80,81,0,287,287,0,43,986,1057,1060,1006,0,78,79,80,81,47,281,275,268,43,1131,1151,1073,1068,0,78,79,80,81,88,354,362,302,43,1152,1132,1086,1085,0,78,79,80,81,348,2,383,306,43,1106,1149,1071,889,0,78,79,80,81,301,299,300,296,43,1146,1105,1075,1077,0,78,79,80,81,298,295,296,297,43,1132,1133,1070,1086,0,78,79,80,81,2,2,310,383,43,892,1082,1076,890,0,78,79,80,81,361,304,305,384,43,1073,892,890,1074,0,78,79,80,81,362,361,384,316,43,891,1081,1075,889,0,78,79,80,81,308,308,296,296,43,1072,891,889,1071,0,78,79,80,81,313,308,296,300,43,1084,1068,893,1078,0,78,79,80,81,303,302,314,314,43,1083,1084,1078,1077,0,78,79,80,81,363,303,314,297,43,1086,1070,1066,1080,0,78,79,80,81,383,310,311,311,43,1085,1086,1080,1079,0,78,79,80,81,306,383,311,307,43,1081,1083,1077,1075,0,78,79,80,81,308,363,297,296,43,1070,1072,1071,1066,0,78,79,80,81,310,313,300,311,43,1068,1073,1074,893,0,78,79,80,81,302,362,316,314,43,1082,1085,1079,1076,0,78,79,80,81,304,306,307,305,43,1091,1095,1116,1108,0,78,79,80,81,324,355,331,329,43,1090,1094,1114,1106,0,78,79,80,81,323,2,353,301,43,1091,1092,1090,1089,0,78,79,80,81,324,317,323,321,43,1097,1098,1122,1121,0,78,79,80,81,325,325,326,385,43,1142,1097,1121,1069,0,78,79,80,81,352,325,385,360,43,1107,1092,1091,1108,0,78,79,80,81,318,317,324,329,43,1156,1115,1107,1148,0,78,79,80,81,331,319,318,356,43,1118,1121,1122,1117,0,78,79,80,81,332,385,326,332,43,1088,1069,1121,1118,0,78,79,80,81,358,360,385,332,43,1120,1123,1124,1119,0,78,79,80,81,334,335,335,334,43,1160,1158,1123,1120,0,78,79,80,81,299,351,335,334,43,1127,1135,1095,1091,0,78,79,80,81,346,353,355,324,43,854,795,799,874,0,78,79,80,81,2,312,306,348,43,1134,1101,1113,1154,0,82,83,84,85,357,341,338,353,43,1118,1117,1109,1110,0,78,79,80,81,332,332,342,342,43,1088,1118,1110,1153,0,78,79,80,81,358,332,342,344,43,1145,1142,1069,1088,0,78,79,80,81,2,352,360,358,43,1109,1150,1083,1081,0,78,79,80,81,342,343,363,308,43,1153,1110,891,1072,0,78,79,80,81,344,342,308,313,43,1129,1128,1080,1066,0,78,79,80,81,349,337,311,311,43,1128,1148,1079,1080,0,78,79,80,81,337,356,307,311,43,1120,1119,1111,1112,0,78,79,80,81,334,334,347,347,43,1160,1120,1112,1151,0,78,79,80,81,299,334,347,354,43,1127,1091,1089,1125,0,78,79,80,81,346,324,321,345,43,1154,1113,1105,1146,0,78,79,80,81,353,338,295,298,43,1125,1089,1093,1134,0,78,79,80,81,345,321,386,357,43,1155,1116,1103,1135,0,82,83,84,85,319,331,341,353,43,1128,1129,1090,1092,0,78,79,80,81,337,349,323,317,43,1089,1105,1113,1093,0,78,79,80,81,321,295,338,386,43,1124,1123,1100,1099,0,24,25,26,27,335,335,325,325,43,1067,1124,1099,1143,0,78,79,80,81,336,335,325,352,43,1099,1100,1098,1097,0,24,25,26,27,325,325,325,325,43,1143,1099,1097,1142,0,24,25,26,27,352,325,325,352,43,1144,1143,1142,1145,0,78,79,80,81,2,352,352,2,43,1087,1067,1143,1144,0,78,79,80,81,298,336,352,2,43,1100,1141,1140,1098,0,24,25,26,27,325,327,327,325,43,1123,1158,1141,1100,0,24,25,26,27,335,351,327,325,43,1141,1139,1138,1140,0,78,79,80,81,327,88,88,327,43,1158,1160,1139,1141,0,78,79,80,81,351,299,88,327,43,1105,1089,1090,1106,0,78,79,80,81,295,321,323,301,43,1115,1156,1136,1104,0,82,83,84,85,319,331,338,341,43,1144,1145,1133,1132,0,78,79,80,81,2,2,2,2,43,1087,1144,1132,1152,0,78,79,80,81,298,2,2,348,43,1092,1107,1115,1096,0,78,79,80,81,317,318,319,320,43,1155,1135,1127,1147,0,78,79,80,81,319,353,346,358,43,1110,1109,1081,891,0,78,79,80,81,342,342,308,308,43,1147,1127,893,1074,0,78,79,80,81,358,346,314,316,43,1125,1146,1077,1078,0,78,79,80,81,345,298,297,314,43,1108,1147,1074,890,0,78,79,80,81,329,358,316,384,43,1128,1092,1096,1136,0,78,79,80,81,337,317,320,338,43,1157,1137,1129,1149,0,78,79,80,81,338,339,349,299,43,1138,1139,1131,1130,0,78,79,80,81,88,88,88,88,43,1161,1138,1130,1150,0,78,79,80,81,333,88,88,343,43,1114,1157,1149,1106,0,78,79,80,81,353,338,299,301,43,1139,1160,1151,1131,0,78,79,80,81,88,299,354,88,43,1119,1087,1152,1111,0,78,79,80,81,334,298,348,347,43,1136,1156,1148,1128,0,78,79,80,81,338,331,356,337,43,1127,1125,1078,893,0,78,79,80,81,346,345,314,314,43,1133,1153,1072,1070,0,78,79,80,81,2,344,313,310,43,1148,1107,1076,1079,0,78,79,80,81,356,318,305,307,43,1107,1108,890,1076,0,78,79,80,81,318,329,384,305,43,1134,1154,1146,1125,0,78,79,80,81,357,353,298,345,43,1145,1088,1153,1133,0,78,79,80,81,2,358,344,2,43,1117,1161,1150,1109,0,78,79,80,81,332,333,343,342,43,1102,1137,1157,1114,0,82,83,84,85,359,339,338,353,43,1119,1124,1067,1087,0,78,79,80,81,334,335,336,298,43,1117,1122,1159,1161,0,78,79,80,81,332,326,328,333,43,1116,1155,1147,1108,0,78,79,80,81,331,319,358,329,43,1140,1138,1161,1159,0,78,79,80,81,327,88,333,328,43,1098,1140,1159,1122,0,24,25,26,27,325,327,328,326,43,875,811,812,855,0,78,79,80,81,354,315,302,88,43,1006,1040,1028,998,0,78,79,80,81,268,283,9,50,43,829,801,1165,830,0,78,79,80,81,301,296,296,295,43,873,809,810,853,0,78,79,80,81,344,313,310,2,43,874,799,1162,836,0,78,79,80,81,348,306,304,347,43,853,810,795,854,0,78,79,80,81,2,310,312,2,43,835,808,811,875,0,78,79,80,81,347,304,315,354,43,836,1162,808,835,0,78,79,80,81,347,304,304,347,43,872,797,794,852,0,78,79,80,81,298,297,314,345,43,852,814,826,860,0,78,79,80,81,345,321,359,357,43,680,683,685,684,0,134,135,136,137,236,249,263,237]
}